{
  "hideWarnings" : false,
  "isPlasma" : false,
  "label" : "Surcharge Check Date",
  "status" : "ACTIVE",
  "type" : "MATRIX",
  "uniqueName" : "SurchargeCheckDate",
  "validAfter" : "2016-01-01",
  "valueType" : "MATRIX"
}