{
  "aggregation" : false,
  "auxiliary" : false,
  "calculated" : false,
  "deleted" : false,
  "deployed" : true,
  "dimension" : false,
  "expression" : "Datum",
  "key" : false,
  "label" : "Datum",
  "labelTranslations" : { },
  "numeric" : false,
  "owningFC" : "TX_New",
  "partitioningKey" : false,
  "persisted" : true,
  "queryable" : true,
  "source" : "DMDS.TX_New",
  "system" : false,
  "time" : true,
  "type" : "DATE",
  "visibility" : 1
}