{
  "areDefault" : true,
  "areGlobal" : true,
  "columnLabels" : "{}",
  "preferenceName" : "Article Level PPI View",
  "viewState" : {
    "field" : [ {
      "autoFitWidth" : false,
      "frozen" : false,
      "name" : "Article",
      "visible" : true,
      "width" : 147
    }, {
      "frozen" : false,
      "name" : "Price_Change_Scenario",
      "visible" : true
    }, {
      "frozen" : false,
      "name" : "Estimated_Loss_To_Business_(Year-2019)_",
      "visible" : true
    }, {
      "frozen" : false,
      "name" : "Number_of_Transactions_(Year-2019)_",
      "visible" : true
    }, {
      "frozen" : false,
      "name" : "Impacted_Number_Of_Transactions_(Year-2019)_",
      "visible" : true
    }, {
      "frozen" : false,
      "name" : "Number_Of_Transacted_Units_(Year-2019)_",
      "visible" : true
    }, {
      "frozen" : false,
      "name" : "Impacted_Number_Of_Transaction_Units_(Year-2019)_",
      "visible" : true
    } ],
    "group" : [ ],
    "sort" : null
  }
}