{
  "actionUUID" : "CalculationTask-pHAxu",
  "calculationConfig" : {
    "feederFormulaName" : "DL_ZPAPCustomerFeeder",
    "feederInputParams" : [ ],
    "formulaName" : "DL_CustomerSalesPrices",
    "inputParams" : [ ],
    "mappingParams" : [ ],
    "outputElements" : [ {
      "displayedInPriceShop" : true,
      "elementGroups" : [ "init" ],
      "elementName" : "LoadCustomerSalesPrices",
      "formulaDate" : "2018-01-01",
      "formulaName" : "DL_CustomerSalesPrices",
      "key" : false,
      "selected" : false
    }, {
      "displayedInPriceShop" : true,
      "elementGroups" : [ "init" ],
      "elementName" : "TransactionsForCustomer",
      "formulaDate" : "2018-01-01",
      "formulaName" : "DL_CustomerSalesPrices",
      "key" : false,
      "selected" : false
    }, {
      "displayedInPriceShop" : true,
      "elementGroups" : [ "init" ],
      "elementName" : "ProductSuppliers",
      "formulaDate" : "2018-01-01",
      "formulaName" : "DL_CustomerSalesPrices",
      "key" : false,
      "selected" : false
    }, {
      "displayedInPriceShop" : true,
      "elementGroups" : [ "init" ],
      "elementName" : "ForDevelopmentOnly",
      "formulaDate" : "2018-01-01",
      "formulaName" : "DL_CustomerSalesPrices",
      "key" : false,
      "selected" : false
    }, {
      "displayedInPriceShop" : true,
      "elementGroups" : [ "init" ],
      "elementName" : "CustomerId",
      "formulaDate" : "2018-01-01",
      "formulaName" : "DL_CustomerSalesPrices",
      "key" : false,
      "selected" : false
    } ],
    "targetDate" : "2021-05-12"
  },
  "continuous" : false,
  "distributed" : false,
  "dtoFilter" : {
    "_constructor" : "AdvancedCriteria",
    "criteria" : [ {
      "_constructor" : "AdvancedCriteria",
      "fieldName" : "SourceID",
      "operator" : "isNull"
    } ],
    "operator" : "and"
  },
  "incLoadDate" : "2021-05-19T17:12:27",
  "incremental" : false,
  "isDefault" : false,
  "isPlasma" : false,
  "label" : "Load Customer Sales Prices from PX",
  "targetDate" : "2021-05-12",
  "targetName" : "DMDS.CustomerSalesPrice",
  "type" : "CALCULATION",
  "valid" : true,
  "withTargetSnapshot" : false
}