{
  "aggregation" : false,
  "auxiliary" : false,
  "calculated" : false,
  "deleted" : false,
  "deployed" : true,
  "dimension" : false,
  "expression" : "AprPocketMarginPer",
  "key" : false,
  "label" : "April Pocket Margin %",
  "labelTranslations" : { },
  "measureType" : "FIXED",
  "numeric" : true,
  "owningFC" : "Price Change Simulation 2020 Monthly",
  "partitioningKey" : false,
  "persisted" : true,
  "queryable" : true,
  "source" : "DMDS.PriceChangeSimulation_2020_Monthly",
  "sourceField" : "AprPocketMarginPer",
  "system" : false,
  "time" : false,
  "type" : "NUMBER",
  "visibility" : 1
}