{
  "aggregation" : false,
  "auxiliary" : false,
  "calculated" : false,
  "deleted" : false,
  "deployed" : true,
  "dimension" : true,
  "expression" : "SAPCondition",
  "key" : false,
  "label" : "SAP Condition",
  "labelTranslations" : { },
  "numeric" : false,
  "owningFC" : "Price Change Simulation 2020 Monthly",
  "partitioningKey" : false,
  "persisted" : true,
  "queryable" : true,
  "source" : "DMDS.PriceChangeSimulation_2020_Monthly",
  "sourceField" : "SAPCondition",
  "system" : false,
  "time" : false,
  "type" : "TEXT",
  "visibility" : 1
}