{
  "cssProperties" : "",
  "fieldName" : "key1",
  "fieldType" : 2,
  "formatType" : "TEXT",
  "label" : "Key1",
  "labelTranslations" : {
    "" : "Month"
  },
  "readOnly" : false,
  "requiredField" : true
}