{
  "cssProperties" : "",
  "fieldName" : "key2",
  "fieldType" : 2,
  "formatType" : "TEXT",
  "label" : "Key2",
  "labelTranslations" : {
    "" : "Reference"
  },
  "readOnly" : false,
  "requiredField" : true
}