{
  "aggregation" : false,
  "auxiliary" : false,
  "calculated" : false,
  "deleted" : false,
  "deployed" : true,
  "dimension" : true,
  "expression" : "cust_creatdatWeek",
  "functionalType" : "TIMEDIMENSION",
  "key" : false,
  "label" : "cust_creatdat Week",
  "labelTranslations" : { },
  "numeric" : false,
  "owningFC" : "[System]",
  "partitioningKey" : false,
  "persisted" : true,
  "queryable" : true,
  "source" : "DMDS.cal",
  "sourceField" : "CalWeek",
  "system" : true,
  "time" : true,
  "type" : "TEXT",
  "visibility" : 1
}