{
  "aggregation" : false,
  "auxiliary" : false,
  "calculated" : false,
  "deleted" : false,
  "deployed" : true,
  "dimension" : true,
  "expression" : "ProdukthI",
  "key" : false,
  "label" : "Produkth. I",
  "labelTranslations" : { },
  "numeric" : false,
  "owningFC" : "Product",
  "partitioningKey" : false,
  "persisted" : true,
  "queryable" : true,
  "source" : "DMDS.Product",
  "sourceField" : "ProdukthI",
  "system" : false,
  "time" : false,
  "type" : "TEXT",
  "visibility" : 1
}