{
  "aggregation" : false,
  "auxiliary" : false,
  "calculated" : true,
  "deleted" : false,
  "deployed" : false,
  "dimension" : false,
  "expression" : "Units * (ClearingRebatePrice / 100) * (1 - CustomerPotentialDiscount)",
  "key" : false,
  "label" : "ClearingRebatePotentialRevenue",
  "labelTranslations" : { },
  "numeric" : true,
  "owningFC" : "DemoTransactions",
  "partitioningKey" : false,
  "persisted" : false,
  "queryable" : true,
  "system" : false,
  "time" : false,
  "type" : "MONEY",
  "visibility" : 1
}