{
  "aggregation" : false,
  "auxiliary" : false,
  "calculated" : false,
  "deleted" : false,
  "deployed" : true,
  "dimension" : false,
  "expression" : "SalesPricePer100Units",
  "key" : false,
  "label" : "VK per 100",
  "labelTranslations" : { },
  "measureType" : "FIXED",
  "numeric" : true,
  "owningFC" : "Transactions",
  "partitioningKey" : false,
  "persisted" : true,
  "queryable" : true,
  "source" : "DMDS.Transactions",
  "system" : false,
  "time" : false,
  "type" : "MONEY",
  "visibility" : 1
}