{
  "hideWarnings" : false,
  "isPlasma" : false,
  "label" : "T Test Statistics Table",
  "status" : "ACTIVE",
  "type" : "MATRIX",
  "uniqueName" : "TTestStatisticsTable",
  "validAfter" : "2018-02-01",
  "valueType" : "MATRIX"
}