{
  "elements" : [ {
    "allowOverride" : false,
    "combinationType" : "FUNCTION",
    "displayOptions" : 0,
    "elementGroups" : [ ],
    "elementName" : "ClearingRebates",
    "elementTimeout" : 0,
    "hideWarnings" : false,
    "protectedExpression" : false
  }, {
    "allowOverride" : false,
    "combinationType" : "FUNCTION",
    "displayOptions" : 0,
    "elementGroups" : [ ],
    "elementName" : "ClearingRebatesPerCustomer",
    "elementTimeout" : 0,
    "hideWarnings" : false,
    "protectedExpression" : false
  }, {
    "allowOverride" : false,
    "combinationType" : "FUNCTION",
    "displayOptions" : 0,
    "elementGroups" : [ ],
    "elementName" : "CustomersDiscountGroups",
    "elementTimeout" : 0,
    "hideWarnings" : false,
    "protectedExpression" : false
  }, {
    "allowOverride" : false,
    "combinationType" : "FUNCTION",
    "displayOptions" : 0,
    "elementGroups" : [ ],
    "elementName" : "ClearingRebatesPerCustomerDiscountGroup",
    "elementTimeout" : 0,
    "hideWarnings" : false,
    "protectedExpression" : false
  }, {
    "allowOverride" : false,
    "combinationType" : "FUNCTION",
    "displayOptions" : 16,
    "elementGroups" : [ ],
    "elementLabel" : "Number of Clearing Rebates per Customer Discount Group - table",
    "elementName" : "ClearingRebatesPerCustomerDiscountGroupTable",
    "elementTimeout" : 0,
    "hideWarnings" : false,
    "protectedExpression" : false
  }, {
    "allowOverride" : false,
    "combinationType" : "FUNCTION",
    "displayOptions" : 16,
    "elementGroups" : [ ],
    "elementLabel" : "Number of Clearing Rebates per Customer Discount Group - chart",
    "elementName" : "ClearingRebatesPerCustomerDiscountGroupChart",
    "elementTimeout" : 0,
    "hideWarnings" : false,
    "protectedExpression" : false
  } ],
  "inputDescriptors" : [ ],
  "label" : "Dashboard - Clearing Rebate per Customer Discount Group",
  "status" : "ACTIVE",
  "uniqueName" : "Dashboard_ClearingRebatesPerCustomerDiscountGroup",
  "validAfter" : "2018-01-01"
}