{
  "elements" : [ {
    "allowOverride" : false,
    "combinationType" : "FUNCTION",
    "displayOptions" : 0,
    "elementLabel" : "Run",
    "elementName" : "Run",
    "elementTimeout" : 0,
    "hideOnNull" : false,
    "hideWarnings" : false,
    "protectedExpression" : false,
    "summarize" : false
  } ],
  "formulaNature" : "calculationFlow",
  "inputDescriptors" : [ ],
  "label" : "Run LPG 218: Price Impact Calculation for 2020",
  "status" : "ACTIVE",
  "uniqueName" : "CFF_LPG2020PriceImpactCalculation",
  "validAfter" : "2020-01-01"
}