{
  "auxiliary" : true,
  "deployed" : true,
  "fields" : [ "CCArticleCount", "CCCategorizationMatchingRevenue", "CCComputedPotentialGroup", "CCCustomerDetails", "CCCustomerId", "CCDMargin", "CCDMenge", "CCDQualifiedArticles", "CCDTransactionCount", "CCDUmsatz", "CCKundeKlasse", "CCTotalMargin", "CCTotalRevenue", "CCTransactionCount", "CCUnitsPurchased", "CCVerkaufsbereich3", "CCYear", "CorrectionType", "DiscountPerGain", "IsProcessed", "NonCCDArticles", "NonCCDMenge", "NonCCDTransactioncount", "NonCCDUmsatz", "OtherMargin", "PotentialMarginGain", "PotentialRevGain", "PreCCDUmsatz", "ProductGroup", "isDeleted", "lastUpdateDate" ],
  "isPlasma" : false,
  "label" : "CustomerCategorizationImpactOnMargins",
  "locked" : false,
  "queryable" : true,
  "reload" : false,
  "type" : "DATASOURCE",
  "uniqueName" : "CustomerCategorizationImpactOnMargins",
  "valid" : true,
  "view" : false
}