{
  "fieldName" : "attribute2",
  "fieldType" : 1,
  "formatType" : "MONEY",
  "label" : "attribute2",
  "labelTranslations" : {
    "" : "Source Currency Value"
  },
  "readOnly" : false,
  "requiredField" : false
}