{
  "aggregation" : false,
  "auxiliary" : false,
  "calculated" : false,
  "deleted" : false,
  "deployed" : true,
  "dimension" : false,
  "expression" : "MarginAbs",
  "key" : false,
  "label" : "DB",
  "labelTranslations" : { },
  "measureType" : "EXTENDED",
  "numeric" : true,
  "owningFC" : "CRM Projects",
  "partitioningKey" : false,
  "persisted" : true,
  "queryable" : true,
  "source" : "DMDS.CRMProject",
  "sourceField" : "MarginAbs",
  "system" : false,
  "time" : false,
  "type" : "MONEY",
  "visibility" : 1
}