{
  "elements" : [ {
    "allowOverride" : false,
    "combinationType" : "INFO",
    "displayOptions" : 0,
    "elementGroups" : [ "row" ],
    "elementLabel" : "Pricelist",
    "elementName" : "Pricelist",
    "elementTimeout" : 0,
    "hideOnNull" : false,
    "hideWarnings" : false,
    "protectedExpression" : false,
    "summarize" : false
  }, {
    "allowOverride" : false,
    "combinationType" : "INFO",
    "displayOptions" : 0,
    "elementGroups" : [ "row" ],
    "elementLabel" : "Customer ID",
    "elementName" : "CustomerID",
    "elementTimeout" : 0,
    "hideOnNull" : false,
    "hideWarnings" : false,
    "protectedExpression" : false,
    "summarize" : false
  }, {
    "allowOverride" : false,
    "combinationType" : "INFO",
    "displayOptions" : 0,
    "elementGroups" : [ "row" ],
    "elementLabel" : "Kunde Klasse",
    "elementName" : "Kunde_Klasse",
    "elementTimeout" : 0,
    "hideOnNull" : false,
    "hideWarnings" : false,
    "protectedExpression" : false,
    "summarize" : false
  }, {
    "allowOverride" : false,
    "combinationType" : "INFO",
    "displayOptions" : 0,
    "elementGroups" : [ "row" ],
    "elementLabel" : "Country Index",
    "elementName" : "Country_Index",
    "elementTimeout" : 0,
    "hideOnNull" : false,
    "hideWarnings" : false,
    "protectedExpression" : false,
    "summarize" : false
  }, {
    "allowOverride" : false,
    "combinationType" : "INFO",
    "displayOptions" : 0,
    "elementGroups" : [ "row" ],
    "elementLabel" : "Sku",
    "elementName" : "Sku",
    "elementTimeout" : 0,
    "hideOnNull" : false,
    "hideWarnings" : false,
    "protectedExpression" : false,
    "summarize" : false
  }, {
    "allowOverride" : false,
    "combinationType" : "INFO",
    "displayOptions" : 0,
    "elementGroups" : [ "row" ],
    "elementLabel" : "Ready for Simulation",
    "elementName" : "ReadyForSim",
    "elementTimeout" : 0,
    "hideOnNull" : false,
    "hideWarnings" : false,
    "protectedExpression" : false,
    "summarize" : false
  }, {
    "allowOverride" : false,
    "combinationType" : "INFO",
    "displayOptions" : 0,
    "elementGroups" : [ "row" ],
    "elementLabel" : "Menge (Summe Stueck)",
    "elementName" : "Menge",
    "elementTimeout" : 0,
    "hideOnNull" : false,
    "hideWarnings" : false,
    "protectedExpression" : false,
    "summarize" : false
  }, {
    "allowOverride" : false,
    "combinationType" : "INFO",
    "displayOptions" : 0,
    "elementGroups" : [ "row" ],
    "elementLabel" : "Umsatz (Summe)",
    "elementName" : "Umsatz",
    "elementTimeout" : 0,
    "hideOnNull" : false,
    "hideWarnings" : false,
    "protectedExpression" : false,
    "summarize" : false
  }, {
    "allowOverride" : false,
    "combinationType" : "INFO",
    "displayOptions" : 0,
    "elementGroups" : [ "row" ],
    "elementLabel" : "DB (Summe)",
    "elementName" : "DB",
    "elementTimeout" : 0,
    "hideOnNull" : false,
    "hideWarnings" : false,
    "protectedExpression" : false,
    "summarize" : false
  }, {
    "allowOverride" : false,
    "combinationType" : "INFO",
    "displayOptions" : 0,
    "elementGroups" : [ "row" ],
    "elementLabel" : "EK (Summe)",
    "elementName" : "EK",
    "elementTimeout" : 0,
    "hideOnNull" : false,
    "hideWarnings" : false,
    "protectedExpression" : false,
    "summarize" : false
  }, {
    "allowOverride" : false,
    "combinationType" : "FUNCTION",
    "displayOptions" : 0,
    "elementDescription" : "",
    "elementGroups" : [ "row" ],
    "elementName" : "ReadyCheck",
    "elementTimeout" : 0,
    "hideOnNull" : false,
    "hideWarnings" : false,
    "protectedExpression" : false,
    "summarize" : false
  }, {
    "allowOverride" : false,
    "combinationType" : "INFO",
    "displayOptions" : 16,
    "elementDescription" : "",
    "elementGroups" : [ "row" ],
    "elementLabel" : "Preislist Preis",
    "elementName" : "PreislistPreis",
    "elementTimeout" : 0,
    "formatType" : "MONEY",
    "hideOnNull" : false,
    "hideWarnings" : false,
    "protectedExpression" : false,
    "summarize" : false
  }, {
    "allowOverride" : false,
    "combinationType" : "INFO",
    "displayOptions" : 16,
    "elementGroups" : [ "row" ],
    "elementLabel" : "Standard Rabatt",
    "elementName" : "StandardRabatt",
    "elementTimeout" : 0,
    "formatType" : "PERCENT",
    "hideOnNull" : false,
    "hideWarnings" : false,
    "protectedExpression" : false,
    "summarize" : false
  }, {
    "allowOverride" : false,
    "combinationType" : "INFO",
    "displayOptions" : 16,
    "elementGroups" : [ "row" ],
    "elementLabel" : "Länderindex",
    "elementName" : "Landerindex",
    "elementTimeout" : 0,
    "formatType" : "PERCENT",
    "hideOnNull" : false,
    "hideWarnings" : false,
    "protectedExpression" : false,
    "summarize" : false
  }, {
    "allowOverride" : false,
    "combinationType" : "INFO",
    "displayOptions" : 16,
    "elementGroups" : [ "row" ],
    "elementLabel" : "Net Preis",
    "elementName" : "NetPreis",
    "elementTimeout" : 0,
    "formatType" : "MONEY",
    "hideOnNull" : false,
    "hideWarnings" : false,
    "protectedExpression" : false,
    "summarize" : false
  }, {
    "allowOverride" : false,
    "combinationType" : "INFO",
    "displayOptions" : 16,
    "elementGroups" : [ "row" ],
    "elementLabel" : "Preis Diff",
    "elementName" : "PreisDiff",
    "elementTimeout" : 0,
    "formatType" : "MONEY",
    "hideOnNull" : false,
    "hideWarnings" : false,
    "protectedExpression" : false,
    "summarize" : false
  }, {
    "allowOverride" : false,
    "combinationType" : "INFO",
    "displayOptions" : 16,
    "elementGroups" : [ "row" ],
    "elementLabel" : "SIM_Umsatz",
    "elementName" : "SIM_Umsatz",
    "elementTimeout" : 0,
    "formatType" : "MONEY",
    "hideOnNull" : false,
    "hideWarnings" : false,
    "protectedExpression" : false,
    "summarize" : false
  }, {
    "allowOverride" : false,
    "combinationType" : "INFO",
    "displayOptions" : 16,
    "elementGroups" : [ "row" ],
    "elementLabel" : "SIM_DB",
    "elementName" : "SIM_DB",
    "elementTimeout" : 0,
    "formatType" : "MONEY",
    "hideOnNull" : false,
    "hideWarnings" : false,
    "protectedExpression" : false,
    "summarize" : false
  }, {
    "allowOverride" : false,
    "combinationType" : "INFO",
    "displayOptions" : 16,
    "elementGroups" : [ "row" ],
    "elementLabel" : "SIM_DB prozentual",
    "elementName" : "SIM_DB_Pct",
    "elementTimeout" : 0,
    "formatType" : "PERCENT",
    "hideOnNull" : false,
    "hideWarnings" : false,
    "protectedExpression" : false,
    "summarize" : false
  }, {
    "allowOverride" : false,
    "combinationType" : "INFO",
    "displayOptions" : 16,
    "elementGroups" : [ "row" ],
    "elementLabel" : "Differential DBs (Sim-historic) in Sum",
    "elementName" : "DB_Diff",
    "elementTimeout" : 0,
    "formatType" : "MONEY",
    "hideOnNull" : false,
    "hideWarnings" : false,
    "protectedExpression" : false,
    "summarize" : false
  }, {
    "allowOverride" : false,
    "combinationType" : "INFO",
    "displayOptions" : 16,
    "elementGroups" : [ "row" ],
    "elementLabel" : "Clearing Faktor",
    "elementName" : "Clearing",
    "elementTimeout" : 0,
    "formatType" : "PERCENT",
    "hideOnNull" : false,
    "hideWarnings" : false,
    "protectedExpression" : false,
    "summarize" : false
  } ],
  "formulaNature" : "paDataLoad",
  "inputDescriptors" : [ ],
  "label" : "Net Price for TX DM",
  "status" : "ACTIVE",
  "uniqueName" : "NetPrice",
  "validAfter" : "2015-01-01"
}