{
  "elements" : [ {
    "allowOverride" : false,
    "combinationType" : "FUNCTION",
    "displayOptions" : 16,
    "elementGroups" : [ ],
    "elementName" : "TimeFrame",
    "elementTimeout" : 0,
    "hideWarnings" : false,
    "protectedExpression" : false
  }, {
    "allowOverride" : false,
    "combinationType" : "FUNCTION",
    "displayOptions" : 0,
    "elementGroups" : [ ],
    "elementName" : "Transactions",
    "elementTimeout" : 0,
    "hideWarnings" : false,
    "protectedExpression" : false
  }, {
    "allowOverride" : false,
    "combinationType" : "FUNCTION",
    "displayOptions" : 0,
    "elementGroups" : [ ],
    "elementName" : "AvgSalesPricePerUnits",
    "elementTimeout" : 0,
    "hideWarnings" : false,
    "protectedExpression" : false
  }, {
    "allowOverride" : false,
    "combinationType" : "FUNCTION",
    "displayOptions" : 16,
    "elementGroups" : [ ],
    "elementLabel" : "Average Sales Price per numer of units sold",
    "elementName" : "Table",
    "elementTimeout" : 0,
    "hideWarnings" : false,
    "protectedExpression" : false
  } ],
  "formulaNature" : "productDetail",
  "inputDescriptors" : [ ],
  "status" : "ACTIVE",
  "uniqueName" : "ProductDetails_AvgSalesPricePerVolume",
  "validAfter" : "2019-03-01"
}