{
  "calculationConfig" : {
    "feederInputParams" : [ ],
    "inputParams" : [ ],
    "mappingParams" : [ ],
    "outputElements" : [ ]
  },
  "continuous" : false,
  "distributed" : false,
  "incremental" : false,
  "isDefault" : true,
  "isPlasma" : false,
  "label" : "SalesHistoryGroupedData",
  "targetName" : "DMDS.SalesHistoryGroupedData",
  "type" : "TRUNCATE",
  "valid" : true,
  "withTargetSnapshot" : false
}