{
  "elements" : [ {
    "allowOverride" : false,
    "combinationType" : "FUNCTION",
    "displayOptions" : 0,
    "elementGroups" : [ ],
    "elementLabel" : "Constants",
    "elementName" : "Constants",
    "elementTimeout" : 900,
    "hideOnNull" : false,
    "hideWarnings" : false,
    "protectedExpression" : false,
    "summarize" : false
  }, {
    "allowOverride" : false,
    "combinationType" : "FUNCTION",
    "displayOptions" : 0,
    "elementGroups" : [ ],
    "elementLabel" : "Library",
    "elementName" : "Library",
    "elementTimeout" : 900,
    "hideOnNull" : false,
    "hideWarnings" : false,
    "protectedExpression" : false,
    "summarize" : false
  }, {
    "allowOverride" : false,
    "combinationType" : "FUNCTION",
    "displayOptions" : 0,
    "elementGroups" : [ ],
    "elementLabel" : "InputUtils",
    "elementName" : "InputUtils",
    "elementTimeout" : 900,
    "hideOnNull" : false,
    "hideWarnings" : false,
    "protectedExpression" : false,
    "summarize" : false
  }, {
    "allowOverride" : false,
    "combinationType" : "FUNCTION",
    "displayOptions" : 0,
    "elementGroups" : [ ],
    "elementLabel" : "ChartUtils",
    "elementName" : "ChartUtils",
    "elementTimeout" : 900,
    "hideOnNull" : false,
    "hideWarnings" : false,
    "protectedExpression" : false,
    "summarize" : false
  }, {
    "allowOverride" : false,
    "combinationType" : "FUNCTION",
    "displayOptions" : 0,
    "elementGroups" : [ ],
    "elementLabel" : "Analysis Year",
    "elementName" : "AnalysisYear",
    "elementTimeout" : 0,
    "hideOnNull" : true,
    "hideWarnings" : false,
    "protectedExpression" : false,
    "summarize" : false
  }, {
    "allowOverride" : false,
    "combinationType" : "FUNCTION",
    "displayOptions" : 0,
    "elementGroups" : [ ],
    "elementLabel" : "Gross Price Change %",
    "elementName" : "GrossPriceChangePercent",
    "elementTimeout" : 0,
    "hideOnNull" : true,
    "hideWarnings" : false,
    "protectedExpression" : false,
    "summarize" : false
  }, {
    "allowOverride" : false,
    "combinationType" : "FUNCTION",
    "displayOptions" : 0,
    "elementGroups" : [ ],
    "elementLabel" : "Landing Price Change %",
    "elementName" : "LandingPriceChangePercent",
    "elementTimeout" : 0,
    "hideOnNull" : true,
    "hideWarnings" : false,
    "protectedExpression" : false,
    "summarize" : false
  }, {
    "allowOverride" : false,
    "combinationType" : "FUNCTION",
    "displayOptions" : 0,
    "elementGroups" : [ ],
    "elementLabel" : "Quantity Change %",
    "elementName" : "QuantityChangePercent",
    "elementTimeout" : 0,
    "hideOnNull" : true,
    "hideWarnings" : false,
    "protectedExpression" : false,
    "summarize" : false
  }, {
    "allowOverride" : false,
    "combinationType" : "FUNCTION",
    "displayOptions" : 0,
    "elementGroups" : [ ],
    "elementLabel" : "Target Year",
    "elementName" : "TargetYear",
    "elementTimeout" : 0,
    "hideOnNull" : true,
    "hideWarnings" : false,
    "protectedExpression" : false,
    "summarize" : false
  }, {
    "allowOverride" : false,
    "combinationType" : "FUNCTION",
    "displayOptions" : 0,
    "elementGroups" : [ ],
    "elementLabel" : "Expected Margin %",
    "elementName" : "ExpectedMarginPercent",
    "elementTimeout" : 0,
    "hideOnNull" : true,
    "hideWarnings" : false,
    "protectedExpression" : false,
    "summarize" : false
  }, {
    "allowOverride" : false,
    "combinationType" : "FUNCTION",
    "displayOptions" : 0,
    "elementGroups" : [ ],
    "elementLabel" : "Show Result Matrix",
    "elementName" : "ShowResultMatrix",
    "elementTimeout" : 0,
    "hideOnNull" : true,
    "hideWarnings" : false,
    "protectedExpression" : false,
    "summarize" : false
  }, {
    "allowOverride" : false,
    "combinationType" : "FUNCTION",
    "displayOptions" : 0,
    "elementGroups" : [ ],
    "elementLabel" : "Articles Filter",
    "elementName" : "DMFilter",
    "elementTimeout" : 0,
    "hideOnNull" : true,
    "hideWarnings" : false,
    "protectedExpression" : false,
    "summarize" : false
  }, {
    "allowOverride" : false,
    "combinationType" : "FUNCTION",
    "displayOptions" : 16,
    "elementGroups" : [ ],
    "elementLabel" : "Additional Exceptions",
    "elementName" : "AdditionalExceptions",
    "elementTimeout" : 0,
    "hideOnNull" : true,
    "hideWarnings" : false,
    "protectedExpression" : false,
    "summarize" : false
  }, {
    "allowOverride" : false,
    "combinationType" : "FUNCTION",
    "displayOptions" : 0,
    "elementGroups" : [ ],
    "elementLabel" : "Show Scatter Chart",
    "elementName" : "ShowScatterChart",
    "elementTimeout" : 0,
    "hideOnNull" : true,
    "hideWarnings" : false,
    "protectedExpression" : false,
    "summarize" : false
  }, {
    "allowOverride" : false,
    "combinationType" : "FUNCTION",
    "displayOptions" : 0,
    "elementGroups" : [ ],
    "elementLabel" : "ApplyFormatting",
    "elementName" : "ApplyFormatting",
    "elementTimeout" : 0,
    "hideOnNull" : true,
    "hideWarnings" : false,
    "protectedExpression" : false,
    "summarize" : false
  }, {
    "allowOverride" : false,
    "combinationType" : "FUNCTION",
    "displayOptions" : 0,
    "elementGroups" : [ ],
    "elementLabel" : "IncludeRowsWithQty",
    "elementName" : "IncludeRowsWithQty",
    "elementTimeout" : 0,
    "hideOnNull" : true,
    "hideWarnings" : false,
    "protectedExpression" : false,
    "summarize" : false
  }, {
    "allowOverride" : false,
    "combinationType" : "FUNCTION",
    "displayOptions" : 0,
    "elementGroups" : [ ],
    "elementLabel" : "AbortOnSyntacCheck",
    "elementName" : "AbortOnSyntacCheck",
    "elementTimeout" : 0,
    "hideOnNull" : false,
    "hideWarnings" : false,
    "protectedExpression" : false,
    "summarize" : false
  }, {
    "allowOverride" : false,
    "combinationType" : "FUNCTION",
    "displayOptions" : 0,
    "elementGroups" : [ ],
    "elementLabel" : "Year",
    "elementName" : "Year",
    "elementTimeout" : 0,
    "hideOnNull" : false,
    "hideWarnings" : false,
    "protectedExpression" : false,
    "summarize" : false
  }, {
    "allowOverride" : false,
    "combinationType" : "FUNCTION",
    "displayOptions" : 0,
    "elementGroups" : [ ],
    "elementName" : "Filters",
    "elementTimeout" : 0,
    "hideOnNull" : false,
    "hideWarnings" : false,
    "protectedExpression" : false,
    "summarize" : false
  }, {
    "allowOverride" : false,
    "combinationType" : "FUNCTION",
    "displayOptions" : 0,
    "elementGroups" : [ ],
    "elementLabel" : "Price Change Name",
    "elementName" : "PriceChangeName",
    "elementTimeout" : 120,
    "hideOnNull" : true,
    "hideWarnings" : false,
    "protectedExpression" : false,
    "summarize" : false
  }, {
    "allowOverride" : false,
    "combinationType" : "FUNCTION",
    "displayOptions" : 0,
    "elementGroups" : [ ],
    "elementLabel" : "Price Change Percent",
    "elementName" : "GrossPriceChangePer",
    "elementTimeout" : 0,
    "hideOnNull" : false,
    "hideWarnings" : false,
    "protectedExpression" : false,
    "summarize" : false
  }, {
    "allowOverride" : false,
    "combinationType" : "FUNCTION",
    "displayOptions" : 0,
    "elementGroups" : [ ],
    "elementLabel" : "Landing Price Change Percent",
    "elementName" : "LandingPriceChangePer",
    "elementTimeout" : 0,
    "hideOnNull" : false,
    "hideWarnings" : false,
    "protectedExpression" : false,
    "summarize" : false
  }, {
    "allowOverride" : false,
    "combinationType" : "FUNCTION",
    "displayOptions" : 0,
    "elementGroups" : [ ],
    "elementLabel" : "Quantity Change Percent",
    "elementName" : "QuantityChangePer",
    "elementTimeout" : 0,
    "hideOnNull" : false,
    "hideWarnings" : false,
    "protectedExpression" : false,
    "summarize" : false
  }, {
    "allowOverride" : false,
    "combinationType" : "FUNCTION",
    "displayOptions" : 0,
    "elementGroups" : [ ],
    "elementLabel" : "Exceptions",
    "elementName" : "Exceptions",
    "elementTimeout" : 0,
    "hideOnNull" : false,
    "hideWarnings" : false,
    "protectedExpression" : false,
    "summarize" : false
  }, {
    "allowOverride" : false,
    "combinationType" : "FUNCTION",
    "displayOptions" : 0,
    "elementGroups" : [ ],
    "elementLabel" : "Expected Margin Percent",
    "elementName" : "ExpectedMarginPer",
    "elementTimeout" : 0,
    "hideOnNull" : false,
    "hideWarnings" : false,
    "protectedExpression" : false,
    "summarize" : false
  }, {
    "allowOverride" : false,
    "combinationType" : "FUNCTION",
    "displayOptions" : 0,
    "elementGroups" : [ ],
    "elementLabel" : "Calculate Recommended",
    "elementName" : "CalculateRecommended",
    "elementTimeout" : 0,
    "hideOnNull" : false,
    "hideWarnings" : false,
    "protectedExpression" : false,
    "summarize" : false
  }, {
    "allowOverride" : false,
    "combinationType" : "FUNCTION",
    "displayOptions" : 0,
    "elementGroups" : [ ],
    "elementLabel" : "Gross Price Column",
    "elementName" : "GrossPriceColumn",
    "elementTimeout" : 0,
    "hideOnNull" : false,
    "hideWarnings" : false,
    "protectedExpression" : false,
    "summarize" : false
  }, {
    "allowOverride" : false,
    "combinationType" : "FUNCTION",
    "displayOptions" : 0,
    "elementGroups" : [ ],
    "elementLabel" : "Landing Price Column",
    "elementName" : "LandingPriceColumn",
    "elementTimeout" : 0,
    "hideOnNull" : false,
    "hideWarnings" : false,
    "protectedExpression" : false,
    "summarize" : false
  }, {
    "allowOverride" : false,
    "combinationType" : "FUNCTION",
    "displayOptions" : 0,
    "elementGroups" : [ ],
    "elementLabel" : "Quantity Column",
    "elementName" : "QuantityColumn",
    "elementTimeout" : 0,
    "hideOnNull" : false,
    "hideWarnings" : false,
    "protectedExpression" : false,
    "summarize" : false
  }, {
    "allowOverride" : false,
    "combinationType" : "FUNCTION",
    "displayOptions" : 0,
    "elementGroups" : [ ],
    "elementName" : "DMProjections",
    "elementTimeout" : 900,
    "hideOnNull" : false,
    "hideWarnings" : false,
    "protectedExpression" : false,
    "summarize" : false
  }, {
    "allowOverride" : false,
    "combinationType" : "FUNCTION",
    "displayOptions" : 0,
    "elementGroups" : [ ],
    "elementLabel" : "BaseDMQuery",
    "elementName" : "BaseDMQuery",
    "elementTimeout" : 900,
    "hideOnNull" : false,
    "hideWarnings" : false,
    "protectedExpression" : false,
    "summarize" : false
  }, {
    "allowOverride" : false,
    "combinationType" : "FUNCTION",
    "displayOptions" : 0,
    "elementGroups" : [ ],
    "elementLabel" : "Query Builder Instance",
    "elementName" : "QueryBuilderInstance",
    "elementTimeout" : 900,
    "hideOnNull" : false,
    "hideWarnings" : false,
    "protectedExpression" : false,
    "summarize" : false
  }, {
    "allowOverride" : false,
    "combinationType" : "FUNCTION",
    "displayOptions" : 0,
    "elementGroups" : [ ],
    "elementLabel" : "ComputeResultMatrix",
    "elementName" : "ComputeResultMatrix",
    "elementTimeout" : 900,
    "hideOnNull" : false,
    "hideWarnings" : false,
    "protectedExpression" : false,
    "summarize" : false
  }, {
    "allowOverride" : false,
    "combinationType" : "FUNCTION",
    "displayOptions" : 0,
    "elementGroups" : [ ],
    "elementLabel" : "ShowIntermediateMatrices",
    "elementName" : "ShowIntermediateMatrices",
    "elementTimeout" : 900,
    "hideOnNull" : false,
    "hideWarnings" : false,
    "protectedExpression" : false,
    "summarize" : false
  }, {
    "allowOverride" : false,
    "combinationType" : "FUNCTION",
    "conditionElementName" : "ShowIntermediateMatrices",
    "displayOptions" : 16,
    "elementGroups" : [ ],
    "elementLabel" : "Base Data Matrix",
    "elementName" : "BaseDataMatrix",
    "elementTimeout" : 900,
    "hideOnNull" : false,
    "hideWarnings" : false,
    "protectedExpression" : false,
    "summarize" : false
  }, {
    "allowOverride" : false,
    "combinationType" : "FUNCTION",
    "conditionElementName" : "ShowIntermediateMatrices",
    "displayOptions" : 16,
    "elementGroups" : [ ],
    "elementLabel" : "Level1 Matrix",
    "elementName" : "Level1Matrix",
    "elementTimeout" : 900,
    "hideOnNull" : false,
    "hideWarnings" : false,
    "protectedExpression" : false,
    "summarize" : false
  }, {
    "allowOverride" : false,
    "combinationType" : "FUNCTION",
    "conditionElementName" : "ShowIntermediateMatrices",
    "displayOptions" : 16,
    "elementGroups" : [ ],
    "elementLabel" : "Level2 Matrix",
    "elementName" : "Level2Matrix",
    "elementTimeout" : 900,
    "hideOnNull" : false,
    "hideWarnings" : false,
    "protectedExpression" : false,
    "summarize" : false
  }, {
    "allowOverride" : false,
    "combinationType" : "FUNCTION",
    "displayOptions" : 16,
    "elementGroups" : [ ],
    "elementLabel" : "Result Matrix",
    "elementName" : "ResultMatrix",
    "elementTimeout" : 900,
    "formatType" : "COMPLEX",
    "hideOnNull" : true,
    "hideWarnings" : false,
    "protectedExpression" : false,
    "summarize" : false
  }, {
    "allowOverride" : false,
    "combinationType" : "FUNCTION",
    "displayOptions" : 16,
    "elementGroups" : [ ],
    "elementLabel" : "Breakup By Discount Summary",
    "elementName" : "BreakupSummaryData",
    "elementTimeout" : 900,
    "formatType" : "COMPLEX",
    "hideOnNull" : true,
    "hideWarnings" : false,
    "protectedExpression" : false,
    "summarize" : false
  }, {
    "allowOverride" : false,
    "combinationType" : "FUNCTION",
    "displayOptions" : 16,
    "elementGroups" : [ ],
    "elementLabel" : "Simulation Summary",
    "elementName" : "SummaryData",
    "elementTimeout" : 0,
    "formatType" : "COMPLEX",
    "hideOnNull" : true,
    "hideWarnings" : false,
    "protectedExpression" : false,
    "summarize" : false
  }, {
    "allowOverride" : false,
    "combinationType" : "FUNCTION",
    "displayOptions" : 16,
    "elementGroups" : [ ],
    "elementLabel" : "SQL Query",
    "elementName" : "SQLQuery",
    "elementTimeout" : 0,
    "hideOnNull" : true,
    "hideWarnings" : false,
    "protectedExpression" : false,
    "summarize" : false
  }, {
    "allowOverride" : false,
    "combinationType" : "FUNCTION",
    "displayOptions" : 16,
    "elementGroups" : [ ],
    "elementLabel" : "Revenue Delta Chart",
    "elementName" : "RevenueDeltaChart",
    "elementTimeout" : 900,
    "formatType" : "COMPLEX",
    "hideOnNull" : true,
    "hideWarnings" : false,
    "protectedExpression" : false,
    "summarize" : false
  }, {
    "allowOverride" : false,
    "combinationType" : "FUNCTION",
    "displayOptions" : 16,
    "elementGroups" : [ ],
    "elementLabel" : "Margin Delta Chart",
    "elementName" : "MarginDeltaChart",
    "elementTimeout" : 900,
    "formatType" : "COMPLEX",
    "hideOnNull" : true,
    "hideWarnings" : false,
    "protectedExpression" : false,
    "summarize" : true
  }, {
    "allowOverride" : false,
    "combinationType" : "FUNCTION",
    "displayOptions" : 16,
    "elementGroups" : [ ],
    "elementLabel" : "Revenue Breakup By Discount Type",
    "elementName" : "RevenueBreakupByDiscountType",
    "elementTimeout" : 900,
    "formatType" : "COMPLEX",
    "hideOnNull" : true,
    "hideWarnings" : false,
    "protectedExpression" : false,
    "summarize" : true
  }, {
    "allowOverride" : false,
    "combinationType" : "FUNCTION",
    "displayOptions" : 16,
    "elementGroups" : [ ],
    "elementLabel" : "Margin Breakup By Discount Type",
    "elementName" : "MarginBreakupByDiscountType",
    "elementTimeout" : 900,
    "formatType" : "COMPLEX",
    "hideOnNull" : true,
    "hideWarnings" : false,
    "protectedExpression" : false,
    "summarize" : true
  }, {
    "allowOverride" : false,
    "combinationType" : "FUNCTION",
    "displayOptions" : 16,
    "elementGroups" : [ ],
    "elementLabel" : "Product Distribution",
    "elementName" : "ProductDistribution",
    "elementTimeout" : 900,
    "formatType" : "COMPLEX",
    "hideOnNull" : true,
    "hideWarnings" : false,
    "protectedExpression" : false,
    "summarize" : false
  } ],
  "inputDescriptors" : [ ],
  "label" : "WC _ Price Change Simulation All Change",
  "status" : "ACTIVE",
  "uniqueName" : "WC_Dashboard_PriceChangeSimulation_AllChange",
  "validAfter" : "2016-01-03"
}