{
  "aggregation" : false,
  "auxiliary" : false,
  "calculated" : false,
  "deleted" : false,
  "deployed" : true,
  "dimension" : false,
  "expression" : "DiscountABS",
  "key" : false,
  "label" : "Discount ABS",
  "labelTranslations" : { },
  "measureType" : "PERUNIT",
  "numeric" : true,
  "owningFC" : "CustomerSalesPrice",
  "partitioningKey" : false,
  "persisted" : true,
  "queryable" : true,
  "source" : "DMDS.CustomerSalesPrice",
  "sourceField" : "DiscountABS",
  "system" : false,
  "time" : false,
  "type" : "MONEY",
  "visibility" : 1
}