{
  "aggregation" : false,
  "auxiliary" : false,
  "calculated" : false,
  "deleted" : false,
  "deployed" : true,
  "dimension" : true,
  "expression" : "PricingType",
  "key" : false,
  "label" : "Pricing Type",
  "labelTranslations" : { },
  "numeric" : false,
  "owningFC" : "Price Change Simulation 2020 V2",
  "partitioningKey" : false,
  "persisted" : true,
  "queryable" : true,
  "source" : "DMDS.PriceChangeSimulation_2020_V2",
  "system" : false,
  "time" : false,
  "type" : "TEXT",
  "visibility" : 1
}