{
  "fieldName" : "attribute1",
  "fieldType" : 2,
  "fieldValueOptions" : "[\"Yes\",\"No\"]",
  "label" : "MonitoredConfigurations",
  "labelTranslations" : {
    "" : "Monitored Configurations"
  },
  "readOnly" : false,
  "requiredField" : false
}