{
  "hideWarnings" : false,
  "isPlasma" : false,
  "label" : "Kommentare / kein Grundpreis",
  "status" : "ACTIVE",
  "type" : "SIMPLE",
  "uniqueName" : "Kommentare / kein Grundpreis",
  "validAfter" : "2016-03-22",
  "valueType" : "STRING"
}