{
  "hideWarnings" : false,
  "isPlasma" : false,
  "label" : "Exclude Material For Supplier from Price Increase",
  "status" : "ACTIVE",
  "type" : "SIMPLE",
  "uniqueName" : "ExcludeMaterialForSupplierFromPriceIncrease",
  "validAfter" : "2019-11-11",
  "valueType" : "STRING"
}