{
  "fieldName" : "name",
  "fieldType" : 2,
  "fieldValueOptions" : {
    "ValuesRestrictedByDSConfig" : true,
    "attributedFieldType" : 0,
    "dataSourceConfig" : {
      "autoConvertRelativeDates" : true,
      "defaultTextMatchStyle" : "exact",
      "dropUnknownCriteria" : true,
      "ignoreTextMatchStyleCaseSensitive" : false,
      "patternEscapeChar" : "\\",
      "patternMultiWildcard" : "*",
      "patternSingleWildcard" : [ "?", "%" ],
      "translatePatternOperators" : false,
      "trimMilliseconds" : null,
      "useHttpProxy" : null,
      "useStrictJSON" : null
    },
    "dataSourceLabel" : "Live Price Grid",
    "fetchUrl" : "fetch/PG",
    "fieldConfig" : {
      "dateFormatter" : null,
      "decimalPad" : null,
      "decimalPrecision" : null,
      "editorType" : null,
      "escapeHTML" : true,
      "format" : null,
      "optionTextMatchStyle" : null,
      "precision" : null,
      "readOnlyEditorType" : null
    },
    "fieldLabel" : "Label",
    "fieldName" : "label",
    "fieldType" : "text"
  },
  "label" : "LPGName",
  "labelTranslations" : {
    "" : "LPG Name"
  },
  "readOnly" : false,
  "requiredField" : false
}