{
  "auxiliary" : false,
  "deployed" : true,
  "fields" : [ "Material", "ZMC", "ZPA", "ZPAP", "ZPC", "ZPF", "ZPM", "ZPP", "ZPS", "ZPZ", "ZRA", "ZRC", "ZRI", "ZRPG", "isDeleted", "lastUpdateDate" ],
  "isPlasma" : false,
  "label" : "Active Conditions For Deactivated Materials",
  "loadableFields" : [ "Material", "ZMC", "ZPA", "ZPC", "ZPF", "ZPM", "ZPP", "ZPS", "ZPZ", "ZRA", "ZRI", "ZRC", "ZPAP", "ZRPG", "isDeleted", "lastUpdateDate" ],
  "locked" : false,
  "queryable" : true,
  "type" : "DATASOURCE",
  "uniqueName" : "ActiveConditionsForDeactivatedMaterails",
  "valid" : true,
  "view" : false
}