{
  "elements" : [ {
    "allowOverride" : false,
    "combinationType" : "FUNCTION",
    "displayOptions" : 2,
    "elementGroups" : [ ],
    "elementLabel" : "Customer Profitability",
    "elementName" : "CustomerProfitability",
    "elementTimeout" : 0,
    "hideWarnings" : false,
    "protectedExpression" : false
  }, {
    "allowOverride" : false,
    "combinationType" : "FUNCTION",
    "displayOptions" : 2,
    "elementGroups" : [ ],
    "elementLabel" : "Margin per Quantity",
    "elementName" : "MarginPerQuantity",
    "elementTimeout" : 0,
    "hideWarnings" : false,
    "protectedExpression" : false
  } ],
  "inputDescriptors" : [ ],
  "label" : "Dashboard - Profitability",
  "status" : "ACTIVE",
  "uniqueName" : "Dashboard_Profitability",
  "validAfter" : "2018-01-01"
}