{
  "aggregation" : false,
  "auxiliary" : false,
  "calculated" : false,
  "deleted" : false,
  "deployed" : true,
  "dimension" : false,
  "expression" : "BaseCost",
  "key" : false,
  "label" : "EK-Wert",
  "labelTranslations" : { },
  "measureType" : "EXTENDED",
  "numeric" : true,
  "owningFC" : "Price Change Simulation 2020 V2 (New Tables)",
  "partitioningKey" : false,
  "persisted" : true,
  "queryable" : true,
  "source" : "DMDS.PriceChangeSimulation_2020_V2",
  "sourceField" : "BaseCost",
  "system" : false,
  "time" : false,
  "type" : "MONEY",
  "visibility" : 1
}