{
  "actionUUID" : "CalculationTask-I8p2V",
  "calculationConfig" : {
    "feederInputParams" : [ ],
    "formulaName" : "DL_ShouldHaveBeenRevenue",
    "inputParams" : [ {
      "formattingOptions" : { },
      "label" : "Sku",
      "name" : "Sku",
      "parameterConfig" : {
        "dataType" : "text"
      },
      "type" : "STRINGUSERENTRY"
    }, {
      "formattingOptions" : { },
      "label" : "CustomerId",
      "name" : "CustomerId",
      "parameterConfig" : {
        "dataType" : "text"
      },
      "type" : "STRINGUSERENTRY"
    }, {
      "formattingOptions" : { },
      "label" : "YearMonth",
      "name" : "YearMonth",
      "parameterConfig" : {
        "dataType" : "date"
      },
      "type" : "DATEUSERENTRY"
    }, {
      "formattingOptions" : { },
      "label" : "Revenue",
      "name" : "Revenue",
      "parameterConfig" : {
        "dataType" : "float"
      },
      "type" : "USERENTRY"
    }, {
      "formattingOptions" : { },
      "label" : "UnitsSold",
      "name" : "UnitsSold",
      "parameterConfig" : {
        "dataType" : "integer"
      },
      "type" : "INTEGERUSERENTRY"
    } ],
    "mappingParams" : [ {
      "formattingOptions" : { },
      "label" : "Sku",
      "name" : "Sku",
      "parameterConfig" : { },
      "type" : ""
    }, {
      "formattingOptions" : { },
      "label" : "CustomerId",
      "name" : "CustomerId",
      "parameterConfig" : { },
      "type" : ""
    }, {
      "formattingOptions" : { },
      "label" : "YearMonth",
      "name" : "YearMonth",
      "parameterConfig" : { },
      "type" : ""
    }, {
      "formattingOptions" : { },
      "label" : "Revenue",
      "name" : "Revenue",
      "parameterConfig" : { },
      "type" : ""
    }, {
      "formattingOptions" : { },
      "label" : "UnitsSold",
      "name" : "UnitsSold",
      "parameterConfig" : { },
      "type" : ""
    } ],
    "outputElements" : [ {
      "displayedInPriceShop" : false,
      "elementGroups" : [ "row" ],
      "elementName" : "UnitsSold",
      "formulaDate" : "2018-01-01",
      "formulaName" : "DL_ShouldHaveBeenRevenue",
      "key" : false,
      "selected" : false
    }, {
      "displayedInPriceShop" : false,
      "elementGroups" : [ "row" ],
      "elementName" : "UnitSalesPrice",
      "formulaDate" : "2018-01-01",
      "formulaName" : "DL_ShouldHaveBeenRevenue",
      "key" : false,
      "selected" : false
    }, {
      "displayedInPriceShop" : false,
      "elementGroups" : [ "row" ],
      "elementName" : "ShouldHaveBeenRevenue",
      "formatType" : "MONEY",
      "formulaDate" : "2018-01-01",
      "formulaName" : "DL_ShouldHaveBeenRevenue",
      "key" : false,
      "selected" : true
    } ],
    "targetDate" : "2018-05-08"
  },
  "continuous" : false,
  "distributed" : false,
  "dtoFilter" : {
    "_constructor" : "AdvancedCriteria",
    "criteria" : [ {
      "_constructor" : "AdvancedCriteria",
      "fieldName" : "YearMonth",
      "operator" : "greaterOrEqual",
      "value" : "2019-01-01"
    } ],
    "operator" : "and"
  },
  "incLoadDate" : "2021-05-24T01:01:52",
  "incremental" : true,
  "isDefault" : false,
  "isPlasma" : false,
  "label" : "Sales History - SHB Revenue",
  "sortBy" : "Sku",
  "targetDate" : "2018-05-08",
  "targetName" : "DM.SalesHistoryDM",
  "type" : "CALCULATION",
  "valid" : true,
  "withTargetSnapshot" : false
}