{
  "aggregation" : false,
  "auxiliary" : false,
  "calculated" : false,
  "deleted" : false,
  "deployed" : true,
  "dimension" : false,
  "expression" : "OtherMargin",
  "key" : false,
  "label" : "Other Margin",
  "labelTranslations" : { },
  "measureType" : "EXTENDED",
  "numeric" : true,
  "owningFC" : "CustomerCategorizationImpactPerCustomerGroup",
  "partitioningKey" : false,
  "persisted" : true,
  "queryable" : true,
  "source" : "DMDS.CustomerCategorizationImpact",
  "system" : false,
  "time" : false,
  "type" : "MONEY",
  "visibility" : 1
}