{
  "actionUUID" : "DatamartLoadTask-ffutr",
  "calculationConfig" : {
    "feederInputParams" : [ ],
    "inputParams" : [ ],
    "mappingParams" : [ ],
    "outputElements" : [ ]
  },
  "continuous" : false,
  "distributed" : false,
  "incLoadDate" : "2021-05-24T07:05:38",
  "incremental" : false,
  "isDefault" : true,
  "isPlasma" : false,
  "label" : "TransactionSummaryPerArticleDM",
  "targetName" : "DM.DataTransactionsPerArticleDM",
  "type" : "DM_REFRESH",
  "valid" : true,
  "withTargetSnapshot" : false
}