{
  "aggregation" : false,
  "auxiliary" : false,
  "calculated" : false,
  "deleted" : false,
  "deployed" : true,
  "dimension" : true,
  "expression" : "KUNNR",
  "key" : false,
  "label" : "KUNNR",
  "labelTranslations" : { },
  "numeric" : false,
  "owningFC" : "ZRA",
  "partitioningKey" : false,
  "persisted" : true,
  "queryable" : true,
  "source" : "DMDS.ZRA",
  "system" : false,
  "time" : false,
  "type" : "TEXT",
  "visibility" : 1
}