{
  "areDefault" : true,
  "areGlobal" : true,
  "filter" : { },
  "preferenceName" : "Business Loss Summary",
  "viewState" : "({\"field\":[{\"name\":\"Total_Active_Customers_(Year-2020)\",\"width\":195},{\"name\":\"Total_Umsatz_(Year-2020)\",\"width\":147},{\"name\":\"Potential_Total_Umsatz_(Year-2020)\",\"width\":192},{\"name\":\"Total_Umsatz_Scope_Of_Improvement_(Year-2020)\",\"width\":263},{\"name\":\"Total_DB_(Year-2020)\",\"visible\":false,\"width\":125},{\"name\":\"Potential_Total_DB_(Year-2020)\",\"visible\":false,\"width\":170},{\"name\":\"Total_DB_Scope_Of_Improvement_(Year-2020)\",\"visible\":false,\"width\":241}],\"pricefx_columnLabels\":null})"
}