{
  "areDefault" : true,
  "areGlobal" : true,
  "preferenceName" : "--single-preferences--",
  "viewState" : {
    "columns" : [ {
      "portlets" : [ {
        "height" : 132,
        "minimized" : false,
        "name" : "Header",
        "rowOffset" : 0,
        "viewState" : null
      }, {
        "height" : 413,
        "minimized" : false,
        "name" : "ClearingRebatesRevenueIsVsSHB",
        "rowOffset" : 0,
        "viewState" : null
      }, {
        "height" : 300,
        "minimized" : false,
        "name" : "ClearingRebatesRevenue",
        "rowOffset" : 0,
        "viewState" : null
      }, {
        "height" : 300,
        "minimized" : false,
        "name" : "ClearingRebatesCountPercentage",
        "rowOffset" : 0,
        "viewState" : null
      }, {
        "height" : 300,
        "minimized" : false,
        "name" : "ClearingRebatesCountTable",
        "rowOffset" : 0,
        "viewState" : null
      } ],
      "width" : 1506
    } ],
    "isToolbarVisible" : false
  }
}