{
  "auxiliary" : false,
  "baseCcyCode" : "EUR",
  "baseUomCode" : "EA",
  "deployed" : true,
  "fields" : [ "AprCurrentCustomerMargin", "AprCurrentRevenueAbsDiscount", "AprCurrentRevenueINTERNAL", "AprCurrentRevenueMarkup", "AprCurrentRevenueNetPrice", "AprCurrentRevenueNoDiscounts", "AprCurrentRevenuePerDiscount", "AprCurrentRevenueXARTICLE", "AprCurrentTotalPocketMarginAbsDiscount", "AprCurrentTotalPocketMarginINTERNAL", "AprCurrentTotalPocketMarginMarkup", "AprCurrentTotalPocketMarginNetPrice", "AprCurrentTotalPocketMarginNoDiscounts", "AprCurrentTotalPocketMarginPerDiscount", "AprCurrentTotalPocketMarginXARTICLE", "AprExpectedBaseCost", "AprExpectedCustomerMargin", "AprExpectedRevenue", "AprExpectedRevenueAbsDiscount", "AprExpectedRevenueINTERNAL", "AprExpectedRevenueMarkup", "AprExpectedRevenueNetPrice", "AprExpectedRevenueNoDiscounts", "AprExpectedRevenuePerDiscount", "AprExpectedRevenueXARTICLE", "AprExpectedTotalPocketMarginAbsDiscount", "AprExpectedTotalPocketMarginINTERNAL", "AprExpectedTotalPocketMarginMarkup", "AprExpectedTotalPocketMarginNetPrice", "AprExpectedTotalPocketMarginNoDiscounts", "AprExpectedTotalPocketMarginPerDiscount", "AprExpectedTotalPocketMarginXARTICLE", "AprGrossPrice", "AprPredictedGrossPrice", "AprTotalExpectedCustomerMargin", "AprTotalExpectedPurchasePrice", "AprTotalExpectedQuantity", "AprTotalPurchasePrice", "AprTotalQtySold", "AprTotalRevenue", "AugCurrentCustomerMargin", "AugCurrentRevenueAbsDiscount", "AugCurrentRevenueINTERNAL", "AugCurrentRevenueMarkup", "AugCurrentRevenueNetPrice", "AugCurrentRevenueNoDiscounts", "AugCurrentRevenuePerDiscount", "AugCurrentRevenueXARTICLE", "AugCurrentTotalPocketMarginAbsDiscount", "AugCurrentTotalPocketMarginINTERNAL", "AugCurrentTotalPocketMarginMarkup", "AugCurrentTotalPocketMarginNetPrice", "AugCurrentTotalPocketMarginNoDiscounts", "AugCurrentTotalPocketMarginPerDiscount", "AugCurrentTotalPocketMarginXARTICLE", "AugExpectedBaseCost", "AugExpectedCustomerMargin", "AugExpectedRevenue", "AugExpectedRevenueAbsDiscount", "AugExpectedRevenueINTERNAL", "AugExpectedRevenueMarkup", "AugExpectedRevenueNetPrice", "AugExpectedRevenueNoDiscounts", "AugExpectedRevenuePerDiscount", "AugExpectedRevenueXARTICLE", "AugExpectedTotalPocketMarginAbsDiscount", "AugExpectedTotalPocketMarginINTERNAL", "AugExpectedTotalPocketMarginMarkup", "AugExpectedTotalPocketMarginNetPrice", "AugExpectedTotalPocketMarginNoDiscounts", "AugExpectedTotalPocketMarginPerDiscount", "AugExpectedTotalPocketMarginXARTICLE", "AugGrossPrice", "AugPredictedGrossPrice", "AugTotalExpectedCustomerMargin", "AugTotalExpectedPurchasePrice", "AugTotalExpectedQuantity", "AugTotalPurchasePrice", "AugTotalQtySold", "AugTotalRevenue", "Category", "DecCurrentCustomerMargin", "DecCurrentRevenueAbsDiscount", "DecCurrentRevenueINTERNAL", "DecCurrentRevenueMarkup", "DecCurrentRevenueNetPrice", "DecCurrentRevenueNoDiscounts", "DecCurrentRevenuePerDiscount", "DecCurrentRevenueXARTICLE", "DecCurrentTotalPocketMarginAbsDiscount", "DecCurrentTotalPocketMarginINTERNAL", "DecCurrentTotalPocketMarginMarkup", "DecCurrentTotalPocketMarginNetPrice", "DecCurrentTotalPocketMarginNoDiscounts", "DecCurrentTotalPocketMarginPerDiscount", "DecCurrentTotalPocketMarginXARTICLE", "DecExpectedBaseCost", "DecExpectedCustomerMargin", "DecExpectedRevenue", "DecExpectedRevenueAbsDiscount", "DecExpectedRevenueINTERNAL", "DecExpectedRevenueMarkup", "DecExpectedRevenueNetPrice", "DecExpectedRevenueNoDiscounts", "DecExpectedRevenuePerDiscount", "DecExpectedRevenueXARTICLE", "DecExpectedTotalPocketMarginAbsDiscount", "DecExpectedTotalPocketMarginINTERNAL", "DecExpectedTotalPocketMarginMarkup", "DecExpectedTotalPocketMarginNetPrice", "DecExpectedTotalPocketMarginNoDiscounts", "DecExpectedTotalPocketMarginPerDiscount", "DecExpectedTotalPocketMarginXARTICLE", "DecGrossPrice", "DecPredictedGrossPrice", "DecTotalExpectedCustomerMargin", "DecTotalExpectedPurchasePrice", "DecTotalExpectedQuantity", "DecTotalPurchasePrice", "DecTotalQtySold", "DecTotalRevenue", "FebCurrentCustomerMargin", "FebCurrentRevenueAbsDiscount", "FebCurrentRevenueINTERNAL", "FebCurrentRevenueMarkup", "FebCurrentRevenueNetPrice", "FebCurrentRevenueNoDiscounts", "FebCurrentRevenuePerDiscount", "FebCurrentRevenueXARTICLE", "FebCurrentTotalPocketMarginAbsDiscount", "FebCurrentTotalPocketMarginINTERNAL", "FebCurrentTotalPocketMarginMarkup", "FebCurrentTotalPocketMarginNetPrice", "FebCurrentTotalPocketMarginNoDiscounts", "FebCurrentTotalPocketMarginPerDiscount", "FebCurrentTotalPocketMarginXARTICLE", "FebExpectedBaseCost", "FebExpectedCustomerMargin", "FebExpectedRevenue", "FebExpectedRevenueAbsDiscount", "FebExpectedRevenueINTERNAL", "FebExpectedRevenueMarkup", "FebExpectedRevenueNetPrice", "FebExpectedRevenueNoDiscounts", "FebExpectedRevenuePerDiscount", "FebExpectedRevenueXARTICLE", "FebExpectedTotalPocketMarginAbsDiscount", "FebExpectedTotalPocketMarginINTERNAL", "FebExpectedTotalPocketMarginMarkup", "FebExpectedTotalPocketMarginNetPrice", "FebExpectedTotalPocketMarginNoDiscounts", "FebExpectedTotalPocketMarginPerDiscount", "FebExpectedTotalPocketMarginXARTICLE", "FebGrossPrice", "FebPredictedGrossPrice", "FebTotalExpectedCustomerMargin", "FebTotalExpectedPurchasePrice", "FebTotalExpectedQuantity", "FebTotalPurchasePrice", "FebTotalQtySold", "FebTotalRevenue", "JanCurrentCustomerMargin", "JanCurrentRevenueAbsDiscount", "JanCurrentRevenueINTERNAL", "JanCurrentRevenueMarkup", "JanCurrentRevenueNetPrice", "JanCurrentRevenueNoDiscounts", "JanCurrentRevenuePerDiscount", "JanCurrentRevenueXARTICLE", "JanCurrentTotalPocketMarginAbsDiscount", "JanCurrentTotalPocketMarginINTERNAL", "JanCurrentTotalPocketMarginMarkup", "JanCurrentTotalPocketMarginNetPrice", "JanCurrentTotalPocketMarginNoDiscounts", "JanCurrentTotalPocketMarginPerDiscount", "JanCurrentTotalPocketMarginXARTICLE", "JanExpectedBaseCost", "JanExpectedCustomerMargin", "JanExpectedRevenue", "JanExpectedRevenueAbsDiscount", "JanExpectedRevenueINTERNAL", "JanExpectedRevenueMarkup", "JanExpectedRevenueNetPrice", "JanExpectedRevenueNoDiscounts", "JanExpectedRevenuePerDiscount", "JanExpectedRevenueXARTICLE", "JanExpectedTotalPocketMarginAbsDiscount", "JanExpectedTotalPocketMarginINTERNAL", "JanExpectedTotalPocketMarginMarkup", "JanExpectedTotalPocketMarginNetPrice", "JanExpectedTotalPocketMarginNoDiscounts", "JanExpectedTotalPocketMarginPerDiscount", "JanExpectedTotalPocketMarginXARTICLE", "JanGrossPrice", "JanPredictedGrossPrice", "JanTotalExpectedCustomerMargin", "JanTotalExpectedPurchasePrice", "JanTotalExpectedQuantity", "JanTotalPurchasePrice", "JanTotalQtySold", "JanTotalRevenue", "JulCurrentCustomerMargin", "JulCurrentRevenueAbsDiscount", "JulCurrentRevenueINTERNAL", "JulCurrentRevenueMarkup", "JulCurrentRevenueNetPrice", "JulCurrentRevenueNoDiscounts", "JulCurrentRevenuePerDiscount", "JulCurrentRevenueXARTICLE", "JulCurrentTotalPocketMarginAbsDiscount", "JulCurrentTotalPocketMarginINTERNAL", "JulCurrentTotalPocketMarginMarkup", "JulCurrentTotalPocketMarginNetPrice", "JulCurrentTotalPocketMarginNoDiscounts", "JulCurrentTotalPocketMarginPerDiscount", "JulCurrentTotalPocketMarginXARTICLE", "JulExpectedBaseCost", "JulExpectedCustomerMargin", "JulExpectedRevenue", "JulExpectedRevenueAbsDiscount", "JulExpectedRevenueINTERNAL", "JulExpectedRevenueMarkup", "JulExpectedRevenueNetPrice", "JulExpectedRevenueNoDiscounts", "JulExpectedRevenuePerDiscount", "JulExpectedRevenueXARTICLE", "JulExpectedTotalPocketMarginAbsDiscount", "JulExpectedTotalPocketMarginINTERNAL", "JulExpectedTotalPocketMarginMarkup", "JulExpectedTotalPocketMarginNetPrice", "JulExpectedTotalPocketMarginNoDiscounts", "JulExpectedTotalPocketMarginPerDiscount", "JulExpectedTotalPocketMarginXARTICLE", "JulGrossPrice", "JulPredictedGrossPrice", "JulTotalExpectedCustomerMargin", "JulTotalExpectedPurchasePrice", "JulTotalExpectedQuantity", "JulTotalPurchasePrice", "JulTotalQtySold", "JulTotalRevenue", "JunCurrentCustomerMargin", "JunCurrentRevenueAbsDiscount", "JunCurrentRevenueINTERNAL", "JunCurrentRevenueMarkup", "JunCurrentRevenueNetPrice", "JunCurrentRevenueNoDiscounts", "JunCurrentRevenuePerDiscount", "JunCurrentRevenueXARTICLE", "JunCurrentTotalPocketMarginAbsDiscount", "JunCurrentTotalPocketMarginINTERNAL", "JunCurrentTotalPocketMarginMarkup", "JunCurrentTotalPocketMarginNetPrice", "JunCurrentTotalPocketMarginNoDiscounts", "JunCurrentTotalPocketMarginPerDiscount", "JunCurrentTotalPocketMarginXARTICLE", "JunExpectedBaseCost", "JunExpectedCustomerMargin", "JunExpectedRevenue", "JunExpectedRevenueAbsDiscount", "JunExpectedRevenueINTERNAL", "JunExpectedRevenueMarkup", "JunExpectedRevenueNetPrice", "JunExpectedRevenueNoDiscounts", "JunExpectedRevenuePerDiscount", "JunExpectedRevenueXARTICLE", "JunExpectedTotalPocketMarginAbsDiscount", "JunExpectedTotalPocketMarginINTERNAL", "JunExpectedTotalPocketMarginMarkup", "JunExpectedTotalPocketMarginNetPrice", "JunExpectedTotalPocketMarginNoDiscounts", "JunExpectedTotalPocketMarginPerDiscount", "JunExpectedTotalPocketMarginXARTICLE", "JunGrossPrice", "JunPredictedGrossPrice", "JunTotalExpectedCustomerMargin", "JunTotalExpectedPurchasePrice", "JunTotalExpectedQuantity", "JunTotalPurchasePrice", "JunTotalQtySold", "JunTotalRevenue", "MarCurrentCustomerMargin", "MarCurrentRevenueAbsDiscount", "MarCurrentRevenueINTERNAL", "MarCurrentRevenueMarkup", "MarCurrentRevenueNetPrice", "MarCurrentRevenueNoDiscounts", "MarCurrentRevenuePerDiscount", "MarCurrentRevenueXARTICLE", "MarCurrentTotalPocketMarginAbsDiscount", "MarCurrentTotalPocketMarginINTERNAL", "MarCurrentTotalPocketMarginMarkup", "MarCurrentTotalPocketMarginNetPrice", "MarCurrentTotalPocketMarginNoDiscounts", "MarCurrentTotalPocketMarginPerDiscount", "MarCurrentTotalPocketMarginXARTICLE", "MarExpectedBaseCost", "MarExpectedCustomerMargin", "MarExpectedRevenue", "MarExpectedRevenueAbsDiscount", "MarExpectedRevenueINTERNAL", "MarExpectedRevenueMarkup", "MarExpectedRevenueNetPrice", "MarExpectedRevenueNoDiscounts", "MarExpectedRevenuePerDiscount", "MarExpectedRevenueXARTICLE", "MarExpectedTotalPocketMarginAbsDiscount", "MarExpectedTotalPocketMarginINTERNAL", "MarExpectedTotalPocketMarginMarkup", "MarExpectedTotalPocketMarginNetPrice", "MarExpectedTotalPocketMarginNoDiscounts", "MarExpectedTotalPocketMarginPerDiscount", "MarExpectedTotalPocketMarginXARTICLE", "MarGrossPrice", "MarPredictedGrossPrice", "MarTotalExpectedCustomerMargin", "MarTotalExpectedPurchasePrice", "MarTotalExpectedQuantity", "MarTotalPurchasePrice", "MarTotalQtySold", "MarTotalRevenue", "Material", "MayCurrentCustomerMargin", "MayCurrentRevenueAbsDiscount", "MayCurrentRevenueINTERNAL", "MayCurrentRevenueMarkup", "MayCurrentRevenueNetPrice", "MayCurrentRevenueNoDiscounts", "MayCurrentRevenuePerDiscount", "MayCurrentRevenueXARTICLE", "MayCurrentTotalPocketMarginAbsDiscount", "MayCurrentTotalPocketMarginINTERNAL", "MayCurrentTotalPocketMarginMarkup", "MayCurrentTotalPocketMarginNetPrice", "MayCurrentTotalPocketMarginNoDiscounts", "MayCurrentTotalPocketMarginPerDiscount", "MayCurrentTotalPocketMarginXARTICLE", "MayExpectedBaseCost", "MayExpectedCustomerMargin", "MayExpectedRevenue", "MayExpectedRevenueAbsDiscount", "MayExpectedRevenueINTERNAL", "MayExpectedRevenueMarkup", "MayExpectedRevenueNetPrice", "MayExpectedRevenueNoDiscounts", "MayExpectedRevenuePerDiscount", "MayExpectedRevenueXARTICLE", "MayExpectedTotalPocketMarginAbsDiscount", "MayExpectedTotalPocketMarginINTERNAL", "MayExpectedTotalPocketMarginMarkup", "MayExpectedTotalPocketMarginNetPrice", "MayExpectedTotalPocketMarginNoDiscounts", "MayExpectedTotalPocketMarginPerDiscount", "MayExpectedTotalPocketMarginXARTICLE", "MayGrossPrice", "MayPredictedGrossPrice", "MayTotalExpectedCustomerMargin", "MayTotalExpectedPurchasePrice", "MayTotalExpectedQuantity", "MayTotalPurchasePrice", "MayTotalQtySold", "MayTotalRevenue", "NovCurrentCustomerMargin", "NovCurrentRevenueAbsDiscount", "NovCurrentRevenueINTERNAL", "NovCurrentRevenueMarkup", "NovCurrentRevenueNetPrice", "NovCurrentRevenueNoDiscounts", "NovCurrentRevenuePerDiscount", "NovCurrentRevenueXARTICLE", "NovCurrentTotalPocketMarginAbsDiscount", "NovCurrentTotalPocketMarginINTERNAL", "NovCurrentTotalPocketMarginMarkup", "NovCurrentTotalPocketMarginNetPrice", "NovCurrentTotalPocketMarginNoDiscounts", "NovCurrentTotalPocketMarginPerDiscount", "NovCurrentTotalPocketMarginXARTICLE", "NovExpectedBaseCost", "NovExpectedCustomerMargin", "NovExpectedRevenue", "NovExpectedRevenueAbsDiscount", "NovExpectedRevenueINTERNAL", "NovExpectedRevenueMarkup", "NovExpectedRevenueNetPrice", "NovExpectedRevenueNoDiscounts", "NovExpectedRevenuePerDiscount", "NovExpectedRevenueXARTICLE", "NovExpectedTotalPocketMarginAbsDiscount", "NovExpectedTotalPocketMarginINTERNAL", "NovExpectedTotalPocketMarginMarkup", "NovExpectedTotalPocketMarginNetPrice", "NovExpectedTotalPocketMarginNoDiscounts", "NovExpectedTotalPocketMarginPerDiscount", "NovExpectedTotalPocketMarginXARTICLE", "NovGrossPrice", "NovPredictedGrossPrice", "NovTotalExpectedCustomerMargin", "NovTotalExpectedPurchasePrice", "NovTotalExpectedQuantity", "NovTotalPurchasePrice", "NovTotalQtySold", "NovTotalRevenue", "OctCurrentCustomerMargin", "OctCurrentRevenueAbsDiscount", "OctCurrentRevenueINTERNAL", "OctCurrentRevenueMarkup", "OctCurrentRevenueNetPrice", "OctCurrentRevenueNoDiscounts", "OctCurrentRevenuePerDiscount", "OctCurrentRevenueXARTICLE", "OctCurrentTotalPocketMarginAbsDiscount", "OctCurrentTotalPocketMarginINTERNAL", "OctCurrentTotalPocketMarginMarkup", "OctCurrentTotalPocketMarginNetPrice", "OctCurrentTotalPocketMarginNoDiscounts", "OctCurrentTotalPocketMarginPerDiscount", "OctCurrentTotalPocketMarginXARTICLE", "OctExpectedBaseCost", "OctExpectedCustomerMargin", "OctExpectedRevenue", "OctExpectedRevenueAbsDiscount", "OctExpectedRevenueINTERNAL", "OctExpectedRevenueMarkup", "OctExpectedRevenueNetPrice", "OctExpectedRevenueNoDiscounts", "OctExpectedRevenuePerDiscount", "OctExpectedRevenueXARTICLE", "OctExpectedTotalPocketMarginAbsDiscount", "OctExpectedTotalPocketMarginINTERNAL", "OctExpectedTotalPocketMarginMarkup", "OctExpectedTotalPocketMarginNetPrice", "OctExpectedTotalPocketMarginNoDiscounts", "OctExpectedTotalPocketMarginPerDiscount", "OctExpectedTotalPocketMarginXARTICLE", "OctGrossPrice", "OctPredictedGrossPrice", "OctTotalExpectedCustomerMargin", "OctTotalExpectedPurchasePrice", "OctTotalExpectedQuantity", "OctTotalPurchasePrice", "OctTotalQtySold", "OctTotalRevenue", "ProdhII", "ProdhIII", "ProdhIV", "ProdhV", "ProdhVI", "ProdhVII", "SepCurrentCustomerMargin", "SepCurrentRevenueAbsDiscount", "SepCurrentRevenueINTERNAL", "SepCurrentRevenueMarkup", "SepCurrentRevenueNetPrice", "SepCurrentRevenueNoDiscounts", "SepCurrentRevenuePerDiscount", "SepCurrentRevenueXARTICLE", "SepCurrentTotalPocketMarginAbsDiscount", "SepCurrentTotalPocketMarginINTERNAL", "SepCurrentTotalPocketMarginMarkup", "SepCurrentTotalPocketMarginNetPrice", "SepCurrentTotalPocketMarginNoDiscounts", "SepCurrentTotalPocketMarginPerDiscount", "SepCurrentTotalPocketMarginXARTICLE", "SepExpectedBaseCost", "SepExpectedCustomerMargin", "SepExpectedRevenue", "SepExpectedRevenueAbsDiscount", "SepExpectedRevenueINTERNAL", "SepExpectedRevenueMarkup", "SepExpectedRevenueNetPrice", "SepExpectedRevenueNoDiscounts", "SepExpectedRevenuePerDiscount", "SepExpectedRevenueXARTICLE", "SepExpectedTotalPocketMarginAbsDiscount", "SepExpectedTotalPocketMarginINTERNAL", "SepExpectedTotalPocketMarginMarkup", "SepExpectedTotalPocketMarginNetPrice", "SepExpectedTotalPocketMarginNoDiscounts", "SepExpectedTotalPocketMarginPerDiscount", "SepExpectedTotalPocketMarginXARTICLE", "SepGrossPrice", "SepPredictedGrossPrice", "SepTotalExpectedCustomerMargin", "SepTotalExpectedPurchasePrice", "SepTotalExpectedQuantity", "SepTotalPurchasePrice", "SepTotalQtySold", "SepTotalRevenue", "alerts", "completeResultsAvailable", "formulaDetailedResults", "formulaResult", "isDeleted", "lastUpdateDate", "prodh_cm1", "prodh_cm2", "prodh_cm3", "prodh_cm4", "warnings" ],
  "isPlasma" : false,
  "label" : "Price Change Simulation Result (v1)",
  "loadableFields" : [ "Material", "isDeleted", "lastUpdateDate", "formulaResult", "formulaDetailedResults", "warnings", "alerts", "JanTotalQtySold", "FebTotalQtySold", "MarTotalQtySold", "AprTotalQtySold", "MayTotalQtySold", "JunTotalQtySold", "JulTotalQtySold", "AugTotalQtySold", "SepTotalQtySold", "OctTotalQtySold", "NovTotalQtySold", "DecTotalQtySold", "JanTotalRevenue", "FebTotalRevenue", "MarTotalRevenue", "AprTotalRevenue", "MayTotalRevenue", "JunTotalRevenue", "JulTotalRevenue", "AugTotalRevenue", "SepTotalRevenue", "OctTotalRevenue", "NovTotalRevenue", "DecTotalRevenue", "JanCurrentCustomerMargin", "FebCurrentCustomerMargin", "MarCurrentCustomerMargin", "AprCurrentCustomerMargin", "MayCurrentCustomerMargin", "JunCurrentCustomerMargin", "JulCurrentCustomerMargin", "AugCurrentCustomerMargin", "SepCurrentCustomerMargin", "OctCurrentCustomerMargin", "NovCurrentCustomerMargin", "DecCurrentCustomerMargin", "JanTotalPurchasePrice", "FebTotalPurchasePrice", "MarTotalPurchasePrice", "AprTotalPurchasePrice", "MayTotalPurchasePrice", "JunTotalPurchasePrice", "JulTotalPurchasePrice", "AugTotalPurchasePrice", "SepTotalPurchasePrice", "OctTotalPurchasePrice", "NovTotalPurchasePrice", "DecTotalPurchasePrice", "JanCurrentRevenueMarkup", "FebCurrentRevenueMarkup", "MarCurrentRevenueMarkup", "AprCurrentRevenueMarkup", "MayCurrentRevenueMarkup", "JunCurrentRevenueMarkup", "JulCurrentRevenueMarkup", "AugCurrentRevenueMarkup", "SepCurrentRevenueMarkup", "OctCurrentRevenueMarkup", "NovCurrentRevenueMarkup", "DecCurrentRevenueMarkup", "JanCurrentTotalPocketMarginMarkup", "FebCurrentTotalPocketMarginMarkup", "MarCurrentTotalPocketMarginMarkup", "AprCurrentTotalPocketMarginMarkup", "MayCurrentTotalPocketMarginMarkup", "JunCurrentTotalPocketMarginMarkup", "JulCurrentTotalPocketMarginMarkup", "AugCurrentTotalPocketMarginMarkup", "SepCurrentTotalPocketMarginMarkup", "OctCurrentTotalPocketMarginMarkup", "NovCurrentTotalPocketMarginMarkup", "DecCurrentTotalPocketMarginMarkup", "JanExpectedRevenueMarkup", "FebExpectedRevenueMarkup", "MarExpectedRevenueMarkup", "AprExpectedRevenueMarkup", "MayExpectedRevenueMarkup", "JunExpectedRevenueMarkup", "JulExpectedRevenueMarkup", "AugExpectedRevenueMarkup", "SepExpectedRevenueMarkup", "OctExpectedRevenueMarkup", "NovExpectedRevenueMarkup", "DecExpectedRevenueMarkup", "JanExpectedTotalPocketMarginMarkup", "FebExpectedTotalPocketMarginMarkup", "MarExpectedTotalPocketMarginMarkup", "AprExpectedTotalPocketMarginMarkup", "MayExpectedTotalPocketMarginMarkup", "JunExpectedTotalPocketMarginMarkup", "JulExpectedTotalPocketMarginMarkup", "AugExpectedTotalPocketMarginMarkup", "SepExpectedTotalPocketMarginMarkup", "OctExpectedTotalPocketMarginMarkup", "NovExpectedTotalPocketMarginMarkup", "DecExpectedTotalPocketMarginMarkup", "JanCurrentRevenueNetPrice", "FebCurrentRevenueNetPrice", "MarCurrentRevenueNetPrice", "AprCurrentRevenueNetPrice", "MayCurrentRevenueNetPrice", "JunCurrentRevenueNetPrice", "JulCurrentRevenueNetPrice", "AugCurrentRevenueNetPrice", "SepCurrentRevenueNetPrice", "OctCurrentRevenueNetPrice", "NovCurrentRevenueNetPrice", "DecCurrentRevenueNetPrice", "JanCurrentTotalPocketMarginNetPrice", "FebCurrentTotalPocketMarginNetPrice", "MarCurrentTotalPocketMarginNetPrice", "AprCurrentTotalPocketMarginNetPrice", "MayCurrentTotalPocketMarginNetPrice", "JunCurrentTotalPocketMarginNetPrice", "JulCurrentTotalPocketMarginNetPrice", "AugCurrentTotalPocketMarginNetPrice", "SepCurrentTotalPocketMarginNetPrice", "OctCurrentTotalPocketMarginNetPrice", "NovCurrentTotalPocketMarginNetPrice", "DecCurrentTotalPocketMarginNetPrice", "JanExpectedRevenueNetPrice", "FebExpectedRevenueNetPrice", "MarExpectedRevenueNetPrice", "AprExpectedRevenueNetPrice", "MayExpectedRevenueNetPrice", "JunExpectedRevenueNetPrice", "JulExpectedRevenueNetPrice", "AugExpectedRevenueNetPrice", "SepExpectedRevenueNetPrice", "OctExpectedRevenueNetPrice", "NovExpectedRevenueNetPrice", "DecExpectedRevenueNetPrice", "JanExpectedTotalPocketMarginNetPrice", "FebExpectedTotalPocketMarginNetPrice", "MarExpectedTotalPocketMarginNetPrice", "AprExpectedTotalPocketMarginNetPrice", "MayExpectedTotalPocketMarginNetPrice", "JunExpectedTotalPocketMarginNetPrice", "JulExpectedTotalPocketMarginNetPrice", "AugExpectedTotalPocketMarginNetPrice", "SepExpectedTotalPocketMarginNetPrice", "OctExpectedTotalPocketMarginNetPrice", "NovExpectedTotalPocketMarginNetPrice", "DecExpectedTotalPocketMarginNetPrice", "JanCurrentRevenuePerDiscount", "FebCurrentRevenuePerDiscount", "MarCurrentRevenuePerDiscount", "AprCurrentRevenuePerDiscount", "MayCurrentRevenuePerDiscount", "JunCurrentRevenuePerDiscount", "JulCurrentRevenuePerDiscount", "AugCurrentRevenuePerDiscount", "SepCurrentRevenuePerDiscount", "OctCurrentRevenuePerDiscount", "NovCurrentRevenuePerDiscount", "DecCurrentRevenuePerDiscount", "JanCurrentTotalPocketMarginPerDiscount", "FebCurrentTotalPocketMarginPerDiscount", "MarCurrentTotalPocketMarginPerDiscount", "AprCurrentTotalPocketMarginPerDiscount", "MayCurrentTotalPocketMarginPerDiscount", "JunCurrentTotalPocketMarginPerDiscount", "JulCurrentTotalPocketMarginPerDiscount", "AugCurrentTotalPocketMarginPerDiscount", "SepCurrentTotalPocketMarginPerDiscount", "OctCurrentTotalPocketMarginPerDiscount", "NovCurrentTotalPocketMarginPerDiscount", "DecCurrentTotalPocketMarginPerDiscount", "JanExpectedRevenuePerDiscount", "FebExpectedRevenuePerDiscount", "MarExpectedRevenuePerDiscount", "AprExpectedRevenuePerDiscount", "MayExpectedRevenuePerDiscount", "JunExpectedRevenuePerDiscount", "JulExpectedRevenuePerDiscount", "AugExpectedRevenuePerDiscount", "SepExpectedRevenuePerDiscount", "OctExpectedRevenuePerDiscount", "NovExpectedRevenuePerDiscount", "DecExpectedRevenuePerDiscount", "JanExpectedTotalPocketMarginPerDiscount", "FebExpectedTotalPocketMarginPerDiscount", "MarExpectedTotalPocketMarginPerDiscount", "AprExpectedTotalPocketMarginPerDiscount", "MayExpectedTotalPocketMarginPerDiscount", "JunExpectedTotalPocketMarginPerDiscount", "JulExpectedTotalPocketMarginPerDiscount", "AugExpectedTotalPocketMarginPerDiscount", "SepExpectedTotalPocketMarginPerDiscount", "OctExpectedTotalPocketMarginPerDiscount", "NovExpectedTotalPocketMarginPerDiscount", "DecExpectedTotalPocketMarginPerDiscount", "JanCurrentRevenueAbsDiscount", "FebCurrentRevenueAbsDiscount", "MarCurrentRevenueAbsDiscount", "AprCurrentRevenueAbsDiscount", "MayCurrentRevenueAbsDiscount", "JunCurrentRevenueAbsDiscount", "JulCurrentRevenueAbsDiscount", "AugCurrentRevenueAbsDiscount", "SepCurrentRevenueAbsDiscount", "OctCurrentRevenueAbsDiscount", "NovCurrentRevenueAbsDiscount", "DecCurrentRevenueAbsDiscount", "JanCurrentTotalPocketMarginAbsDiscount", "FebCurrentTotalPocketMarginAbsDiscount", "MarCurrentTotalPocketMarginAbsDiscount", "AprCurrentTotalPocketMarginAbsDiscount", "MayCurrentTotalPocketMarginAbsDiscount", "JunCurrentTotalPocketMarginAbsDiscount", "JulCurrentTotalPocketMarginAbsDiscount", "AugCurrentTotalPocketMarginAbsDiscount", "SepCurrentTotalPocketMarginAbsDiscount", "OctCurrentTotalPocketMarginAbsDiscount", "NovCurrentTotalPocketMarginAbsDiscount", "DecCurrentTotalPocketMarginAbsDiscount", "JanExpectedRevenueAbsDiscount", "FebExpectedRevenueAbsDiscount", "MarExpectedRevenueAbsDiscount", "AprExpectedRevenueAbsDiscount", "MayExpectedRevenueAbsDiscount", "JunExpectedRevenueAbsDiscount", "JulExpectedRevenueAbsDiscount", "AugExpectedRevenueAbsDiscount", "SepExpectedRevenueAbsDiscount", "OctExpectedRevenueAbsDiscount", "NovExpectedRevenueAbsDiscount", "DecExpectedRevenueAbsDiscount", "JanExpectedTotalPocketMarginAbsDiscount", "FebExpectedTotalPocketMarginAbsDiscount", "MarExpectedTotalPocketMarginAbsDiscount", "AprExpectedTotalPocketMarginAbsDiscount", "MayExpectedTotalPocketMarginAbsDiscount", "JunExpectedTotalPocketMarginAbsDiscount", "JulExpectedTotalPocketMarginAbsDiscount", "AugExpectedTotalPocketMarginAbsDiscount", "SepExpectedTotalPocketMarginAbsDiscount", "OctExpectedTotalPocketMarginAbsDiscount", "NovExpectedTotalPocketMarginAbsDiscount", "DecExpectedTotalPocketMarginAbsDiscount", "JanCurrentRevenueXARTICLE", "FebCurrentRevenueXARTICLE", "MarCurrentRevenueXARTICLE", "AprCurrentRevenueXARTICLE", "MayCurrentRevenueXARTICLE", "JunCurrentRevenueXARTICLE", "JulCurrentRevenueXARTICLE", "AugCurrentRevenueXARTICLE", "SepCurrentRevenueXARTICLE", "OctCurrentRevenueXARTICLE", "NovCurrentRevenueXARTICLE", "DecCurrentRevenueXARTICLE", "JanCurrentTotalPocketMarginXARTICLE", "FebCurrentTotalPocketMarginXARTICLE", "MarCurrentTotalPocketMarginXARTICLE", "AprCurrentTotalPocketMarginXARTICLE", "MayCurrentTotalPocketMarginXARTICLE", "JunCurrentTotalPocketMarginXARTICLE", "JulCurrentTotalPocketMarginXARTICLE", "AugCurrentTotalPocketMarginXARTICLE", "SepCurrentTotalPocketMarginXARTICLE", "OctCurrentTotalPocketMarginXARTICLE", "NovCurrentTotalPocketMarginXARTICLE", "DecCurrentTotalPocketMarginXARTICLE", "JanExpectedRevenueXARTICLE", "FebExpectedRevenueXARTICLE", "MarExpectedRevenueXARTICLE", "AprExpectedRevenueXARTICLE", "MayExpectedRevenueXARTICLE", "JunExpectedRevenueXARTICLE", "JulExpectedRevenueXARTICLE", "AugExpectedRevenueXARTICLE", "SepExpectedRevenueXARTICLE", "OctExpectedRevenueXARTICLE", "NovExpectedRevenueXARTICLE", "DecExpectedRevenueXARTICLE", "JanExpectedTotalPocketMarginXARTICLE", "FebExpectedTotalPocketMarginXARTICLE", "MarExpectedTotalPocketMarginXARTICLE", "AprExpectedTotalPocketMarginXARTICLE", "MayExpectedTotalPocketMarginXARTICLE", "JunExpectedTotalPocketMarginXARTICLE", "JulExpectedTotalPocketMarginXARTICLE", "AugExpectedTotalPocketMarginXARTICLE", "SepExpectedTotalPocketMarginXARTICLE", "OctExpectedTotalPocketMarginXARTICLE", "NovExpectedTotalPocketMarginXARTICLE", "DecExpectedTotalPocketMarginXARTICLE", "JanCurrentRevenueINTERNAL", "FebCurrentRevenueINTERNAL", "MarCurrentRevenueINTERNAL", "AprCurrentRevenueINTERNAL", "MayCurrentRevenueINTERNAL", "JunCurrentRevenueINTERNAL", "JulCurrentRevenueINTERNAL", "AugCurrentRevenueINTERNAL", "SepCurrentRevenueINTERNAL", "OctCurrentRevenueINTERNAL", "NovCurrentRevenueINTERNAL", "DecCurrentRevenueINTERNAL", "JanCurrentTotalPocketMarginINTERNAL", "FebCurrentTotalPocketMarginINTERNAL", "MarCurrentTotalPocketMarginINTERNAL", "AprCurrentTotalPocketMarginINTERNAL", "MayCurrentTotalPocketMarginINTERNAL", "JunCurrentTotalPocketMarginINTERNAL", "JulCurrentTotalPocketMarginINTERNAL", "AugCurrentTotalPocketMarginINTERNAL", "SepCurrentTotalPocketMarginINTERNAL", "OctCurrentTotalPocketMarginINTERNAL", "NovCurrentTotalPocketMarginINTERNAL", "DecCurrentTotalPocketMarginINTERNAL", "JanExpectedRevenueINTERNAL", "FebExpectedRevenueINTERNAL", "MarExpectedRevenueINTERNAL", "AprExpectedRevenueINTERNAL", "MayExpectedRevenueINTERNAL", "JunExpectedRevenueINTERNAL", "JulExpectedRevenueINTERNAL", "AugExpectedRevenueINTERNAL", "SepExpectedRevenueINTERNAL", "OctExpectedRevenueINTERNAL", "NovExpectedRevenueINTERNAL", "DecExpectedRevenueINTERNAL", "JanExpectedTotalPocketMarginINTERNAL", "FebExpectedTotalPocketMarginINTERNAL", "MarExpectedTotalPocketMarginINTERNAL", "AprExpectedTotalPocketMarginINTERNAL", "MayExpectedTotalPocketMarginINTERNAL", "JunExpectedTotalPocketMarginINTERNAL", "JulExpectedTotalPocketMarginINTERNAL", "AugExpectedTotalPocketMarginINTERNAL", "SepExpectedTotalPocketMarginINTERNAL", "OctExpectedTotalPocketMarginINTERNAL", "NovExpectedTotalPocketMarginINTERNAL", "DecExpectedTotalPocketMarginINTERNAL", "JanCurrentRevenueNoDiscounts", "FebCurrentRevenueNoDiscounts", "MarCurrentRevenueNoDiscounts", "AprCurrentRevenueNoDiscounts", "MayCurrentRevenueNoDiscounts", "JunCurrentRevenueNoDiscounts", "JulCurrentRevenueNoDiscounts", "AugCurrentRevenueNoDiscounts", "SepCurrentRevenueNoDiscounts", "OctCurrentRevenueNoDiscounts", "NovCurrentRevenueNoDiscounts", "DecCurrentRevenueNoDiscounts", "JanCurrentTotalPocketMarginNoDiscounts", "FebCurrentTotalPocketMarginNoDiscounts", "MarCurrentTotalPocketMarginNoDiscounts", "AprCurrentTotalPocketMarginNoDiscounts", "MayCurrentTotalPocketMarginNoDiscounts", "JunCurrentTotalPocketMarginNoDiscounts", "JulCurrentTotalPocketMarginNoDiscounts", "AugCurrentTotalPocketMarginNoDiscounts", "SepCurrentTotalPocketMarginNoDiscounts", "OctCurrentTotalPocketMarginNoDiscounts", "NovCurrentTotalPocketMarginNoDiscounts", "DecCurrentTotalPocketMarginNoDiscounts", "JanExpectedRevenueNoDiscounts", "FebExpectedRevenueNoDiscounts", "MarExpectedRevenueNoDiscounts", "AprExpectedRevenueNoDiscounts", "MayExpectedRevenueNoDiscounts", "JunExpectedRevenueNoDiscounts", "JulExpectedRevenueNoDiscounts", "AugExpectedRevenueNoDiscounts", "SepExpectedRevenueNoDiscounts", "OctExpectedRevenueNoDiscounts", "NovExpectedRevenueNoDiscounts", "DecExpectedRevenueNoDiscounts", "JanExpectedTotalPocketMarginNoDiscounts", "FebExpectedTotalPocketMarginNoDiscounts", "MarExpectedTotalPocketMarginNoDiscounts", "AprExpectedTotalPocketMarginNoDiscounts", "MayExpectedTotalPocketMarginNoDiscounts", "JunExpectedTotalPocketMarginNoDiscounts", "JulExpectedTotalPocketMarginNoDiscounts", "AugExpectedTotalPocketMarginNoDiscounts", "SepExpectedTotalPocketMarginNoDiscounts", "OctExpectedTotalPocketMarginNoDiscounts", "NovExpectedTotalPocketMarginNoDiscounts", "DecExpectedTotalPocketMarginNoDiscounts", "JanExpectedRevenue", "FebExpectedRevenue", "MarExpectedRevenue", "AprExpectedRevenue", "MayExpectedRevenue", "JunExpectedRevenue", "JulExpectedRevenue", "AugExpectedRevenue", "SepExpectedRevenue", "OctExpectedRevenue", "NovExpectedRevenue", "DecExpectedRevenue", "JanExpectedBaseCost", "FebExpectedBaseCost", "MarExpectedBaseCost", "AprExpectedBaseCost", "MayExpectedBaseCost", "JunExpectedBaseCost", "JulExpectedBaseCost", "AugExpectedBaseCost", "SepExpectedBaseCost", "OctExpectedBaseCost", "NovExpectedBaseCost", "DecExpectedBaseCost", "JanExpectedCustomerMargin", "FebExpectedCustomerMargin", "MarExpectedCustomerMargin", "AprExpectedCustomerMargin", "MayExpectedCustomerMargin", "JunExpectedCustomerMargin", "JulExpectedCustomerMargin", "AugExpectedCustomerMargin", "SepExpectedCustomerMargin", "OctExpectedCustomerMargin", "NovExpectedCustomerMargin", "DecExpectedCustomerMargin", "JanTotalExpectedQuantity", "FebTotalExpectedQuantity", "MarTotalExpectedQuantity", "AprTotalExpectedQuantity", "MayTotalExpectedQuantity", "JunTotalExpectedQuantity", "JulTotalExpectedQuantity", "AugTotalExpectedQuantity", "SepTotalExpectedQuantity", "OctTotalExpectedQuantity", "NovTotalExpectedQuantity", "DecTotalExpectedQuantity", "JanTotalExpectedCustomerMargin", "FebTotalExpectedCustomerMargin", "MarTotalExpectedCustomerMargin", "AprTotalExpectedCustomerMargin", "MayTotalExpectedCustomerMargin", "JunTotalExpectedCustomerMargin", "JulTotalExpectedCustomerMargin", "AugTotalExpectedCustomerMargin", "SepTotalExpectedCustomerMargin", "OctTotalExpectedCustomerMargin", "NovTotalExpectedCustomerMargin", "DecTotalExpectedCustomerMargin", "JanTotalExpectedPurchasePrice", "FebTotalExpectedPurchasePrice", "MarTotalExpectedPurchasePrice", "AprTotalExpectedPurchasePrice", "MayTotalExpectedPurchasePrice", "JunTotalExpectedPurchasePrice", "JulTotalExpectedPurchasePrice", "AugTotalExpectedPurchasePrice", "SepTotalExpectedPurchasePrice", "OctTotalExpectedPurchasePrice", "NovTotalExpectedPurchasePrice", "DecTotalExpectedPurchasePrice", "DecPredictedGrossPrice", "NovPredictedGrossPrice", "OctPredictedGrossPrice", "SepPredictedGrossPrice", "AugPredictedGrossPrice", "JulPredictedGrossPrice", "JunPredictedGrossPrice", "MayPredictedGrossPrice", "AprPredictedGrossPrice", "MarPredictedGrossPrice", "FebPredictedGrossPrice", "JanPredictedGrossPrice", "DecGrossPrice", "NovGrossPrice", "OctGrossPrice", "SepGrossPrice", "AugGrossPrice", "JulGrossPrice", "JunGrossPrice", "MayGrossPrice", "AprGrossPrice", "MarGrossPrice", "FebGrossPrice", "JanGrossPrice" ],
  "localFields" : [ "Material", "isDeleted", "lastUpdateDate", "formulaResult", "formulaDetailedResults", "warnings", "alerts", "JanTotalQtySold", "FebTotalQtySold", "MarTotalQtySold", "AprTotalQtySold", "MayTotalQtySold", "JunTotalQtySold", "JulTotalQtySold", "AugTotalQtySold", "SepTotalQtySold", "OctTotalQtySold", "NovTotalQtySold", "DecTotalQtySold", "JanTotalRevenue", "FebTotalRevenue", "MarTotalRevenue", "AprTotalRevenue", "MayTotalRevenue", "JunTotalRevenue", "JulTotalRevenue", "AugTotalRevenue", "SepTotalRevenue", "OctTotalRevenue", "NovTotalRevenue", "DecTotalRevenue", "JanCurrentCustomerMargin", "FebCurrentCustomerMargin", "MarCurrentCustomerMargin", "AprCurrentCustomerMargin", "MayCurrentCustomerMargin", "JunCurrentCustomerMargin", "JulCurrentCustomerMargin", "AugCurrentCustomerMargin", "SepCurrentCustomerMargin", "OctCurrentCustomerMargin", "NovCurrentCustomerMargin", "DecCurrentCustomerMargin", "JanTotalPurchasePrice", "FebTotalPurchasePrice", "MarTotalPurchasePrice", "AprTotalPurchasePrice", "MayTotalPurchasePrice", "JunTotalPurchasePrice", "JulTotalPurchasePrice", "AugTotalPurchasePrice", "SepTotalPurchasePrice", "OctTotalPurchasePrice", "NovTotalPurchasePrice", "DecTotalPurchasePrice", "JanCurrentRevenueMarkup", "FebCurrentRevenueMarkup", "MarCurrentRevenueMarkup", "AprCurrentRevenueMarkup", "MayCurrentRevenueMarkup", "JunCurrentRevenueMarkup", "JulCurrentRevenueMarkup", "AugCurrentRevenueMarkup", "SepCurrentRevenueMarkup", "OctCurrentRevenueMarkup", "NovCurrentRevenueMarkup", "DecCurrentRevenueMarkup", "JanCurrentTotalPocketMarginMarkup", "FebCurrentTotalPocketMarginMarkup", "MarCurrentTotalPocketMarginMarkup", "AprCurrentTotalPocketMarginMarkup", "MayCurrentTotalPocketMarginMarkup", "JunCurrentTotalPocketMarginMarkup", "JulCurrentTotalPocketMarginMarkup", "AugCurrentTotalPocketMarginMarkup", "SepCurrentTotalPocketMarginMarkup", "OctCurrentTotalPocketMarginMarkup", "NovCurrentTotalPocketMarginMarkup", "DecCurrentTotalPocketMarginMarkup", "JanExpectedRevenueMarkup", "FebExpectedRevenueMarkup", "MarExpectedRevenueMarkup", "AprExpectedRevenueMarkup", "MayExpectedRevenueMarkup", "JunExpectedRevenueMarkup", "JulExpectedRevenueMarkup", "AugExpectedRevenueMarkup", "SepExpectedRevenueMarkup", "OctExpectedRevenueMarkup", "NovExpectedRevenueMarkup", "DecExpectedRevenueMarkup", "JanExpectedTotalPocketMarginMarkup", "FebExpectedTotalPocketMarginMarkup", "MarExpectedTotalPocketMarginMarkup", "AprExpectedTotalPocketMarginMarkup", "MayExpectedTotalPocketMarginMarkup", "JunExpectedTotalPocketMarginMarkup", "JulExpectedTotalPocketMarginMarkup", "AugExpectedTotalPocketMarginMarkup", "SepExpectedTotalPocketMarginMarkup", "OctExpectedTotalPocketMarginMarkup", "NovExpectedTotalPocketMarginMarkup", "DecExpectedTotalPocketMarginMarkup", "JanCurrentRevenueNetPrice", "FebCurrentRevenueNetPrice", "MarCurrentRevenueNetPrice", "AprCurrentRevenueNetPrice", "MayCurrentRevenueNetPrice", "JunCurrentRevenueNetPrice", "JulCurrentRevenueNetPrice", "AugCurrentRevenueNetPrice", "SepCurrentRevenueNetPrice", "OctCurrentRevenueNetPrice", "NovCurrentRevenueNetPrice", "DecCurrentRevenueNetPrice", "JanCurrentTotalPocketMarginNetPrice", "FebCurrentTotalPocketMarginNetPrice", "MarCurrentTotalPocketMarginNetPrice", "AprCurrentTotalPocketMarginNetPrice", "MayCurrentTotalPocketMarginNetPrice", "JunCurrentTotalPocketMarginNetPrice", "JulCurrentTotalPocketMarginNetPrice", "AugCurrentTotalPocketMarginNetPrice", "SepCurrentTotalPocketMarginNetPrice", "OctCurrentTotalPocketMarginNetPrice", "NovCurrentTotalPocketMarginNetPrice", "DecCurrentTotalPocketMarginNetPrice", "JanExpectedRevenueNetPrice", "FebExpectedRevenueNetPrice", "MarExpectedRevenueNetPrice", "AprExpectedRevenueNetPrice", "MayExpectedRevenueNetPrice", "JunExpectedRevenueNetPrice", "JulExpectedRevenueNetPrice", "AugExpectedRevenueNetPrice", "SepExpectedRevenueNetPrice", "OctExpectedRevenueNetPrice", "NovExpectedRevenueNetPrice", "DecExpectedRevenueNetPrice", "JanExpectedTotalPocketMarginNetPrice", "FebExpectedTotalPocketMarginNetPrice", "MarExpectedTotalPocketMarginNetPrice", "AprExpectedTotalPocketMarginNetPrice", "MayExpectedTotalPocketMarginNetPrice", "JunExpectedTotalPocketMarginNetPrice", "JulExpectedTotalPocketMarginNetPrice", "AugExpectedTotalPocketMarginNetPrice", "SepExpectedTotalPocketMarginNetPrice", "OctExpectedTotalPocketMarginNetPrice", "NovExpectedTotalPocketMarginNetPrice", "DecExpectedTotalPocketMarginNetPrice", "JanCurrentRevenuePerDiscount", "FebCurrentRevenuePerDiscount", "MarCurrentRevenuePerDiscount", "AprCurrentRevenuePerDiscount", "MayCurrentRevenuePerDiscount", "JunCurrentRevenuePerDiscount", "JulCurrentRevenuePerDiscount", "AugCurrentRevenuePerDiscount", "SepCurrentRevenuePerDiscount", "OctCurrentRevenuePerDiscount", "NovCurrentRevenuePerDiscount", "DecCurrentRevenuePerDiscount", "JanCurrentTotalPocketMarginPerDiscount", "FebCurrentTotalPocketMarginPerDiscount", "MarCurrentTotalPocketMarginPerDiscount", "AprCurrentTotalPocketMarginPerDiscount", "MayCurrentTotalPocketMarginPerDiscount", "JunCurrentTotalPocketMarginPerDiscount", "JulCurrentTotalPocketMarginPerDiscount", "AugCurrentTotalPocketMarginPerDiscount", "SepCurrentTotalPocketMarginPerDiscount", "OctCurrentTotalPocketMarginPerDiscount", "NovCurrentTotalPocketMarginPerDiscount", "DecCurrentTotalPocketMarginPerDiscount", "JanExpectedRevenuePerDiscount", "FebExpectedRevenuePerDiscount", "MarExpectedRevenuePerDiscount", "AprExpectedRevenuePerDiscount", "MayExpectedRevenuePerDiscount", "JunExpectedRevenuePerDiscount", "JulExpectedRevenuePerDiscount", "AugExpectedRevenuePerDiscount", "SepExpectedRevenuePerDiscount", "OctExpectedRevenuePerDiscount", "NovExpectedRevenuePerDiscount", "DecExpectedRevenuePerDiscount", "JanExpectedTotalPocketMarginPerDiscount", "FebExpectedTotalPocketMarginPerDiscount", "MarExpectedTotalPocketMarginPerDiscount", "AprExpectedTotalPocketMarginPerDiscount", "MayExpectedTotalPocketMarginPerDiscount", "JunExpectedTotalPocketMarginPerDiscount", "JulExpectedTotalPocketMarginPerDiscount", "AugExpectedTotalPocketMarginPerDiscount", "SepExpectedTotalPocketMarginPerDiscount", "OctExpectedTotalPocketMarginPerDiscount", "NovExpectedTotalPocketMarginPerDiscount", "DecExpectedTotalPocketMarginPerDiscount", "JanCurrentRevenueAbsDiscount", "FebCurrentRevenueAbsDiscount", "MarCurrentRevenueAbsDiscount", "AprCurrentRevenueAbsDiscount", "MayCurrentRevenueAbsDiscount", "JunCurrentRevenueAbsDiscount", "JulCurrentRevenueAbsDiscount", "AugCurrentRevenueAbsDiscount", "SepCurrentRevenueAbsDiscount", "OctCurrentRevenueAbsDiscount", "NovCurrentRevenueAbsDiscount", "DecCurrentRevenueAbsDiscount", "JanCurrentTotalPocketMarginAbsDiscount", "FebCurrentTotalPocketMarginAbsDiscount", "MarCurrentTotalPocketMarginAbsDiscount", "AprCurrentTotalPocketMarginAbsDiscount", "MayCurrentTotalPocketMarginAbsDiscount", "JunCurrentTotalPocketMarginAbsDiscount", "JulCurrentTotalPocketMarginAbsDiscount", "AugCurrentTotalPocketMarginAbsDiscount", "SepCurrentTotalPocketMarginAbsDiscount", "OctCurrentTotalPocketMarginAbsDiscount", "NovCurrentTotalPocketMarginAbsDiscount", "DecCurrentTotalPocketMarginAbsDiscount", "JanExpectedRevenueAbsDiscount", "FebExpectedRevenueAbsDiscount", "MarExpectedRevenueAbsDiscount", "AprExpectedRevenueAbsDiscount", "MayExpectedRevenueAbsDiscount", "JunExpectedRevenueAbsDiscount", "JulExpectedRevenueAbsDiscount", "AugExpectedRevenueAbsDiscount", "SepExpectedRevenueAbsDiscount", "OctExpectedRevenueAbsDiscount", "NovExpectedRevenueAbsDiscount", "DecExpectedRevenueAbsDiscount", "JanExpectedTotalPocketMarginAbsDiscount", "FebExpectedTotalPocketMarginAbsDiscount", "MarExpectedTotalPocketMarginAbsDiscount", "AprExpectedTotalPocketMarginAbsDiscount", "MayExpectedTotalPocketMarginAbsDiscount", "JunExpectedTotalPocketMarginAbsDiscount", "JulExpectedTotalPocketMarginAbsDiscount", "AugExpectedTotalPocketMarginAbsDiscount", "SepExpectedTotalPocketMarginAbsDiscount", "OctExpectedTotalPocketMarginAbsDiscount", "NovExpectedTotalPocketMarginAbsDiscount", "DecExpectedTotalPocketMarginAbsDiscount", "JanCurrentRevenueXARTICLE", "FebCurrentRevenueXARTICLE", "MarCurrentRevenueXARTICLE", "AprCurrentRevenueXARTICLE", "MayCurrentRevenueXARTICLE", "JunCurrentRevenueXARTICLE", "JulCurrentRevenueXARTICLE", "AugCurrentRevenueXARTICLE", "SepCurrentRevenueXARTICLE", "OctCurrentRevenueXARTICLE", "NovCurrentRevenueXARTICLE", "DecCurrentRevenueXARTICLE", "JanCurrentTotalPocketMarginXARTICLE", "FebCurrentTotalPocketMarginXARTICLE", "MarCurrentTotalPocketMarginXARTICLE", "AprCurrentTotalPocketMarginXARTICLE", "MayCurrentTotalPocketMarginXARTICLE", "JunCurrentTotalPocketMarginXARTICLE", "JulCurrentTotalPocketMarginXARTICLE", "AugCurrentTotalPocketMarginXARTICLE", "SepCurrentTotalPocketMarginXARTICLE", "OctCurrentTotalPocketMarginXARTICLE", "NovCurrentTotalPocketMarginXARTICLE", "DecCurrentTotalPocketMarginXARTICLE", "JanExpectedRevenueXARTICLE", "FebExpectedRevenueXARTICLE", "MarExpectedRevenueXARTICLE", "AprExpectedRevenueXARTICLE", "MayExpectedRevenueXARTICLE", "JunExpectedRevenueXARTICLE", "JulExpectedRevenueXARTICLE", "AugExpectedRevenueXARTICLE", "SepExpectedRevenueXARTICLE", "OctExpectedRevenueXARTICLE", "NovExpectedRevenueXARTICLE", "DecExpectedRevenueXARTICLE", "JanExpectedTotalPocketMarginXARTICLE", "FebExpectedTotalPocketMarginXARTICLE", "MarExpectedTotalPocketMarginXARTICLE", "AprExpectedTotalPocketMarginXARTICLE", "MayExpectedTotalPocketMarginXARTICLE", "JunExpectedTotalPocketMarginXARTICLE", "JulExpectedTotalPocketMarginXARTICLE", "AugExpectedTotalPocketMarginXARTICLE", "SepExpectedTotalPocketMarginXARTICLE", "OctExpectedTotalPocketMarginXARTICLE", "NovExpectedTotalPocketMarginXARTICLE", "DecExpectedTotalPocketMarginXARTICLE", "JanCurrentRevenueINTERNAL", "FebCurrentRevenueINTERNAL", "MarCurrentRevenueINTERNAL", "AprCurrentRevenueINTERNAL", "MayCurrentRevenueINTERNAL", "JunCurrentRevenueINTERNAL", "JulCurrentRevenueINTERNAL", "AugCurrentRevenueINTERNAL", "SepCurrentRevenueINTERNAL", "OctCurrentRevenueINTERNAL", "NovCurrentRevenueINTERNAL", "DecCurrentRevenueINTERNAL", "JanCurrentTotalPocketMarginINTERNAL", "FebCurrentTotalPocketMarginINTERNAL", "MarCurrentTotalPocketMarginINTERNAL", "AprCurrentTotalPocketMarginINTERNAL", "MayCurrentTotalPocketMarginINTERNAL", "JunCurrentTotalPocketMarginINTERNAL", "JulCurrentTotalPocketMarginINTERNAL", "AugCurrentTotalPocketMarginINTERNAL", "SepCurrentTotalPocketMarginINTERNAL", "OctCurrentTotalPocketMarginINTERNAL", "NovCurrentTotalPocketMarginINTERNAL", "DecCurrentTotalPocketMarginINTERNAL", "JanExpectedRevenueINTERNAL", "FebExpectedRevenueINTERNAL", "MarExpectedRevenueINTERNAL", "AprExpectedRevenueINTERNAL", "MayExpectedRevenueINTERNAL", "JunExpectedRevenueINTERNAL", "JulExpectedRevenueINTERNAL", "AugExpectedRevenueINTERNAL", "SepExpectedRevenueINTERNAL", "OctExpectedRevenueINTERNAL", "NovExpectedRevenueINTERNAL", "DecExpectedRevenueINTERNAL", "JanExpectedTotalPocketMarginINTERNAL", "FebExpectedTotalPocketMarginINTERNAL", "MarExpectedTotalPocketMarginINTERNAL", "AprExpectedTotalPocketMarginINTERNAL", "MayExpectedTotalPocketMarginINTERNAL", "JunExpectedTotalPocketMarginINTERNAL", "JulExpectedTotalPocketMarginINTERNAL", "AugExpectedTotalPocketMarginINTERNAL", "SepExpectedTotalPocketMarginINTERNAL", "OctExpectedTotalPocketMarginINTERNAL", "NovExpectedTotalPocketMarginINTERNAL", "DecExpectedTotalPocketMarginINTERNAL", "JanCurrentRevenueNoDiscounts", "FebCurrentRevenueNoDiscounts", "MarCurrentRevenueNoDiscounts", "AprCurrentRevenueNoDiscounts", "MayCurrentRevenueNoDiscounts", "JunCurrentRevenueNoDiscounts", "JulCurrentRevenueNoDiscounts", "AugCurrentRevenueNoDiscounts", "SepCurrentRevenueNoDiscounts", "OctCurrentRevenueNoDiscounts", "NovCurrentRevenueNoDiscounts", "DecCurrentRevenueNoDiscounts", "JanCurrentTotalPocketMarginNoDiscounts", "FebCurrentTotalPocketMarginNoDiscounts", "MarCurrentTotalPocketMarginNoDiscounts", "AprCurrentTotalPocketMarginNoDiscounts", "MayCurrentTotalPocketMarginNoDiscounts", "JunCurrentTotalPocketMarginNoDiscounts", "JulCurrentTotalPocketMarginNoDiscounts", "AugCurrentTotalPocketMarginNoDiscounts", "SepCurrentTotalPocketMarginNoDiscounts", "OctCurrentTotalPocketMarginNoDiscounts", "NovCurrentTotalPocketMarginNoDiscounts", "DecCurrentTotalPocketMarginNoDiscounts", "JanExpectedRevenueNoDiscounts", "FebExpectedRevenueNoDiscounts", "MarExpectedRevenueNoDiscounts", "AprExpectedRevenueNoDiscounts", "MayExpectedRevenueNoDiscounts", "JunExpectedRevenueNoDiscounts", "JulExpectedRevenueNoDiscounts", "AugExpectedRevenueNoDiscounts", "SepExpectedRevenueNoDiscounts", "OctExpectedRevenueNoDiscounts", "NovExpectedRevenueNoDiscounts", "DecExpectedRevenueNoDiscounts", "JanExpectedTotalPocketMarginNoDiscounts", "FebExpectedTotalPocketMarginNoDiscounts", "MarExpectedTotalPocketMarginNoDiscounts", "AprExpectedTotalPocketMarginNoDiscounts", "MayExpectedTotalPocketMarginNoDiscounts", "JunExpectedTotalPocketMarginNoDiscounts", "JulExpectedTotalPocketMarginNoDiscounts", "AugExpectedTotalPocketMarginNoDiscounts", "SepExpectedTotalPocketMarginNoDiscounts", "OctExpectedTotalPocketMarginNoDiscounts", "NovExpectedTotalPocketMarginNoDiscounts", "DecExpectedTotalPocketMarginNoDiscounts", "JanExpectedRevenue", "FebExpectedRevenue", "MarExpectedRevenue", "AprExpectedRevenue", "MayExpectedRevenue", "JunExpectedRevenue", "JulExpectedRevenue", "AugExpectedRevenue", "SepExpectedRevenue", "OctExpectedRevenue", "NovExpectedRevenue", "DecExpectedRevenue", "JanExpectedBaseCost", "FebExpectedBaseCost", "MarExpectedBaseCost", "AprExpectedBaseCost", "MayExpectedBaseCost", "JunExpectedBaseCost", "JulExpectedBaseCost", "AugExpectedBaseCost", "SepExpectedBaseCost", "OctExpectedBaseCost", "NovExpectedBaseCost", "DecExpectedBaseCost", "JanExpectedCustomerMargin", "FebExpectedCustomerMargin", "MarExpectedCustomerMargin", "AprExpectedCustomerMargin", "MayExpectedCustomerMargin", "JunExpectedCustomerMargin", "JulExpectedCustomerMargin", "AugExpectedCustomerMargin", "SepExpectedCustomerMargin", "OctExpectedCustomerMargin", "NovExpectedCustomerMargin", "DecExpectedCustomerMargin", "JanTotalExpectedQuantity", "FebTotalExpectedQuantity", "MarTotalExpectedQuantity", "AprTotalExpectedQuantity", "MayTotalExpectedQuantity", "JunTotalExpectedQuantity", "JulTotalExpectedQuantity", "AugTotalExpectedQuantity", "SepTotalExpectedQuantity", "OctTotalExpectedQuantity", "NovTotalExpectedQuantity", "DecTotalExpectedQuantity", "JanTotalExpectedCustomerMargin", "FebTotalExpectedCustomerMargin", "MarTotalExpectedCustomerMargin", "AprTotalExpectedCustomerMargin", "MayTotalExpectedCustomerMargin", "JunTotalExpectedCustomerMargin", "JulTotalExpectedCustomerMargin", "AugTotalExpectedCustomerMargin", "SepTotalExpectedCustomerMargin", "OctTotalExpectedCustomerMargin", "NovTotalExpectedCustomerMargin", "DecTotalExpectedCustomerMargin", "JanTotalExpectedPurchasePrice", "FebTotalExpectedPurchasePrice", "MarTotalExpectedPurchasePrice", "AprTotalExpectedPurchasePrice", "MayTotalExpectedPurchasePrice", "JunTotalExpectedPurchasePrice", "JulTotalExpectedPurchasePrice", "AugTotalExpectedPurchasePrice", "SepTotalExpectedPurchasePrice", "OctTotalExpectedPurchasePrice", "NovTotalExpectedPurchasePrice", "DecTotalExpectedPurchasePrice", "DecPredictedGrossPrice", "NovPredictedGrossPrice", "OctPredictedGrossPrice", "SepPredictedGrossPrice", "AugPredictedGrossPrice", "JulPredictedGrossPrice", "JunPredictedGrossPrice", "MayPredictedGrossPrice", "AprPredictedGrossPrice", "MarPredictedGrossPrice", "FebPredictedGrossPrice", "JanPredictedGrossPrice", "DecGrossPrice", "NovGrossPrice", "OctGrossPrice", "SepGrossPrice", "AugGrossPrice", "JulGrossPrice", "JunGrossPrice", "MayGrossPrice", "AprGrossPrice", "MarGrossPrice", "FebGrossPrice", "JanGrossPrice" ],
  "locked" : false,
  "normalization" : "MEDIUM",
  "queryable" : true,
  "source" : "",
  "type" : "DATAMART",
  "uniqueName" : "PriceChangeSimulation_Result_V1",
  "valid" : true,
  "view" : false
}