{
  "category" : "Archieved",
  "configuration" : {
    "formulaName" : "Dashboard_ClearingRebatesPerSalesOffice",
    "inputs" : [ {
      "filter" : null,
      "label" : "Customer Filter",
      "labelTranslations" : null,
      "lookupTableId" : null,
      "name" : "Customer Filter",
      "parameterConfig" : { },
      "parameterGroup" : null,
      "readOnly" : null,
      "required" : null,
      "type" : "CUSTOMERGROUP",
      "url" : null,
      "value" : {
        "customerFilterCriteria" : {
          "_constructor" : "AdvancedCriteria",
          "criteria" : [ {
            "_constructor" : "AdvancedCriteria",
            "criteria" : [ {
              "fieldName" : "attribute2",
              "operator" : "equals",
              "value" : "Verkaufsbüros Inland (Handwerk)"
            }, {
              "fieldName" : "attribute2",
              "operator" : "equals",
              "value" : "Handel"
            } ],
            "operator" : "or"
          }, {
            "fieldName" : "attribute3",
            "operator" : "notEqual",
            "value" : "Bozen"
          } ],
          "operator" : "and"
        },
        "label" : "(Verkaufsbereich2 is equal to Verkaufsbüros Inland (Handwerk) or Verkaufsbereich2 is equal to Handel) and Verkaufsbereich3 is not equal to Bozen"
      },
      "valueHint" : null,
      "valueOptions" : null
    } ]
  },
  "dynamicInputs" : false,
  "hide" : true,
  "label" : "Clearing Rebates per Sales Office",
  "labelTranslations" : { },
  "uniqueName" : "ClearingRebatesPerSalesOffice",
  "userGroupEdit" : "Admin",
  "userGroupViewDetails" : "Admin,Presenter"
}