{
  "category" : "Archieved",
  "configuration" : {
    "formulaName" : "Dashboard_ClearingRebatesPerProduct",
    "inputs" : [ {
      "filter" : null,
      "label" : "Show count greater than",
      "labelTranslations" : null,
      "lookupTableId" : null,
      "name" : "Show count greater than",
      "parameterConfig" : {
        "dataType" : "integer"
      },
      "parameterGroup" : null,
      "readOnly" : null,
      "required" : null,
      "type" : "INTEGERUSERENTRY",
      "url" : null,
      "value" : 10,
      "valueHint" : null,
      "valueOptions" : null
    } ]
  },
  "dynamicInputs" : false,
  "hide" : true,
  "label" : "Clearing Rebates per Product",
  "labelTranslations" : { },
  "uniqueName" : "ClearingRebatesPerProduct",
  "userGroupEdit" : "Admin",
  "userGroupViewDetails" : "Admin,Presenter"
}