{
  "category" : "Simulation",
  "configuration" : {
    "formulaName" : "Dashboard_ConfigurationInputDetails",
    "inputs" : [ ]
  },
  "dynamicInputs" : false,
  "hide" : true,
  "label" : "Configuration Input Details",
  "labelTranslations" : { },
  "uniqueName" : "ConfigurationInputDetails"
}