{
  "category" : "Needs Modifications",
  "configuration" : {
    "formulaName" : "Dashboard_CustomerSalesPricesHistory",
    "inputs" : [ ]
  },
  "dynamicInputs" : false,
  "hide" : true,
  "label" : "ZPAPs History",
  "labelTranslations" : { },
  "uniqueName" : "CustomerSalesPricesHistory",
  "userGroupEdit" : "Admin",
  "userGroupViewDetails" : "Admin,Presenter"
}