{
  "category" : "Published",
  "configuration" : {
    "formulaName" : "Dashboard_CustomerSalesPricesPerCustomerDiscountGroup",
    "inputs" : [ ]
  },
  "dynamicInputs" : false,
  "hide" : false,
  "label" : "Margin Leakage ZPAPs Overview per Customer Discount Group",
  "labelTranslations" : { },
  "uniqueName" : "CustomerSalesPricesPerCustomerDiscountGroup",
  "userGroupEdit" : "Admin",
  "userGroupViewDetails" : "Admin,Presenter,VBL"
}