{
  "category" : "Needs Modifications",
  "configuration" : {
    "formulaName" : "Dashboard_IntegrationStatus",
    "inputs" : [ ]
  },
  "dynamicInputs" : false,
  "hide" : true,
  "label" : "Integration Status",
  "labelTranslations" : { },
  "uniqueName" : "IntegrationStatus",
  "userGroupEdit" : "Admin",
  "userGroupViewDetails" : "Admin,Presenter"
}