{
  "category" : "Simulation",
  "configuration" : {
    "formulaName" : "Dashboard_PriceChangeSimulation_MonthPrecision",
    "inputs" : [ {
      "addUnknownValues" : null,
      "alwaysEditable" : null,
      "filter" : null,
      "formattingOptions" : { },
      "label" : "Simulation Input Configurator",
      "labelTranslations" : null,
      "lookupTableId" : null,
      "name" : "SimulationInputConfigurator",
      "parameterConfig" : { },
      "parameterGroup" : null,
      "readOnly" : null,
      "required" : null,
      "type" : "INLINECONFIGURATOR",
      "url" : "Configurator_MonthlyAllSimulationInputs",
      "value" : {
        "SimulationName" : null,
        "calculationType" : "AllSimulationInputs"
      },
      "valueHint" : null,
      "valueOptions" : null
    } ]
  },
  "dynamicInputs" : false,
  "hide" : false,
  "label" : "Price Change Simulation (Version 3.1)",
  "labelTranslations" : { },
  "uniqueName" : "PriceChangeSimulationMonthly_V4"
}