{
  "fieldName" : "attribute2",
  "fieldType" : 1,
  "formatType" : "PERCENT",
  "label" : "PurchasePricePercentChange",
  "labelTranslations" : {
    "" : "Purchase Price % Change"
  },
  "requiredField" : false
}