{
  "fieldName" : "attribute3",
  "fieldType" : 1,
  "formatType" : "PERCENT",
  "label" : "QuantityPercentChange",
  "labelTranslations" : {
    "" : "Quantity % Change"
  },
  "requiredField" : false
}