{
  "aggregation" : false,
  "auxiliary" : false,
  "calculated" : true,
  "deleted" : false,
  "deployed" : false,
  "dimension" : false,
  "expression" : "ShouldHaveBeenRevenue * 0.7",
  "key" : false,
  "label" : "SHB Revenue -30%",
  "labelTranslations" : { },
  "numeric" : true,
  "partitioningKey" : false,
  "persisted" : false,
  "queryable" : true,
  "system" : false,
  "time" : false,
  "type" : "MONEY",
  "visibility" : 1
}