{
  "groups" : [ "Admin" ],
  "label" : "Admin",
  "roles" : [ "ADMIN", "I18NADMIN", "PB_CALCULATEDFIELDSETS", "PB_FORMULAS", "PB_PARAMETERS", "PB_PRICEGRIDS", "PB_PRODUCTEDITOR_EC", "PB_PRODUCTS", "PB_SIMULATION", "USERADMIN", "USERAUDIT", "WF_ADMIN", "WF_BUILDER" ],
  "uniqueName" : "Admin"
}