{
  "folder" : "Simulation",
  "hideWarnings" : false,
  "isPlasma" : false,
  "label" : "Simulation Precalculated Summary",
  "status" : "ACTIVE",
  "type" : "MATRIX",
  "uniqueName" : "Simulation_Precalculated_Summary",
  "validAfter" : "2018-01-01",
  "valueType" : "MATRIX"
}