{
  "areDefault" : true,
  "areGlobal" : true,
  "filter" : { },
  "preferenceName" : "MLRecToAWCPG_AllCustPotGroup",
  "viewState" : "({\"field\":[{\"name\":\"Customer_Name\",\"autoFitWidth\":false,\"width\":605},{\"name\":\"Verkaufsbuero\",\"autoFitWidth\":false,\"width\":93},{\"name\":\"Branche_Category\",\"autoFitWidth\":false,\"width\":111},{\"name\":\"Umsatz_2016\",\"autoFitWidth\":false,\"width\":87},{\"name\":\"Umsatz_2017\",\"autoFitWidth\":false,\"width\":87},{\"name\":\"Umsatz_2018\",\"autoFitWidth\":false,\"width\":87},{\"name\":\"Umsatz_2019\",\"autoFitWidth\":false,\"width\":87},{\"name\":\"Umsatz_2020\",\"autoFitWidth\":false,\"width\":87},{\"name\":\"CAGR\",\"visible\":false,\"autoFitWidth\":false,\"width\":54},{\"name\":\"Customer_Contribution_to_Hafelle_Umsatz(_)\",\"visible\":false,\"autoFitWidth\":false,\"width\":240},{\"name\":\"Current_Potential_Group\",\"autoFitWidth\":false,\"width\":139},{\"name\":\"Recommended_Potential_Group\",\"autoFitWidth\":false,\"width\":177}],\"pricefx_columnLabels\":null})"
}