{
  "actionUUID" : "CalculationTask-QYx8a",
  "calculationConfig" : {
    "feederInputParams" : [ ],
    "formulaName" : "ResetSalesType",
    "inputParams" : [ ],
    "mappingParams" : [ ],
    "outputElements" : [ {
      "displayedInPriceShop" : true,
      "elementGroups" : [ "row" ],
      "elementLabel" : "SalesType",
      "elementName" : "SalesType",
      "formulaDate" : "2018-08-01",
      "formulaName" : "ResetSalesType",
      "key" : false,
      "selected" : true
    } ],
    "targetDate" : "2019-08-29"
  },
  "continuous" : false,
  "distributed" : false,
  "dtoFilter" : {
    "_constructor" : "AdvancedCriteria",
    "criteria" : [ {
      "fieldName" : "SalesOffice",
      "operator" : "iNotContains",
      "value" : "DE"
    }, {
      "fieldName" : "InvoiceDate",
      "operator" : "greaterOrEqual",
      "value" : "2019-07-01"
    }, {
      "fieldName" : "SalesType",
      "operator" : "notNull"
    } ],
    "operator" : "and"
  },
  "incLoadDate" : "2019-08-29T16:07:27",
  "incremental" : true,
  "isDefault" : false,
  "isPlasma" : false,
  "label" : "[UpgradeTask] FixSalesType",
  "targetDate" : "2019-08-29",
  "targetName" : "DMDS.Transactions",
  "type" : "CALCULATION",
  "valid" : true,
  "withTargetSnapshot" : false
}