{
  "areDefault" : true,
  "areGlobal" : true,
  "filter" : {
    "_constructor" : "AdvancedCriteria",
    "fieldName" : "category",
    "operator" : "equals",
    "value" : "Published"
  },
  "preferenceName" : "Default",
  "viewState" : "({\"field\":[{\"name\":\"typedId\",\"visible\":false},{\"name\":\"uniqueName\",\"visible\":false},{\"name\":\"label\",\"autoFitWidth\":false,\"width\":329},{\"name\":\"targetDate\",\"autoFitWidth\":true,\"width\":94},{\"name\":\"relativeTargetDateDays\"},{\"name\":\"hide\",\"autoFitWidth\":true,\"width\":30},{\"name\":\"category\"},{\"name\":\"dynamicInputs\",\"autoFitWidth\":true,\"width\":83},{\"name\":\"userGroupEdit\"},{\"name\":\"userGroupViewDetails\"}],\"sort\":{\"fieldName\":\"label\",\"sortDir\":\"ascending\",\"sortSpecifiers\":[{\"property\":\"label\",\"direction\":\"ascending\"}]},\"pricefx_columnLabels\":null})"
}