{
  "actionUUID" : "DataFeedFlushTask-fYO0U",
  "calculationConfig" : {
    "feederInputParams" : [ ],
    "inputParams" : [ ],
    "mappingParams" : [ ],
    "outputElements" : [ ],
    "targetDate" : "2018-04-05"
  },
  "continuous" : false,
  "distributed" : false,
  "dtoSourceFilter" : {
    "_constructor" : "AdvancedCriteria",
    "criteria" : [ {
      "_constructor" : "AdvancedCriteria",
      "fieldName" : "lastUpdateDate",
      "operator" : "greaterThan",
      "value" : "2018-05-23T03:00:00.000"
    } ],
    "operator" : "and"
  },
  "incLoadDate" : "2021-05-21T09:05:22",
  "incremental" : false,
  "isDefault" : true,
  "isPlasma" : false,
  "label" : "Sales History",
  "sourceName" : "DMF.SalesHistory2",
  "targetDate" : "2018-04-05",
  "targetName" : "DMDS.SalesHistory2",
  "type" : "DS_FLUSH",
  "valid" : true,
  "withTargetSnapshot" : false
}