{
  "auxiliary" : false,
  "deployed" : true,
  "fields" : [ "Belegtyp", "CRM_PACIS_Nr", "CustomerID", "DB", "DB1", "Datum", "Davon_Kopfrabatt", "EK_Wert", "Faktura_Belegnummer", "Faktura_Pos", "Kunden_Bestellart", "Menge", "Name", "Sku", "Umsatz", "isDeleted", "lastUpdateDate" ],
  "isPlasma" : false,
  "label" : "TX_New",
  "loadableFields" : [ "Name", "Faktura_Belegnummer", "Faktura_Pos", "Datum", "Belegtyp", "Kunden_Bestellart", "CRM_PACIS_Nr", "Menge", "Umsatz", "EK_Wert", "DB", "DB1", "CustomerID", "Sku", "Davon_Kopfrabatt", "isDeleted", "lastUpdateDate" ],
  "locked" : false,
  "queryable" : true,
  "type" : "DATASOURCE",
  "uniqueName" : "TX_New",
  "valid" : true,
  "view" : false
}