{
  "aggregation" : false,
  "auxiliary" : false,
  "calculated" : false,
  "deleted" : false,
  "deployed" : true,
  "dimension" : true,
  "expression" : "CustomerId",
  "key" : false,
  "label" : "Customer Id",
  "labelTranslations" : { },
  "numeric" : false,
  "owningFC" : "Price Change Simulation 2020 V1",
  "partitioningKey" : false,
  "persisted" : true,
  "queryable" : true,
  "source" : "DMDS.PriceChangeSimulation_2020_V1",
  "system" : false,
  "time" : false,
  "type" : "TEXT",
  "visibility" : 1
}