{
  "hideWarnings" : false,
  "isPlasma" : false,
  "label" : "TopCo Produkte",
  "status" : "ACTIVE",
  "type" : "SIMPLE",
  "uniqueName" : "TopCoProducts",
  "validAfter" : "2018-09-01",
  "valueType" : "STRING"
}