{
  "elements" : [ {
    "allowOverride" : false,
    "combinationType" : "FUNCTION",
    "displayOptions" : 16,
    "elementGroups" : [ ],
    "elementName" : "Run",
    "elementTimeout" : 0,
    "hideWarnings" : false,
    "protectedExpression" : false
  } ],
  "formulaNature" : "calculationFlow",
  "inputDescriptors" : [ ],
  "label" : "Run \"Products Article Number length\" CFS",
  "status" : "ACTIVE",
  "uniqueName" : "CFF_RunProductSkuLengthCFS",
  "validAfter" : "2018-07-01"
}