{
  "chartDefinition" : {
    "auxLines" : [ ],
    "chartType" : "BAR",
    "dictionary" : "[{\"sectionIdx\":1,\"category\":\"PROJECTION\",\"key\":\"x\",\"sectionLabel\":\"Series1\",\"categoryLabel\":\"Projection\",\"keyLabel\":\"Axis X\",\"defaultValue\":\"SM\"},{\"sectionIdx\":1,\"category\":\"PROJECTION\",\"key\":\"y\",\"sectionLabel\":\"Series1\",\"categoryLabel\":\"Projection\",\"keyLabel\":\"Axis Y\",\"defaultValue\":\"∑Summe_DB\"},{\"sectionIdx\":1,\"category\":\"PROJECTION\",\"key\":\"bplot_y\",\"sectionLabel\":\"Series1\",\"categoryLabel\":\"Projection\",\"keyLabel\":\"Axis Y (Box plot)\",\"defaultValue\":\"Summe_DB\"},{\"sectionIdx\":2,\"category\":\"PROJECTION\",\"key\":\"x\",\"sectionLabel\":\"Series2\",\"categoryLabel\":\"Projection\",\"keyLabel\":\"Axis X\",\"defaultValue\":\"SM\"},{\"sectionIdx\":2,\"category\":\"PROJECTION\",\"key\":\"y\",\"sectionLabel\":\"Series2\",\"categoryLabel\":\"Projection\",\"keyLabel\":\"Axis Y\",\"defaultValue\":\"∑SIM_DB\"},{\"sectionIdx\":2,\"category\":\"PROJECTION\",\"key\":\"bplot_y\",\"sectionLabel\":\"Series2\",\"categoryLabel\":\"Projection\",\"keyLabel\":\"Axis Y (Box plot)\",\"defaultValue\":\"SIM_DB\"}]",
    "options" : "{\r    \"title\":\"\", \r    \"subtitle\":\"\", \r    \"comparison\":true, \r    \"hideLegend\":false, \r    \"hideTooltips\":false, \r    \"xLabel\":\"\", \r    \"yLabel\":\"\", \r    \"comparisonType\":\"GROUPED\", \r    \"maxPoints\":\"0\", \r    \"showZAxis\":\"false\", \r    \"zAxisLabel\":\"Other\", \r    \"bplotLabel\":\"Box plot\"\r}",
    "series" : [ "{\r    \"datamart\":\"S000454.DMKonditionen2014All\", \r    \"label\":\"Series1\", \r    \"hideDataLabels\":true, \r    \"lineLevelFilter\":{\r        \"operator\":\"and\", \r        \"criteria\":[\r            {\r                \"fieldName\":\"Country_Index\", \r                \"operator\":\"notEqual\", \r                \"value\":\"NOCOUNTRY\"\r            }, \r            {\r                \"fieldName\":\"C2_ReadyForSim\", \r                \"operator\":\"equals\", \r                \"value\":\"Yes\"\r            }, \r            {\r                \"fieldName\":\"Anzahl_Transaktionen\", \r                \"operator\":\"greaterOrEqual\", \r                \"value\":6\r            }, \r            {\r                \"_constructor\":\"AdvancedCriteria\", \r                \"operator\":\"or\", \r                \"criteria\":[\r                    {\r                        \"fieldName\":\"Kunde_Klasse\", \r                        \"operator\":\"equals\", \r                        \"value\":\"R1\"\r                    }, \r                    {\r                        \"fieldName\":\"Kunde_Klasse\", \r                        \"operator\":\"equals\", \r                        \"value\":\"R2\"\r                    }\r                ]\r            }\r        ]\r    }, \r    \"filterTooltip\":\"Country_Index is not equal to NOCOUNTRY and Ready for Simulation is equal to Yes and Anzahl_Transaktionen is greater than or equal to 6 and (Kunde_Klasse is equal to R1 or Kunde_Klasse is equal to R2)\", \r    \"currency\":\"EUR\", \r    \"calculatedFieldFormulaControllerState\":{\r        \"rowLimit\":{\r            \"aggregationFormula\":\"SUM\"\r        }, \r        \"y\":{\r            \"aggregationFormula\":\"SUM\"\r        }\r    }, \r    \"calculatedFieldNonAggrFormulaControllerState\":{\r        \"bplot_y\":{\r            \"nonAggregationFormula\":\"FIELD\"\r        }\r    }, \r    \"x\":\"SM\", \r    \"y\":\"Summe_DB\", \r    \"bplot_y\":\"Summe_DB\", \r    \"rowLimit\":{\r    }, \r    \"additionalMeasures\":[\r    ], \r    \"seriesType\":\"BAR\", \r    \"sortBy\":\"x\", \r    \"sortByDir\":{\r        \"sortBy\":{\r            \"specifier\":\"ascending\", \r            \"displayValue\":null\r        }\r    }, \r    \"whiskerType\":\"MIN_MAX\", \r    \"showBoxplot\":\"false\", \r    \"formulaParams\":{\r        \"formulaName\":null, \r        \"targetDate\":\"2015-09-14\", \r        \"targetDateField\":null, \r        \"inputParams\":[\r        ], \r        \"mappingParams\":[\r        ], \r        \"outputElements\":[\r        ], \r        \"feederFormulaName\":null, \r        \"feederInputParams\":[\r        ]\r    }\r}", "{\r    \"datamart\":\"S000454.DMKonditionen2014All\", \r    \"label\":\"Series2\", \r    \"hideDataLabels\":true, \r    \"lineLevelFilter\":{\r        \"operator\":\"and\", \r        \"criteria\":[\r            {\r                \"fieldName\":\"Country_Index\", \r                \"operator\":\"notEqual\", \r                \"value\":\"NOCOUNTRY\"\r            }, \r            {\r                \"fieldName\":\"C2_ReadyForSim\", \r                \"operator\":\"equals\", \r                \"value\":\"Yes\"\r            }, \r            {\r                \"fieldName\":\"Anzahl_Transaktionen\", \r                \"operator\":\"greaterOrEqual\", \r                \"value\":6\r            }, \r            {\r                \"_constructor\":\"AdvancedCriteria\", \r                \"operator\":\"or\", \r                \"criteria\":[\r                    {\r                        \"fieldName\":\"Kunde_Klasse\", \r                        \"operator\":\"equals\", \r                        \"value\":\"R1\"\r                    }, \r                    {\r                        \"fieldName\":\"Kunde_Klasse\", \r                        \"operator\":\"equals\", \r                        \"value\":\"R2\"\r                    }\r                ]\r            }\r        ]\r    }, \r    \"filterTooltip\":\"Country_Index is not equal to NOCOUNTRY and Ready for Simulation is equal to Yes and Anzahl_Transaktionen is greater than or equal to 6 and (Kunde_Klasse is equal to R1 or Kunde_Klasse is equal to R2)\", \r    \"currency\":\"EUR\", \r    \"calculatedFieldFormulaControllerState\":{\r        \"rowLimit\":{\r            \"aggregationFormula\":\"SUM\"\r        }, \r        \"y\":{\r            \"aggregationFormula\":\"SUM\"\r        }\r    }, \r    \"calculatedFieldNonAggrFormulaControllerState\":{\r        \"bplot_y\":{\r            \"nonAggregationFormula\":\"FIELD\"\r        }\r    }, \r    \"x\":\"SM\", \r    \"y\":\"C1_SIM_DB\", \r    \"bplot_y\":\"C1_SIM_DB\", \r    \"rowLimit\":{\r    }, \r    \"additionalMeasures\":[\r    ], \r    \"seriesType\":\"BAR\", \r    \"sortBy\":\"x\", \r    \"sortByDir\":{\r        \"sortBy\":{\r            \"specifier\":\"ascending\", \r            \"displayValue\":null\r        }\r    }, \r    \"whiskerType\":\"MIN_MAX\", \r    \"showBoxplot\":\"false\", \r    \"formulaParams\":{\r        \"formulaName\":null, \r        \"targetDate\":\"2015-09-14\", \r        \"targetDateField\":null, \r        \"inputParams\":[\r        ], \r        \"mappingParams\":[\r        ], \r        \"outputElements\":[\r        ], \r        \"feederFormulaName\":null, \r        \"feederInputParams\":[\r        ]\r    }\r}" ]
  },
  "chartType" : "BAR",
  "createdByName" : "alex",
  "label" : "AW_LF_DB Diff nur Fokusprodukte",
  "uniqueName" : "alex__1442205303840"
}