{
  "chartDefinition" : {
    "auxLines" : [ "{\r    \"color\":\"#AA4643\", \r    \"type\":\"LINE\", \r    \"title\":\"VK Alt\", \r    \"showInLegend\":true, \r    \"hideDataLabels\":true, \r    \"steepness\":\"0\", \r    \"xCut\":\"0\", \r    \"yCut\":\"4.94 \", \r    \"records\":[\r    ]\r}" ],
    "chartType" : "SCATTER",
    "dictionary" : "[{\"sectionIdx\":1,\"category\":\"PROJECTION\",\"key\":\"groupBy\",\"sectionLabel\":\"Series1\",\"categoryLabel\":\"Projektion\",\"keyLabel\":\"Aggregieren über\",\"defaultValue\":\"CustomerID\"},{\"sectionIdx\":1,\"category\":\"PROJECTION\",\"key\":\"bandBy\",\"sectionLabel\":\"Series1\",\"categoryLabel\":\"Projektion\",\"keyLabel\":\"Band By\",\"defaultValue\":\"Customer Name\"},{\"sectionIdx\":1,\"category\":\"PROJECTION\",\"key\":\"x\",\"sectionLabel\":\"Series1\",\"categoryLabel\":\"Projektion\",\"keyLabel\":\"X-Achse\",\"defaultValue\":\"∑Umsatz\"},{\"sectionIdx\":1,\"category\":\"PROJECTION\",\"key\":\"y\",\"sectionLabel\":\"Series1\",\"categoryLabel\":\"Projektion\",\"keyLabel\":\"Y-Achse\",\"defaultValue\":\"∑Umsatz/∑Menge\"},{\"sectionIdx\":1,\"category\":\"AUX_LINE\",\"key\":\"AuxLine1\",\"sectionLabel\":\"VK Alt\",\"categoryLabel\":\"Hilfslinie\",\"keyLabel\":\"AuxLine1\",\"defaultValue\":\"VK Alt\"}]",
    "options" : "{\r    \"title\":\"\", \r    \"subtitle\":\"\", \r    \"comparison\":false, \r    \"hideLegend\":false, \r    \"hideTooltips\":false, \r    \"xLabel\":\"\", \r    \"yLabel\":\"\", \r    \"xMin\":null, \r    \"xMax\":null, \r    \"yMin\":null, \r    \"yMax\":null\r}",
    "series" : [ "{\r    \"datamart\":\"S000378.TX_DM\", \r    \"label\":\"Series1\", \r    \"hideDataLabels\":true, \r    \"lineLevelFilter\":{\r        \"operator\":\"and\", \r        \"criteria\":[\r            {\r                \"fieldName\":\"Kunden_Handelspartner\", \r                \"operator\":\"equals\", \r                \"value\":\"-EXTERN-\"\r            }\r        ]\r    }, \r    \"filterTooltip\":\"Kunden_Handelspartner is equal to -EXTERN-\", \r    \"dimFilters\":[\r        {\r            \"fieldName\":\"Sku\", \r            \"fieldValue\":\"342.42.660\", \r            \"fieldSynced\":false\r        }\r    ], \r    \"currency\":\"EUR\", \r    \"calculatedFieldFormulaControllerState\":{\r        \"x\":{\r            \"aggregationFormula\":\"SUM\"\r        }, \r        \"y\":{\r            \"aggregationFormula\":\"PERUNIT\"\r        }\r    }, \r    \"calculatedFieldNonAggrFormulaControllerState\":{\r    }, \r    \"x\":\"Umsatz\", \r    \"y\":\"Umsatz\", \r    \"groupBy\":\"CustomerID\", \r    \"bandBy\":\"CustomerName\", \r    \"additionalMeasures\":[\r    ], \r    \"linearTrendLineLabel\":\"Series1 - Trend line\", \r    \"trendLineType\":\"linear\", \r    \"showLinearTrendLineInLegend\":\"true\", \r    \"linearTrendLineHideDataLabels\":\"true\", \r    \"linearTrendLineColor\":\"#AA4643\", \r    \"showBandByLegend\":\"true\", \r    \"showLinearTrendLine\":\"false\", \r    \"formulaParams\":{\r        \"formulaName\":null, \r        \"targetDate\":\"2015-09-16\", \r        \"targetDateField\":null, \r        \"skuField\":null, \r        \"simulationSet\":null, \r        \"inputParams\":[\r        ], \r        \"mappingParams\":[\r        ], \r        \"outputElements\":[\r        ], \r        \"feederFormulaName\":null, \r        \"feederInputParams\":[\r        ]\r    }\r}" ]
  },
  "chartType" : "SCATTER",
  "createdByName" : "alex",
  "label" : "AW_Rabattwolke und VK-Linie",
  "uniqueName" : "alex__1442356437528",
  "visibility" : "PUBLIC"
}