{
  "chartDefinition" : {
    "auxLines" : [ ],
    "chartType" : "DATATABLE",
    "dictionary" : "[{\"sectionIdx\":1,\"category\":\"PROJECTION\",\"key\":\"Kunde_Klasse\",\"sectionLabel\":\"Series1\",\"categoryLabel\":\"Projektion\",\"keyLabel\":\"Kunde Klasse\",\"defaultValue\":\"Kunde Klasse\"},{\"sectionIdx\":1,\"category\":\"PROJECTION\",\"key\":\"m1\",\"sectionLabel\":\"Series1\",\"categoryLabel\":\"Projektion\",\"keyLabel\":\"Messwert 1\",\"defaultValue\":\"∑Summe_Umsatz_vorKopfrabatt\"},{\"sectionIdx\":1,\"category\":\"PROJECTION\",\"key\":\"m2\",\"sectionLabel\":\"Series1\",\"categoryLabel\":\"Projektion\",\"keyLabel\":\"Messwert 2\",\"defaultValue\":\"∑SIM_Umsatz\"},{\"sectionIdx\":1,\"category\":\"PROJECTION\",\"key\":\"m3\",\"sectionLabel\":\"Series1\",\"categoryLabel\":\"Projektion\",\"keyLabel\":\"Messwert 3\",\"defaultValue\":\"∑Differential Umsatz (Sim-historic) in Sum\"},{\"sectionIdx\":1,\"category\":\"PROJECTION\",\"key\":\"m4\",\"sectionLabel\":\"Series1\",\"categoryLabel\":\"Projektion\",\"keyLabel\":\"Messwert 4\",\"defaultValue\":\"∑Summe Menge\"},{\"sectionIdx\":1,\"category\":\"PROJECTION\",\"key\":\"m5\",\"sectionLabel\":\"Series1\",\"categoryLabel\":\"Projektion\",\"keyLabel\":\"Messwert 5\",\"defaultValue\":\"Nettopreis alt\"},{\"sectionIdx\":1,\"category\":\"PROJECTION\",\"key\":\"m6\",\"sectionLabel\":\"Series1\",\"categoryLabel\":\"Projektion\",\"keyLabel\":\"Messwert 6\",\"defaultValue\":\"Nettopreis neu\"},{\"sectionIdx\":1,\"category\":\"PROJECTION\",\"key\":\"m7\",\"sectionLabel\":\"Series1\",\"categoryLabel\":\"Projektion\",\"keyLabel\":\"Messwert 7\",\"defaultValue\":\"Grundpreis neu\"},{\"sectionIdx\":1,\"category\":\"PROJECTION\",\"key\":\"ProductLabel\",\"sectionLabel\":\"Series1\",\"categoryLabel\":\"Projektion\",\"keyLabel\":\"Product Label\",\"defaultValue\":\"Product Label\"},{\"sectionIdx\":1,\"category\":\"PROJECTION\",\"key\":\"Sku\",\"sectionLabel\":\"Series1\",\"categoryLabel\":\"Projektion\",\"keyLabel\":\"Sku\",\"defaultValue\":\"Sku\"},{\"sectionIdx\":1,\"category\":\"PROJECTION\",\"key\":\"SM\",\"sectionLabel\":\"Series1\",\"categoryLabel\":\"Projektion\",\"keyLabel\":\"SM\",\"defaultValue\":\"SM\"},{\"sectionIdx\":1,\"category\":\"PROJECTION\",\"key\":\"Verkaufsbereich3\",\"sectionLabel\":\"Series1\",\"categoryLabel\":\"Projektion\",\"keyLabel\":\"Verkaufsbereich3\",\"defaultValue\":\"Verkaufsbereich3\"}]",
    "dynamicFCsWidget" : "{\n}",
    "options" : "{\n}",
    "series" : [ "{\n    \"datamart\":\"DMSIM.DM2016_v10_20\", \n    \"label\":\"Series1\", \n    \"hideDataLabels\":true, \n    \"lineLevelFilter\":{\n        \"_constructor\":\"AdvancedCriteria\", \n        \"operator\":\"and\", \n        \"criteria\":[\n            {\n                \"fieldName\":\"C2_ReadyForSim\", \n                \"operator\":\"equals\", \n                \"value\":\"Yes\"\n            }, \n            {\n                \"fieldName\":\"Inland_Ausland\", \n                \"operator\":\"equals\", \n                \"value\":\"Inland\"\n            }, \n            {\n                \"fieldName\":\"Verkaufsbereich3\", \n                \"operator\":\"notEqual\", \n                \"value\":\"Bozen\"\n            }\n        ]\n    }, \n    \"filterTooltip\":\"Ready for Simulation is equal to Yes and Inland_Ausland is equal to Inland and Verkaufsbereich3 is not equal to Bozen\", \n    \"dimFilters\":[\n        {\n            \"fieldName\":\"Inland_Ausland\", \n            \"fieldValue\":\"Inland\", \n            \"fieldSynced\":false\n        }, \n        {\n            \"fieldName\":\"Sku\", \n            \"fieldValue\":\"503.76.314\", \n            \"fieldSynced\":false\n        }\n    ], \n    \"currency\":\"EUR\", \n    \"calculatedFieldFormulaControllerState\":{\n        \"aggrFormula\":{\n            \"specifier\":\"FUNCTION\", \n            \"displayValue\":\"Grundpreis neu\", \n            \"value\":{\n                \"alias\":null, \n                \"name\":null, \n                \"expression\":\"Avg(C1_PreislistPreis)\", \n                \"function\":null, \n                \"default\":null, \n                \"label\":\"Grundpreis neu\", \n                \"formatString\":\"Grundpreis neu\", \n                \"parameters\":{\n                }\n            }\n        }\n    }, \n    \"calculatedFieldNonAggrFormulaControllerState\":{\n    }, \n    \"additionalMeasures\":[\n        {\n            \"aggrFormula\":\"SUM\", \n            \"name\":\"Summe_Umsatz_vorKopfrabatt\", \n            \"id\":1, \n            \"aggrFormula_value\":{\n                \"specifier\":\"SUM\", \n                \"displayValue\":\"∑{field}\", \n                \"value\":{\n                    \"alias\":null, \n                    \"name\":null, \n                    \"expression\":\"SUM({field})\", \n                    \"function\":null, \n                    \"default\":null, \n                    \"label\":\"∑{field}\", \n                    \"formatString\":\"∑{field}\", \n                    \"parameters\":{\n                    }\n                }\n            }, \n            \"aggrFormula_display\":\"∑{field}\", \n            \"isSelected\":false\n        }, \n        {\n            \"aggrFormula\":\"SUM\", \n            \"name\":\"C1_SIM_Umsatz\", \n            \"id\":2, \n            \"aggrFormula_value\":{\n                \"specifier\":\"SUM\", \n                \"displayValue\":\"∑{field}\", \n                \"value\":{\n                    \"alias\":null, \n                    \"name\":null, \n                    \"expression\":\"SUM({field})\", \n                    \"function\":null, \n                    \"default\":null, \n                    \"label\":\"∑{field}\", \n                    \"formatString\":\"∑{field}\", \n                    \"parameters\":{\n                    }\n                }\n            }, \n            \"aggrFormula_display\":\"∑{field}\", \n            \"isSelected\":false\n        }, \n        {\n            \"aggrFormula\":\"SUM\", \n            \"name\":\"C1_Umsatz_Diff\", \n            \"id\":3, \n            \"aggrFormula_value\":{\n                \"specifier\":\"SUM\", \n                \"displayValue\":\"∑{field}\", \n                \"value\":{\n                    \"alias\":null, \n                    \"name\":null, \n                    \"expression\":\"SUM({field})\", \n                    \"function\":null, \n                    \"default\":null, \n                    \"label\":\"∑{field}\", \n                    \"formatString\":\"∑{field}\", \n                    \"parameters\":{\n                    }\n                }\n            }, \n            \"aggrFormula_display\":\"∑{field}\", \n            \"isSelected\":false\n        }, \n        {\n            \"aggrFormula\":\"SUM\", \n            \"name\":\"Summe_Menge\", \n            \"id\":4, \n            \"aggrFormula_value\":{\n                \"specifier\":\"SUM\", \n                \"displayValue\":\"∑{field}\", \n                \"value\":{\n                    \"alias\":null, \n                    \"name\":null, \n                    \"expression\":\"SUM({field})\", \n                    \"function\":null, \n                    \"default\":null, \n                    \"label\":\"∑{field}\", \n                    \"formatString\":\"∑{field}\", \n                    \"parameters\":{\n                    }\n                }\n            }, \n            \"aggrFormula_display\":\"∑{field}\", \n            \"isSelected\":false\n        }, \n        {\n            \"aggrFormula\":\"FUNCTION\", \n            \"name\":\"Durchschnittpreis_vorKopfrabatt\", \n            \"id\":5, \n            \"aggrFormula_value\":{\n                \"specifier\":\"FUNCTION\", \n                \"displayValue\":\"Nettopreis alt\", \n                \"value\":{\n                    \"alias\":null, \n                    \"name\":null, \n                    \"expression\":\"Avg(Durchschnittpreis_vorKopfrabatt)\", \n                    \"function\":null, \n                    \"default\":null, \n                    \"label\":\"Nettopreis alt\", \n                    \"formatString\":\"Nettopreis alt\", \n                    \"parameters\":{\n                    }\n                }\n            }, \n            \"aggrFormula_display\":\"Nettopreis alt\", \n            \"isSelected\":false\n        }, \n        {\n            \"aggrFormula\":\"FUNCTION\", \n            \"name\":\"C1_NetPreis\", \n            \"id\":6, \n            \"aggrFormula_value\":{\n                \"specifier\":\"FUNCTION\", \n                \"displayValue\":\"Nettopreis neu\", \n                \"value\":{\n                    \"alias\":null, \n                    \"name\":null, \n                    \"expression\":\"Avg(C1_NetPreis)\", \n                    \"function\":null, \n                    \"default\":null, \n                    \"label\":\"Nettopreis neu\", \n                    \"formatString\":\"Nettopreis neu\", \n                    \"parameters\":{\n                    }\n                }\n            }, \n            \"aggrFormula_display\":\"Nettopreis neu\", \n            \"isSelected\":false\n        }, \n        {\n            \"aggrFormula\":\"FUNCTION\", \n            \"name\":\"C1_PreislistPreis\", \n            \"id\":7, \n            \"aggrFormula_value\":{\n                \"specifier\":\"FUNCTION\", \n                \"displayValue\":\"Grundpreis neu\", \n                \"value\":{\n                    \"alias\":null, \n                    \"name\":null, \n                    \"expression\":\"Avg(C1_PreislistPreis)\", \n                    \"function\":null, \n                    \"default\":null, \n                    \"label\":\"Grundpreis neu\", \n                    \"formatString\":\"Grundpreis neu\", \n                    \"parameters\":{\n                    }\n                }\n            }, \n            \"aggrFormula_display\":\"Grundpreis neu\", \n            \"isSelected\":true\n        }\n    ], \n    \"groupByDims\":[\n        \"Sku\", \n        \"ProductLabel\", \n        \"SM\", \n        \"Verkaufsbereich3\", \n        \"Kunde_Klasse\"\n    ], \n    \"formulaParams\":{\n        \"formulaName\":null, \n        \"targetDate\":\"2016-12-05\", \n        \"targetDateField\":null, \n        \"skuField\":null, \n        \"simulationSet\":null, \n        \"inputParams\":[\n        ], \n        \"mappingParams\":[\n        ], \n        \"outputElements\":[\n        ], \n        \"feederFormulaName\":null, \n        \"feederInputParams\":[\n        ]\n    }, \n    \"seriesGridPreferences\":{\n        \"typedId\":null, \n        \"version\":null, \n        \"preferenceType\":null, \n        \"preferenceName\":null, \n        \"areGlobal\":true, \n        \"areDefault\":true, \n        \"viewState\":\"({field:[{name:\\\"groupBy1\\\"},{name:\\\"groupBy2\\\"},{name:\\\"groupBy3\\\"},{name:\\\"groupBy4\\\"},{name:\\\"groupBy5\\\"},{name:\\\"m1\\\"},{name:\\\"m2\\\"},{name:\\\"m3\\\"},{name:\\\"m4\\\"},{name:\\\"m5\\\"},{name:\\\"m6\\\"},{name:\\\"m7\\\"}],group:[{fieldName:\\\"groupBy1\\\",groupingMode:null,groupGranularity:null,groupPrecision:null},{fieldName:\\\"groupBy2\\\",groupingMode:null,groupGranularity:null,groupPrecision:null},{fieldName:\\\"groupBy3\\\",groupingMode:null,groupGranularity:null,groupPrecision:null},{fieldName:\\\"groupBy4\\\",groupingMode:null,groupGranularity:null,groupPrecision:null}]})\", \n        \"filter\":null, \n        \"columnLabels\":null\n    }\n}" ]
  },
  "chartType" : "DATATABLE",
  "createdByName" : "hde9820",
  "description" : "Durchschnittspreise pro VB 23.05.2017 Grundpreise inklusive Preiserhöhung und ohne Clearing Rabatte",
  "externalChartDefinition" : {
    "highchart" : null,
    "queryDTOs" : [ {
      "aggregateFilter" : null,
      "datamart" : "DMSIM.DM2016_v10_20",
      "filter" : {
        "_constructor" : "AdvancedCriteria",
        "criteria" : [ {
          "fieldName" : "C2_ReadyForSim",
          "operator" : "equals",
          "value" : "Yes"
        }, {
          "fieldName" : "Inland_Ausland",
          "operator" : "equals",
          "value" : "Inland"
        }, {
          "fieldName" : "Verkaufsbereich3",
          "operator" : "notEqual",
          "value" : "Bozen"
        } ],
        "operator" : "and"
      },
      "label" : "Series1",
      "name" : null,
      "options" : {
        "currency" : "EUR"
      },
      "projections" : {
        "groupBy1" : "Sku",
        "groupBy2" : "ProductLabel",
        "groupBy3" : "SM",
        "groupBy4" : "Verkaufsbereich3",
        "groupBy5" : "Kunde_Klasse",
        "m1" : {
          "alias" : "m1",
          "default" : null,
          "expression" : "SUM({field})",
          "formatString" : "∑{field}",
          "function" : null,
          "label" : "∑Summe_Umsatz_vorKopfrabatt",
          "name" : "Summe_Umsatz_vorKopfrabatt",
          "parameters" : {
            "field" : "Summe_Umsatz_vorKopfrabatt"
          }
        },
        "m2" : {
          "alias" : "m2",
          "default" : null,
          "expression" : "SUM({field})",
          "formatString" : "∑{field}",
          "function" : null,
          "label" : "∑SIM_Umsatz",
          "name" : "C1_SIM_Umsatz",
          "parameters" : {
            "field" : "C1_SIM_Umsatz"
          }
        },
        "m3" : {
          "alias" : "m3",
          "default" : null,
          "expression" : "SUM({field})",
          "formatString" : "∑{field}",
          "function" : null,
          "label" : "∑Differential Umsatz (Sim-historic) in Sum",
          "name" : "C1_Umsatz_Diff",
          "parameters" : {
            "field" : "C1_Umsatz_Diff"
          }
        },
        "m4" : {
          "alias" : "m4",
          "default" : null,
          "expression" : "SUM({field})",
          "formatString" : "∑{field}",
          "function" : null,
          "label" : "∑Summe Menge",
          "name" : "Summe_Menge",
          "parameters" : {
            "field" : "Summe_Menge"
          }
        },
        "m5" : {
          "alias" : "m5",
          "default" : null,
          "expression" : "Avg(Durchschnittpreis_vorKopfrabatt)",
          "formatString" : "Nettopreis alt",
          "function" : null,
          "label" : "Nettopreis alt",
          "name" : "Durchschnittpreis_vorKopfrabatt",
          "parameters" : {
            "field" : "Durchschnittpreis_vorKopfrabatt"
          }
        },
        "m6" : {
          "alias" : "m6",
          "default" : null,
          "expression" : "Avg(C1_NetPreis)",
          "formatString" : "Nettopreis neu",
          "function" : null,
          "label" : "Nettopreis neu",
          "name" : "C1_NetPreis",
          "parameters" : {
            "field" : "C1_NetPreis"
          }
        },
        "m7" : {
          "alias" : "m7",
          "default" : null,
          "expression" : "Avg(C1_PreislistPreis)",
          "formatString" : "Grundpreis neu",
          "function" : null,
          "label" : "Grundpreis neu",
          "name" : "C1_PreislistPreis",
          "parameters" : {
            "field" : "C1_PreislistPreis"
          }
        }
      },
      "rollup" : true,
      "sortBy" : [ "groupBy1", "groupBy2", "groupBy3", "groupBy4", "groupBy5" ],
      "source" : "DMSIM.DM2016_v10_20"
    } ]
  },
  "label" : "Durchschnittspreise pro VB 23052017",
  "uniqueName" : "hde9820__1496308074790",
  "visibility" : "PUBLIC"
}