{
  "chartDefinition" : {
    "auxLines" : [ ],
    "chartType" : "DATATABLE",
    "dictionary" : "[]",
    "dynamicFCsWidget" : "{\n}",
    "options" : "{\n}",
    "series" : [ "{\n    \"datamart\":\"DMSIM.Pflege_Clearingrabatt_v4\", \n    \"label\":\"Serie1\", \n    \"hideDataLabels\":true, \n    \"lineLevelFilter\":{\n        \"_constructor\":\"AdvancedCriteria\", \n        \"operator\":\"and\", \n        \"criteria\":[\n            {\n                \"fieldName\":\"C2_ReadyForSim\", \n                \"operator\":\"equals\", \n                \"value\":\"Yes\"\n            }, \n            {\n                \"fieldName\":\"Inland_Ausland\", \n                \"operator\":\"equals\", \n                \"value\":\"Inland\"\n            }, \n            {\n                \"fieldName\":\"Anzahl_Transaktionen\", \n                \"operator\":\"greaterThan\", \n                \"value\":1\n            }\n        ]\n    }, \n    \"filterTooltip\":\"Ready for Simulation is equal to Yes and Inland_Ausland is equal to Inland and Anzahl Transaktionen is größer als 1\", \n    \"currency\":\"EUR\", \n    \"calculatedFieldFormulaControllerState\":{\n        \"aggrFormula\":{\n            \"aggregationFormula\":\"SUM\"\n        }\n    }, \n    \"calculatedFieldNonAggrFormulaControllerState\":{\n    }, \n    \"additionalMeasures\":[\n        {\n            \"aggrFormula\":\"SUM\", \n            \"name\":\"Durchschnittpreis_vorKopfrabatt\", \n            \"id\":1, \n            \"aggrFormula_value\":{\n                \"specifier\":\"SUM\", \n                \"displayValue\":\"∑{field}\", \n                \"value\":{\n                    \"alias\":null, \n                    \"name\":null, \n                    \"expression\":\"SUM({field})\", \n                    \"function\":null, \n                    \"default\":null, \n                    \"label\":\"∑{field}\", \n                    \"formatString\":\"∑{field}\", \n                    \"parameters\":{\n                    }\n                }\n            }, \n            \"aggrFormula_display\":\"∑{field}\", \n            \"isSelected\":false\n        }, \n        {\n            \"aggrFormula\":\"SUM\", \n            \"name\":\"Durchschnitt_DB_vorKopfrabatt\", \n            \"id\":2, \n            \"aggrFormula_value\":{\n                \"specifier\":\"SUM\", \n                \"displayValue\":\"∑{field}\", \n                \"value\":{\n                    \"alias\":null, \n                    \"name\":null, \n                    \"expression\":\"SUM({field})\", \n                    \"function\":null, \n                    \"default\":null, \n                    \"label\":\"∑{field}\", \n                    \"formatString\":\"∑{field}\", \n                    \"parameters\":{\n                    }\n                }\n            }, \n            \"aggrFormula_display\":\"∑{field}\", \n            \"isSelected\":false\n        }, \n        {\n            \"aggrFormula\":\"SUM\", \n            \"name\":\"Durchschnitt_EK\", \n            \"id\":3, \n            \"aggrFormula_value\":{\n                \"specifier\":\"SUM\", \n                \"displayValue\":\"∑{field}\", \n                \"value\":{\n                    \"alias\":null, \n                    \"name\":null, \n                    \"expression\":\"SUM({field})\", \n                    \"function\":null, \n                    \"default\":null, \n                    \"label\":\"∑{field}\", \n                    \"formatString\":\"∑{field}\", \n                    \"parameters\":{\n                    }\n                }\n            }, \n            \"aggrFormula_display\":\"∑{field}\", \n            \"isSelected\":true\n        }\n    ], \n    \"groupByDims\":[\n        \"Sku\", \n        \"CustomerID\"\n    ], \n    \"formulaParams\":{\n        \"formulaName\":null, \n        \"targetDate\":\"2017-06-09\", \n        \"targetDateField\":null, \n        \"skuField\":null, \n        \"simulationSet\":null, \n        \"inputParams\":[\n        ], \n        \"mappingParams\":[\n        ], \n        \"outputElements\":[\n        ], \n        \"feederFormulaName\":null, \n        \"feederInputParams\":[\n        ]\n    }, \n    \"seriesGridPreferences\":{\n        \"typedId\":null, \n        \"version\":null, \n        \"preferenceType\":null, \n        \"preferenceName\":null, \n        \"areGlobal\":true, \n        \"areDefault\":true, \n        \"viewState\":null, \n        \"filter\":null, \n        \"columnLabels\":null\n    }\n}" ]
  },
  "chartType" : "DATATABLE",
  "createdByName" : "n.seeger",
  "externalChartDefinition" : {
    "highchart" : null,
    "queryDTOs" : [ {
      "aggregateFilter" : null,
      "datamart" : "DMSIM.Pflege_Clearingrabatt_v4",
      "filter" : {
        "_constructor" : "AdvancedCriteria",
        "criteria" : [ {
          "fieldName" : "C2_ReadyForSim",
          "operator" : "equals",
          "value" : "Yes"
        }, {
          "fieldName" : "Inland_Ausland",
          "operator" : "equals",
          "value" : "Inland"
        }, {
          "fieldName" : "Anzahl_Transaktionen",
          "operator" : "greaterThan",
          "value" : 1
        } ],
        "operator" : "and"
      },
      "label" : "Serie1",
      "name" : null,
      "options" : {
        "currency" : "EUR"
      },
      "projections" : {
        "groupBy1" : "Sku",
        "groupBy2" : "CustomerID",
        "m1" : {
          "alias" : "m1",
          "default" : null,
          "expression" : "SUM({field})",
          "formatString" : "∑{field}",
          "function" : null,
          "label" : "∑Durchschnittpreis_vorKopfrabatt",
          "name" : "Durchschnittpreis_vorKopfrabatt",
          "parameters" : {
            "field" : "Durchschnittpreis_vorKopfrabatt"
          }
        },
        "m2" : {
          "alias" : "m2",
          "default" : null,
          "expression" : "SUM({field})",
          "formatString" : "∑{field}",
          "function" : null,
          "label" : "∑Durchschnitt_DB_vorKopfrabatt",
          "name" : "Durchschnitt_DB_vorKopfrabatt",
          "parameters" : {
            "field" : "Durchschnitt_DB_vorKopfrabatt"
          }
        },
        "m3" : {
          "alias" : "m3",
          "default" : null,
          "expression" : "SUM({field})",
          "formatString" : "∑{field}",
          "function" : null,
          "label" : "∑Durchschnitt_EK",
          "name" : "Durchschnitt_EK",
          "parameters" : {
            "field" : "Durchschnitt_EK"
          }
        }
      },
      "rollup" : true,
      "sortBy" : [ "groupBy1", "groupBy2" ],
      "source" : "DMSIM.Pflege_Clearingrabatt_v4"
    } ]
  },
  "label" : "Clearing Treshold",
  "uniqueName" : "n.seeger__1497008470795",
  "visibility" : "PUBLIC"
}