{
  "chartDefinition" : {
    "auxLines" : [ ],
    "chartType" : "DATATABLE",
    "dictionary" : "[{\"sectionIdx\":1,\"category\":\"PROJECTION\",\"key\":\"CustomerID\",\"sectionLabel\":\"Serie1\",\"categoryLabel\":\"Projektion\",\"keyLabel\":\"CustomerID\",\"defaultValue\":\"CustomerID\"},{\"sectionIdx\":1,\"category\":\"PROJECTION\",\"key\":\"Kunde_Klasse\",\"sectionLabel\":\"Serie1\",\"categoryLabel\":\"Projektion\",\"keyLabel\":\"Kunde Klasse\",\"defaultValue\":\"Kunde Klasse\"},{\"sectionIdx\":1,\"category\":\"PROJECTION\",\"key\":\"m1\",\"sectionLabel\":\"Serie1\",\"categoryLabel\":\"Projektion\",\"keyLabel\":\"Messwert 1\",\"defaultValue\":\"∑Summe Umsatz\"},{\"sectionIdx\":1,\"category\":\"PROJECTION\",\"key\":\"m2\",\"sectionLabel\":\"Serie1\",\"categoryLabel\":\"Projektion\",\"keyLabel\":\"Messwert 2\",\"defaultValue\":\"∑SIM_Umsatz\"},{\"sectionIdx\":1,\"category\":\"PROJECTION\",\"key\":\"m3\",\"sectionLabel\":\"Serie1\",\"categoryLabel\":\"Projektion\",\"keyLabel\":\"Messwert 3\",\"defaultValue\":\"∑Summe_DB\"},{\"sectionIdx\":1,\"category\":\"PROJECTION\",\"key\":\"m4\",\"sectionLabel\":\"Serie1\",\"categoryLabel\":\"Projektion\",\"keyLabel\":\"Messwert 4\",\"defaultValue\":\"∑SIM_DB\"}]",
    "options" : "{\n}",
    "series" : [ "{\n    \"datamart\":\"DMSIM.DM2016_v5\", \n    \"label\":\"Serie1\", \n    \"hideDataLabels\":true, \n    \"lineLevelFilter\":{\n        \"_constructor\":\"AdvancedCriteria\", \n        \"operator\":\"and\", \n        \"criteria\":[\n            {\n                \"fieldName\":\"C2_ReadyForSim\", \n                \"operator\":\"equals\", \n                \"value\":\"Yes\"\n            }, \n            {\n                \"fieldName\":\"Verkaufsbereich3\", \n                \"operator\":\"equals\", \n                \"value\":\"Frankfurt\"\n            }, \n            {\n                \"fieldName\":\"CustomerID\", \n                \"operator\":\"equals\", \n                \"value\":\"0001098291\"\n            }\n        ]\n    }, \n    \"filterTooltip\":\"Ready for Simulation is equal to Yes and Verkaufsbereich3 is equal to Frankfurt and CustomerID is equal to 0001098291\", \n    \"currency\":\"EUR\", \n    \"calculatedFieldFormulaControllerState\":{\n    }, \n    \"calculatedFieldNonAggrFormulaControllerState\":{\n    }, \n    \"additionalMeasures\":[\n        {\n            \"aggrFormula\":\"SUM\", \n            \"name\":\"Summe_Umsatz\", \n            \"id\":1\n        }, \n        {\n            \"aggrFormula\":\"SUM\", \n            \"name\":\"C1_SIM_Umsatz\", \n            \"id\":2\n        }, \n        {\n            \"aggrFormula\":\"SUM\", \n            \"name\":\"Summe_DB\", \n            \"id\":3\n        }, \n        {\n            \"aggrFormula\":\"SUM\", \n            \"name\":\"C1_SIM_DB\", \n            \"id\":4\n        }\n    ], \n    \"groupByDims\":[\n        \"CustomerID\", \n        \"Kunde_Klasse\"\n    ], \n    \"formulaParams\":{\n        \"formulaName\":null, \n        \"targetDate\":\"2016-10-18\", \n        \"targetDateField\":null, \n        \"skuField\":null, \n        \"simulationSet\":null, \n        \"inputParams\":[\n        ], \n        \"mappingParams\":[\n        ], \n        \"outputElements\":[\n        ], \n        \"feederFormulaName\":null, \n        \"feederInputParams\":[\n        ]\n    }, \n    \"seriesGridPreferences\":{\n        \"typedId\":null, \n        \"version\":null, \n        \"preferenceType\":null, \n        \"preferenceName\":null, \n        \"areGlobal\":true, \n        \"areDefault\":true, \n        \"viewState\":\"({field:[{name:\\\"groupBy1\\\"},{name:\\\"groupBy2\\\"},{name:\\\"m1\\\"},{name:\\\"m2\\\"},{name:\\\"m3\\\"},{name:\\\"m4\\\"}],group:[{fieldName:\\\"groupBy1\\\",groupingMode:null,groupGranularity:null,groupPrecision:null}]})\", \n        \"filter\":\"{}\", \n        \"columnLabels\":null\n    }\n}" ]
  },
  "chartType" : "DATATABLE",
  "createdByName" : "n.seeger",
  "label" : "Erwartungswerte",
  "uniqueName" : "n.seeger__1476771612499",
  "visibility" : "PUBLIC"
}