{
  "chartDefinition" : {
    "auxLines" : [ ],
    "chartType" : "BAR",
    "dictionary" : "[{\"sectionIdx\":1,\"category\":\"PROJECTION\",\"key\":\"x\",\"sectionLabel\":\"Serie1\",\"categoryLabel\":\"Projektion\",\"keyLabel\":\"X-Achse\",\"defaultValue\":\"CustomerID\"},{\"sectionIdx\":1,\"category\":\"PROJECTION\",\"key\":\"y\",\"sectionLabel\":\"Serie1\",\"categoryLabel\":\"Projektion\",\"keyLabel\":\"Y-Achse\",\"defaultValue\":\"∑Differential Umsatz (Sim-historic) in Sum\"},{\"sectionIdx\":1,\"category\":\"PROJECTION\",\"key\":\"bplot_y\",\"sectionLabel\":\"Serie1\",\"categoryLabel\":\"Projektion\",\"keyLabel\":\"Y-Achse (Boxplot)\",\"defaultValue\":\"Differential Umsatz (Sim-historic) in Sum\"},{\"sectionIdx\":2,\"category\":\"PROJECTION\",\"key\":\"x\",\"sectionLabel\":\"Serie2\",\"categoryLabel\":\"Projektion\",\"keyLabel\":\"X-Achse\",\"defaultValue\":\"CustomerID\"},{\"sectionIdx\":2,\"category\":\"PROJECTION\",\"key\":\"y\",\"sectionLabel\":\"Serie2\",\"categoryLabel\":\"Projektion\",\"keyLabel\":\"Y-Achse\",\"defaultValue\":\"∑Summe Umsatz\"},{\"sectionIdx\":2,\"category\":\"PROJECTION\",\"key\":\"bplot_y\",\"sectionLabel\":\"Serie2\",\"categoryLabel\":\"Projektion\",\"keyLabel\":\"Y-Achse (Boxplot)\",\"defaultValue\":\"Summe Umsatz\"},{\"sectionIdx\":3,\"category\":\"PROJECTION\",\"key\":\"x\",\"sectionLabel\":\"Serie3\",\"categoryLabel\":\"Projektion\",\"keyLabel\":\"X-Achse\",\"defaultValue\":\"CustomerID\"},{\"sectionIdx\":3,\"category\":\"PROJECTION\",\"key\":\"y\",\"sectionLabel\":\"Serie3\",\"categoryLabel\":\"Projektion\",\"keyLabel\":\"Y-Achse\",\"defaultValue\":\"∑SIM_Umsatz\"},{\"sectionIdx\":3,\"category\":\"PROJECTION\",\"key\":\"bplot_y\",\"sectionLabel\":\"Serie3\",\"categoryLabel\":\"Projektion\",\"keyLabel\":\"Y-Achse (Boxplot)\",\"defaultValue\":\"SIM_Umsatz\"}]",
    "options" : "{\r    \"title\":\"\", \r    \"subtitle\":\"\", \r    \"comparison\":true, \r    \"hideLegend\":false, \r    \"hideTooltips\":false, \r    \"xLabel\":\"\", \r    \"yLabel\":\"\", \r    \"comparisonType\":\"GROUPED\", \r    \"maxPoints\":\"0\", \r    \"showZAxis\":\"false\", \r    \"zAxisLabel\":\"Andere\", \r    \"bplotLabel\":\"Boxplot\"\r}",
    "series" : [ "{\r    \"datamart\":\"S000459.DM2Konditionen2014PHVOhn\", \r    \"label\":\"Serie1\", \r    \"hideDataLabels\":true, \r    \"lineLevelFilter\":{\r        \"operator\":\"and\", \r        \"criteria\":[\r            {\r                \"fieldName\":\"C2_ReadyForSim\", \r                \"operator\":\"equals\", \r                \"value\":\"Yes\"\r            }, \r            {\r                \"fieldName\":\"SM\", \r                \"operator\":\"notEqual\", \r                \"value\":\"HDE9250 Sandra Höll\"\r            }, \r            {\r                \"fieldName\":\"SM\", \r                \"operator\":\"notEqual\", \r                \"value\":\"HDE9273 Marc Leifer\"\r            }, \r            {\r                \"fieldName\":\"SM\", \r                \"operator\":\"notEqual\", \r                \"value\":\"HDE9336 Carsten Vierke\"\r            }, \r            {\r                \"fieldName\":\"SM\", \r                \"operator\":\"notEqual\", \r                \"value\":\"HDE9457 Christian Spenner\"\r            }, \r            {\r                \"fieldName\":\"SM\", \r                \"operator\":\"notEqual\", \r                \"value\":\"HDE9537 NN\"\r            }, \r            {\r                \"fieldName\":\"SM\", \r                \"operator\":\"notEqual\", \r                \"value\":\"HDE9637 Birgit Keck-Eichner\"\r            }, \r            {\r                \"fieldName\":\"Inland_Ausland\", \r                \"operator\":\"equals\", \r                \"value\":\"Inland\"\r            }\r        ]\r    }, \r    \"filterTooltip\":\"Ready for Simulation is equal to Yes and SM is not equal to HDE9250 Sandra Höll and SM is not equal to HDE9273 Marc Leifer and SM is not equal to HDE9336 Carsten Vierke and SM is not equal to HDE9457 Christian Spenner and SM is not equal to HDE9537 NN and SM is not equal to HDE9637 Birgit Keck-Eichner and Inland_Ausland is equal to Inland\", \r    \"dimFilters\":[\r        {\r            \"fieldName\":\"Kunde_Klasse\", \r            \"fieldValue\":\"R4\", \r            \"fieldSynced\":false\r        }\r    ], \r    \"currency\":\"EUR\", \r    \"calculatedFieldFormulaControllerState\":{\r        \"rowLimit\":{\r            \"aggregationFormula\":\"SUM\"\r        }, \r        \"y\":{\r            \"aggregationFormula\":\"SUM\"\r        }\r    }, \r    \"calculatedFieldNonAggrFormulaControllerState\":{\r        \"bplot_y\":{\r            \"nonAggregationFormula\":\"FIELD\"\r        }\r    }, \r    \"x\":\"CustomerID\", \r    \"y\":\"C1_Umsatz_Diff\", \r    \"bplot_y\":\"C1_Umsatz_Diff\", \r    \"rowLimit\":{\r        \"topBottom\":\"TOP\", \r        \"units\":\"ROW\", \r        \"value\":10, \r        \"measure\":\"Summe_Umsatz\"\r    }, \r    \"additionalMeasures\":[\r    ], \r    \"seriesType\":\"BAR\", \r    \"sortBy\":\"x\", \r    \"sortByDir\":{\r        \"sortBy\":{\r            \"specifier\":\"ascending\", \r            \"displayValue\":null\r        }\r    }, \r    \"whiskerType\":\"MIN_MAX\", \r    \"showBoxplot\":\"false\", \r    \"formulaParams\":{\r        \"formulaName\":null, \r        \"targetDate\":\"2015-10-26\", \r        \"targetDateField\":null, \r        \"skuField\":null, \r        \"simulationSet\":null, \r        \"inputParams\":[\r        ], \r        \"mappingParams\":[\r        ], \r        \"outputElements\":[\r        ], \r        \"feederFormulaName\":null, \r        \"feederInputParams\":[\r        ]\r    }\r}", "{\r    \"datamart\":\"S000459.DM2Konditionen2014PHVOhn\", \r    \"label\":\"Serie2\", \r    \"hideDataLabels\":true, \r    \"lineLevelFilter\":{\r        \"operator\":\"and\", \r        \"criteria\":[\r            {\r                \"fieldName\":\"C2_ReadyForSim\", \r                \"operator\":\"equals\", \r                \"value\":\"Yes\"\r            }, \r            {\r                \"fieldName\":\"SM\", \r                \"operator\":\"notEqual\", \r                \"value\":\"HDE9250 Sandra Höll\"\r            }, \r            {\r                \"fieldName\":\"SM\", \r                \"operator\":\"notEqual\", \r                \"value\":\"HDE9273 Marc Leifer\"\r            }, \r            {\r                \"fieldName\":\"SM\", \r                \"operator\":\"notEqual\", \r                \"value\":\"HDE9336 Carsten Vierke\"\r            }, \r            {\r                \"fieldName\":\"SM\", \r                \"operator\":\"notEqual\", \r                \"value\":\"HDE9457 Christian Spenner\"\r            }, \r            {\r                \"fieldName\":\"SM\", \r                \"operator\":\"notEqual\", \r                \"value\":\"HDE9537 NN\"\r            }, \r            {\r                \"fieldName\":\"SM\", \r                \"operator\":\"notEqual\", \r                \"value\":\"HDE9637 Birgit Keck-Eichner\"\r            }, \r            {\r                \"fieldName\":\"Inland_Ausland\", \r                \"operator\":\"equals\", \r                \"value\":\"Inland\"\r            }\r        ]\r    }, \r    \"filterTooltip\":\"Ready for Simulation is equal to Yes and SM is not equal to HDE9250 Sandra Höll and SM is not equal to HDE9273 Marc Leifer and SM is not equal to HDE9336 Carsten Vierke and SM is not equal to HDE9457 Christian Spenner and SM is not equal to HDE9537 NN and SM is not equal to HDE9637 Birgit Keck-Eichner and Inland_Ausland is equal to Inland\", \r    \"dimFilters\":[\r        {\r            \"fieldName\":\"Kunde_Klasse\", \r            \"fieldValue\":\"R4\", \r            \"fieldSynced\":false\r        }\r    ], \r    \"currency\":\"EUR\", \r    \"calculatedFieldFormulaControllerState\":{\r        \"rowLimit\":{\r            \"aggregationFormula\":\"SUM\"\r        }, \r        \"y\":{\r            \"aggregationFormula\":\"SUM\"\r        }\r    }, \r    \"calculatedFieldNonAggrFormulaControllerState\":{\r        \"bplot_y\":{\r            \"nonAggregationFormula\":\"FIELD\"\r        }\r    }, \r    \"x\":\"CustomerID\", \r    \"y\":\"Summe_Umsatz\", \r    \"bplot_y\":\"Summe_Umsatz\", \r    \"rowLimit\":{\r        \"topBottom\":\"TOP\", \r        \"units\":\"ROW\", \r        \"value\":10, \r        \"measure\":\"Summe_Umsatz\"\r    }, \r    \"additionalMeasures\":[\r    ], \r    \"seriesType\":\"BAR\", \r    \"sortBy\":\"x\", \r    \"sortByDir\":{\r        \"sortBy\":{\r            \"specifier\":\"ascending\", \r            \"displayValue\":null\r        }\r    }, \r    \"whiskerType\":\"MIN_MAX\", \r    \"showBoxplot\":\"false\", \r    \"formulaParams\":{\r        \"formulaName\":null, \r        \"targetDate\":\"2015-10-26\", \r        \"targetDateField\":null, \r        \"skuField\":null, \r        \"simulationSet\":null, \r        \"inputParams\":[\r        ], \r        \"mappingParams\":[\r        ], \r        \"outputElements\":[\r        ], \r        \"feederFormulaName\":null, \r        \"feederInputParams\":[\r        ]\r    }\r}", "{\r    \"datamart\":\"S000459.DM2Konditionen2014PHVOhn\", \r    \"label\":\"Serie3\", \r    \"hideDataLabels\":true, \r    \"lineLevelFilter\":{\r        \"operator\":\"and\", \r        \"criteria\":[\r            {\r                \"fieldName\":\"C2_ReadyForSim\", \r                \"operator\":\"equals\", \r                \"value\":\"Yes\"\r            }, \r            {\r                \"fieldName\":\"SM\", \r                \"operator\":\"notEqual\", \r                \"value\":\"HDE9250 Sandra Höll\"\r            }, \r            {\r                \"fieldName\":\"SM\", \r                \"operator\":\"notEqual\", \r                \"value\":\"HDE9273 Marc Leifer\"\r            }, \r            {\r                \"fieldName\":\"SM\", \r                \"operator\":\"notEqual\", \r                \"value\":\"HDE9336 Carsten Vierke\"\r            }, \r            {\r                \"fieldName\":\"SM\", \r                \"operator\":\"notEqual\", \r                \"value\":\"HDE9457 Christian Spenner\"\r            }, \r            {\r                \"fieldName\":\"SM\", \r                \"operator\":\"notEqual\", \r                \"value\":\"HDE9537 NN\"\r            }, \r            {\r                \"fieldName\":\"SM\", \r                \"operator\":\"notEqual\", \r                \"value\":\"HDE9637 Birgit Keck-Eichner\"\r            }, \r            {\r                \"fieldName\":\"Inland_Ausland\", \r                \"operator\":\"equals\", \r                \"value\":\"Inland\"\r            }\r        ]\r    }, \r    \"filterTooltip\":\"Ready for Simulation is equal to Yes and SM is not equal to HDE9250 Sandra Höll and SM is not equal to HDE9273 Marc Leifer and SM is not equal to HDE9336 Carsten Vierke and SM is not equal to HDE9457 Christian Spenner and SM is not equal to HDE9537 NN and SM is not equal to HDE9637 Birgit Keck-Eichner and Inland_Ausland is equal to Inland\", \r    \"dimFilters\":[\r        {\r            \"fieldName\":\"Kunde_Klasse\", \r            \"fieldValue\":\"R4\", \r            \"fieldSynced\":false\r        }\r    ], \r    \"currency\":\"EUR\", \r    \"calculatedFieldFormulaControllerState\":{\r        \"rowLimit\":{\r            \"aggregationFormula\":\"SUM\"\r        }, \r        \"y\":{\r            \"aggregationFormula\":\"SUM\"\r        }\r    }, \r    \"calculatedFieldNonAggrFormulaControllerState\":{\r        \"bplot_y\":{\r            \"nonAggregationFormula\":\"FIELD\"\r        }\r    }, \r    \"x\":\"CustomerID\", \r    \"y\":\"C1_SIM_Umsatz\", \r    \"bplot_y\":\"C1_SIM_Umsatz\", \r    \"rowLimit\":{\r        \"topBottom\":\"TOP\", \r        \"units\":\"ROW\", \r        \"value\":10, \r        \"measure\":\"Summe_Umsatz\"\r    }, \r    \"additionalMeasures\":[\r    ], \r    \"seriesType\":\"BAR\", \r    \"sortBy\":\"x\", \r    \"sortByDir\":{\r        \"sortBy\":{\r            \"specifier\":\"ascending\", \r            \"displayValue\":null\r        }\r    }, \r    \"whiskerType\":\"MIN_MAX\", \r    \"showBoxplot\":\"false\", \r    \"formulaParams\":{\r        \"formulaName\":null, \r        \"targetDate\":\"2015-10-26\", \r        \"targetDateField\":null, \r        \"skuField\":null, \r        \"simulationSet\":null, \r        \"inputParams\":[\r        ], \r        \"mappingParams\":[\r        ], \r        \"outputElements\":[\r        ], \r        \"feederFormulaName\":null, \r        \"feederInputParams\":[\r        ]\r    }\r}" ]
  },
  "chartType" : "BAR",
  "createdByName" : "n.seeger",
  "label" : "Diff-TOP10-Kunden-per Klasse",
  "uniqueName" : "n.seeger__1445849854021",
  "visibility" : "PUBLIC"
}