{
  "chartDefinition" : {
    "auxLines" : [ ],
    "chartType" : "BAR",
    "dictionary" : "[{\"sectionIdx\":1,\"category\":\"PROJECTION\",\"key\":\"x\",\"sectionLabel\":\"Serie1\",\"categoryLabel\":\"Projektion\",\"keyLabel\":\"X-Achse\",\"defaultValue\":\"Prodh. III\"},{\"sectionIdx\":1,\"category\":\"PROJECTION\",\"key\":\"y\",\"sectionLabel\":\"Serie1\",\"categoryLabel\":\"Projektion\",\"keyLabel\":\"Y-Achse\",\"defaultValue\":\"∑Summe Umsatz\"},{\"sectionIdx\":1,\"category\":\"PROJECTION\",\"key\":\"bplot_y\",\"sectionLabel\":\"Serie1\",\"categoryLabel\":\"Projektion\",\"keyLabel\":\"Y-Achse (Boxplot)\",\"defaultValue\":\"Summe Umsatz\"},{\"sectionIdx\":2,\"category\":\"PROJECTION\",\"key\":\"x\",\"sectionLabel\":\"Serie2\",\"categoryLabel\":\"Projektion\",\"keyLabel\":\"X-Achse\",\"defaultValue\":\"Prodh. III\"},{\"sectionIdx\":2,\"category\":\"PROJECTION\",\"key\":\"y\",\"sectionLabel\":\"Serie2\",\"categoryLabel\":\"Projektion\",\"keyLabel\":\"Y-Achse\",\"defaultValue\":\"∑SIM_Umsatz\"},{\"sectionIdx\":2,\"category\":\"PROJECTION\",\"key\":\"bplot_y\",\"sectionLabel\":\"Serie2\",\"categoryLabel\":\"Projektion\",\"keyLabel\":\"Y-Achse (Boxplot)\",\"defaultValue\":\"SIM_Umsatz\"}]",
    "options" : "{\r    \"title\":\"\", \r    \"subtitle\":\"\", \r    \"comparison\":true, \r    \"hideLegend\":false, \r    \"hideTooltips\":false, \r    \"xLabel\":\"\", \r    \"yLabel\":\"\", \r    \"comparisonType\":\"GROUPED\", \r    \"maxPoints\":\"0\", \r    \"showZAxis\":\"false\", \r    \"zAxisLabel\":\"Andere\", \r    \"bplotLabel\":\"Boxplot\"\r}",
    "series" : [ "{\r    \"datamart\":\"S000456.DMKonditionen2014ProdHII\", \r    \"label\":\"Serie1\", \r    \"hideDataLabels\":true, \r    \"lineLevelFilter\":{\r        \"operator\":\"and\", \r        \"criteria\":[\r            {\r                \"fieldName\":\"C2_ReadyForSim\", \r                \"operator\":\"equals\", \r                \"value\":\"Yes\"\r            }, \r            {\r                \"fieldName\":\"Country_Index\", \r                \"operator\":\"equals\", \r                \"value\":\"Deutschland\"\r            }\r        ]\r    }, \r    \"filterTooltip\":\"Ready for Simulation is equal to Yes and Country_Index is equal to Deutschland\", \r    \"currency\":\"EUR\", \r    \"calculatedFieldFormulaControllerState\":{\r        \"rowLimit\":{\r            \"aggregationFormula\":\"SUM\"\r        }, \r        \"y\":{\r            \"aggregationFormula\":\"SUM\"\r        }\r    }, \r    \"calculatedFieldNonAggrFormulaControllerState\":{\r        \"bplot_y\":{\r            \"nonAggregationFormula\":\"FIELD\"\r        }\r    }, \r    \"x\":\"ProdhIII\", \r    \"y\":\"Summe_Umsatz\", \r    \"bplot_y\":\"Summe_Umsatz\", \r    \"rowLimit\":{\r    }, \r    \"additionalMeasures\":[\r    ], \r    \"seriesType\":\"BAR\", \r    \"sortBy\":\"x\", \r    \"sortByDir\":{\r        \"sortBy\":{\r            \"specifier\":\"ascending\", \r            \"displayValue\":null\r        }\r    }, \r    \"whiskerType\":\"MIN_MAX\", \r    \"showBoxplot\":\"false\", \r    \"formulaParams\":{\r        \"formulaName\":null, \r        \"targetDate\":\"2015-09-19\", \r        \"targetDateField\":null, \r        \"inputParams\":[\r        ], \r        \"mappingParams\":[\r        ], \r        \"outputElements\":[\r        ], \r        \"feederFormulaName\":null, \r        \"feederInputParams\":[\r        ]\r    }\r}", "{\r    \"datamart\":\"S000456.DMKonditionen2014ProdHII\", \r    \"label\":\"Serie2\", \r    \"hideDataLabels\":true, \r    \"lineLevelFilter\":{\r        \"operator\":\"and\", \r        \"criteria\":[\r            {\r                \"fieldName\":\"C2_ReadyForSim\", \r                \"operator\":\"equals\", \r                \"value\":\"Yes\"\r            }, \r            {\r                \"fieldName\":\"Country_Index\", \r                \"operator\":\"equals\", \r                \"value\":\"Deutschland\"\r            }\r        ]\r    }, \r    \"filterTooltip\":null, \r    \"currency\":\"EUR\", \r    \"calculatedFieldFormulaControllerState\":{\r        \"rowLimit\":{\r            \"aggregationFormula\":\"SUM\"\r        }, \r        \"y\":{\r            \"aggregationFormula\":\"SUM\"\r        }\r    }, \r    \"calculatedFieldNonAggrFormulaControllerState\":{\r        \"bplot_y\":{\r            \"nonAggregationFormula\":\"FIELD\"\r        }\r    }, \r    \"x\":\"ProdhIII\", \r    \"y\":\"C1_SIM_Umsatz\", \r    \"bplot_y\":\"C1_SIM_Umsatz\", \r    \"rowLimit\":{\r    }, \r    \"additionalMeasures\":[\r    ], \r    \"seriesType\":\"BAR\", \r    \"sortBy\":\"x\", \r    \"sortByDir\":{\r        \"sortBy\":{\r            \"specifier\":\"ascending\", \r            \"displayValue\":null\r        }\r    }, \r    \"whiskerType\":\"MIN_MAX\", \r    \"showBoxplot\":\"false\", \r    \"formulaParams\":{\r        \"formulaName\":null, \r        \"targetDate\":\"2015-09-19\", \r        \"targetDateField\":null, \r        \"inputParams\":[\r        ], \r        \"mappingParams\":[\r        ], \r        \"outputElements\":[\r        ], \r        \"feederFormulaName\":null, \r        \"feederInputParams\":[\r        ]\r    }\r}" ]
  },
  "chartType" : "BAR",
  "createdByName" : "n.seeger",
  "label" : "Umsatz-Vergleich ProdH III Deutschland ",
  "uniqueName" : "n.seeger__1442653009851"
}