{
  "chartDefinition" : {
    "auxLines" : [ ],
    "chartType" : "DATATABLE",
    "dictionary" : "[{\"sectionIdx\":1,\"category\":\"PROJECTION\",\"key\":\"m4\",\"sectionLabel\":\"Serie1\",\"categoryLabel\":\"Projektion\",\"keyLabel\":\"Messwert 1\",\"defaultValue\":\"∑Anzahl Transaktionen\"},{\"sectionIdx\":1,\"category\":\"PROJECTION\",\"key\":\"m1\",\"sectionLabel\":\"Serie1\",\"categoryLabel\":\"Projektion\",\"keyLabel\":\"Messwert 2\",\"defaultValue\":\"∑Summe Menge\"},{\"sectionIdx\":1,\"category\":\"PROJECTION\",\"key\":\"m2\",\"sectionLabel\":\"Serie1\",\"categoryLabel\":\"Projektion\",\"keyLabel\":\"Messwert 3\",\"defaultValue\":\"∑Summe Umsatz\"},{\"sectionIdx\":1,\"category\":\"PROJECTION\",\"key\":\"m3\",\"sectionLabel\":\"Serie1\",\"categoryLabel\":\"Projektion\",\"keyLabel\":\"Messwert 4\",\"defaultValue\":\"∑SIM_Umsatz\"},{\"sectionIdx\":1,\"category\":\"PROJECTION\",\"key\":\"m5\",\"sectionLabel\":\"Serie1\",\"categoryLabel\":\"Projektion\",\"keyLabel\":\"Messwert 5\",\"defaultValue\":\"∑Durchschnittpreis\"},{\"sectionIdx\":1,\"category\":\"PROJECTION\",\"key\":\"m7\",\"sectionLabel\":\"Serie1\",\"categoryLabel\":\"Projektion\",\"keyLabel\":\"Messwert 6\",\"defaultValue\":\"∑Preislist Preis\"},{\"sectionIdx\":1,\"category\":\"PROJECTION\",\"key\":\"m9\",\"sectionLabel\":\"Serie1\",\"categoryLabel\":\"Projektion\",\"keyLabel\":\"Messwert 7\",\"defaultValue\":\"∑Standard Rabatt\"},{\"sectionIdx\":1,\"category\":\"PROJECTION\",\"key\":\"m6\",\"sectionLabel\":\"Serie1\",\"categoryLabel\":\"Projektion\",\"keyLabel\":\"Messwert 8\",\"defaultValue\":\"∑Net Preis\"},{\"sectionIdx\":1,\"category\":\"PROJECTION\",\"key\":\"m8\",\"sectionLabel\":\"Serie1\",\"categoryLabel\":\"Projektion\",\"keyLabel\":\"Messwert 9\",\"defaultValue\":\"∑Clearing Faktor\"},{\"sectionIdx\":1,\"category\":\"PROJECTION\",\"key\":\"ProductLabel\",\"sectionLabel\":\"Serie1\",\"categoryLabel\":\"Projektion\",\"keyLabel\":\"Product Label\",\"defaultValue\":\"Product Label\"},{\"sectionIdx\":1,\"category\":\"PROJECTION\",\"key\":\"Sku\",\"sectionLabel\":\"Serie1\",\"categoryLabel\":\"Projektion\",\"keyLabel\":\"Sku\",\"defaultValue\":\"Sku\"}]",
    "options" : "{\r}",
    "series" : [ "{\r    \"datamart\":\"DMSIM.DM440Konditionen2014PHV\", \r    \"label\":\"Serie1\", \r    \"hideDataLabels\":true, \r    \"lineLevelFilter\":{\r        \"_constructor\":\"AdvancedCriteria\", \r        \"operator\":\"and\", \r        \"criteria\":[\r            {\r                \"fieldName\":\"C2_ReadyForSim\", \r                \"operator\":\"equals\", \r                \"value\":\"Yes\"\r            }\r        ]\r    }, \r    \"filterTooltip\":\"Ready for Simulation is equal to Yes\", \r    \"dimFilters\":[\r        {\r            \"fieldName\":\"CustomerID\", \r            \"fieldValue\":\"0002712917\", \r            \"fieldSynced\":false\r        }\r    ], \r    \"currency\":\"EUR\", \r    \"calculatedFieldFormulaControllerState\":{\r    }, \r    \"calculatedFieldNonAggrFormulaControllerState\":{\r    }, \r    \"additionalMeasures\":[\r        {\r            \"aggrFormula\":\"SUM\", \r            \"name\":\"Anzahl_Transaktionen\", \r            \"id\":4, \r            \"isSelected\":false\r        }, \r        {\r            \"aggrFormula\":\"SUM\", \r            \"name\":\"Summe_Menge\", \r            \"id\":1\r        }, \r        {\r            \"aggrFormula\":\"SUM\", \r            \"name\":\"Summe_Umsatz\", \r            \"id\":2\r        }, \r        {\r            \"aggrFormula\":\"SUM\", \r            \"name\":\"C1_SIM_Umsatz\", \r            \"id\":3\r        }, \r        {\r            \"aggrFormula\":\"SUM\", \r            \"name\":\"Durchschnittpreis\", \r            \"id\":5\r        }, \r        {\r            \"aggrFormula\":\"SUM\", \r            \"name\":\"C1_PreislistPreis\", \r            \"id\":7, \r            \"isSelected\":false\r        }, \r        {\r            \"aggrFormula\":\"SUM\", \r            \"name\":\"C1_StandardRabatt\", \r            \"id\":9, \r            \"isSelected\":false\r        }, \r        {\r            \"aggrFormula\":\"SUM\", \r            \"name\":\"C1_NetPreis\", \r            \"id\":6, \r            \"isSelected\":true\r        }, \r        {\r            \"aggrFormula\":\"SUM\", \r            \"name\":\"C1_Clearing\", \r            \"id\":8\r        }\r    ], \r    \"groupByDims\":[\r        \"Sku\", \r        \"ProductLabel\"\r    ], \r    \"formulaParams\":{\r        \"formulaName\":null, \r        \"targetDate\":\"2016-02-12\", \r        \"targetDateField\":null, \r        \"skuField\":null, \r        \"simulationSet\":null, \r        \"inputParams\":[\r        ], \r        \"mappingParams\":[\r        ], \r        \"outputElements\":[\r        ], \r        \"feederFormulaName\":null, \r        \"feederInputParams\":[\r        ]\r    }, \r    \"seriesGridPreferences\":{\r        \"typedId\":null, \r        \"version\":null, \r        \"preferenceType\":null, \r        \"preferenceName\":null, \r        \"areGlobal\":true, \r        \"areDefault\":true, \r        \"viewState\":\"({field:[{name:\\\"groupBy1\\\"},{name:\\\"groupBy2\\\"},{name:\\\"m1\\\"},{name:\\\"m2\\\"},{name:\\\"m3\\\"},{name:\\\"m5\\\"},{name:\\\"m7\\\"},{name:\\\"m9\\\"},{name:\\\"m6\\\"},{name:\\\"m8\\\"},{name:\\\"m4\\\"}],group:[{fieldName:\\\"groupBy1\\\",groupingMode:null,groupGranularity:null,groupPrecision:null}]})\", \r        \"filter\":\"{\\r}\", \r        \"columnLabels\":null\r    }\r}" ]
  },
  "chartType" : "DATATABLE",
  "createdByName" : "n.seeger",
  "description" : "Preisliste2016_v1",
  "label" : "Kunden-Artikel-Preisdifferenz_DM2015",
  "uniqueName" : "n.seeger__1455270305985",
  "visibility" : "PUBLIC"
}