{
  "chartDefinition" : {
    "auxLines" : [ ],
    "chartType" : "DATATABLE",
    "dictionary" : "[{\"sectionIdx\":1,\"category\":\"PROJECTION\",\"key\":\"Branche\",\"sectionLabel\":\"Serie1\",\"categoryLabel\":\"Projektion\",\"keyLabel\":\"Branche\",\"defaultValue\":\"Branche\"},{\"sectionIdx\":1,\"category\":\"PROJECTION\",\"key\":\"Kunde_Klasse\",\"sectionLabel\":\"Serie1\",\"categoryLabel\":\"Projektion\",\"keyLabel\":\"Kunde Klasse\",\"defaultValue\":\"Kunde Klasse\"},{\"sectionIdx\":1,\"category\":\"PROJECTION\",\"key\":\"Kundengruppe\",\"sectionLabel\":\"Serie1\",\"categoryLabel\":\"Projektion\",\"keyLabel\":\"Kundengruppe\",\"defaultValue\":\"Kundengruppe\"},{\"sectionIdx\":1,\"category\":\"PROJECTION\",\"key\":\"m1\",\"sectionLabel\":\"Serie1\",\"categoryLabel\":\"Projektion\",\"keyLabel\":\"Messwert 1\",\"defaultValue\":\"∑Summe Umsatz\"},{\"sectionIdx\":1,\"category\":\"PROJECTION\",\"key\":\"m2\",\"sectionLabel\":\"Serie1\",\"categoryLabel\":\"Projektion\",\"keyLabel\":\"Messwert 2\",\"defaultValue\":\"∑SIM_Umsatz\"},{\"sectionIdx\":1,\"category\":\"PROJECTION\",\"key\":\"m3\",\"sectionLabel\":\"Serie1\",\"categoryLabel\":\"Projektion\",\"keyLabel\":\"Messwert 3\",\"defaultValue\":\"∑Differential Umsatz (Sim-historic) in Sum\"},{\"sectionIdx\":1,\"category\":\"PROJECTION\",\"key\":\"ProdhIII\",\"sectionLabel\":\"Serie1\",\"categoryLabel\":\"Projektion\",\"keyLabel\":\"Prodh. III\",\"defaultValue\":\"Prodh. III\"},{\"sectionIdx\":1,\"category\":\"PROJECTION\",\"key\":\"SM\",\"sectionLabel\":\"Serie1\",\"categoryLabel\":\"Projektion\",\"keyLabel\":\"SM\",\"defaultValue\":\"SM\"},{\"sectionIdx\":1,\"category\":\"PROJECTION\",\"key\":\"Verkaufsbereich3\",\"sectionLabel\":\"Serie1\",\"categoryLabel\":\"Projektion\",\"keyLabel\":\"Verkaufsbereich3\",\"defaultValue\":\"Verkaufsbereich3\"}]",
    "options" : "{\r}",
    "series" : [ "{\r    \"datamart\":\"DMSIM.DM440Konditionen2014PHV\", \r    \"label\":\"Serie1\", \r    \"hideDataLabels\":true, \r    \"lineLevelFilter\":{\r        \"_constructor\":\"AdvancedCriteria\", \r        \"operator\":\"and\", \r        \"criteria\":[\r            {\r                \"fieldName\":\"C2_ReadyForSim\", \r                \"operator\":\"equals\", \r                \"value\":\"Yes\"\r            }, \r            {\r                \"fieldName\":\"Inland_Ausland\", \r                \"operator\":\"equals\", \r                \"value\":\"Inland\"\r            }\r        ]\r    }, \r    \"filterTooltip\":\"Ready for Simulation is equal to Yes and Inland_Ausland is equal to Inland\", \r    \"dimFilters\":[\r        {\r            \"fieldName\":\"CustomerID\", \r            \"fieldValue\":\"0001000063\", \r            \"fieldSynced\":false\r        }\r    ], \r    \"currency\":\"EUR\", \r    \"calculatedFieldFormulaControllerState\":{\r    }, \r    \"calculatedFieldNonAggrFormulaControllerState\":{\r    }, \r    \"additionalMeasures\":[\r        {\r            \"aggrFormula\":\"SUM\", \r            \"name\":\"Summe_Umsatz\", \r            \"id\":1, \r            \"aggrFormula_value\":{\r                \"specifier\":\"SUM\", \r                \"displayValue\":\"∑{field}\", \r                \"value\":{\r                    \"alias\":null, \r                    \"name\":null, \r                    \"expression\":\"SUM({field})\", \r                    \"function\":null, \r                    \"default\":null, \r                    \"label\":\"∑{field}\", \r                    \"formatString\":\"∑{field}\", \r                    \"parameters\":{\r                    }\r                }\r            }, \r            \"aggrFormula_display\":\"∑{field}\"\r        }, \r        {\r            \"aggrFormula\":\"SUM\", \r            \"name\":\"C1_SIM_Umsatz\", \r            \"id\":2, \r            \"aggrFormula_value\":{\r                \"specifier\":\"SUM\", \r                \"displayValue\":\"∑{field}\", \r                \"value\":{\r                    \"alias\":null, \r                    \"name\":null, \r                    \"expression\":\"SUM({field})\", \r                    \"function\":null, \r                    \"default\":null, \r                    \"label\":\"∑{field}\", \r                    \"formatString\":\"∑{field}\", \r                    \"parameters\":{\r                    }\r                }\r            }, \r            \"aggrFormula_display\":\"∑{field}\"\r        }, \r        {\r            \"aggrFormula\":\"SUM\", \r            \"name\":\"C1_Umsatz_Diff\", \r            \"id\":3, \r            \"aggrFormula_value\":{\r                \"specifier\":\"SUM\", \r                \"displayValue\":\"∑{field}\", \r                \"value\":{\r                    \"alias\":null, \r                    \"name\":null, \r                    \"expression\":\"SUM({field})\", \r                    \"function\":null, \r                    \"default\":null, \r                    \"label\":\"∑{field}\", \r                    \"formatString\":\"∑{field}\", \r                    \"parameters\":{\r                    }\r                }\r            }, \r            \"aggrFormula_display\":\"∑{field}\"\r        }\r    ], \r    \"groupByDims\":[\r        \"Kunde_Klasse\", \r        \"SM\", \r        \"Verkaufsbereich3\", \r        \"Kundengruppe\", \r        \"Branche\", \r        \"ProdhIII\"\r    ], \r    \"formulaParams\":{\r        \"formulaName\":null, \r        \"targetDate\":\"2016-02-04\", \r        \"targetDateField\":null, \r        \"skuField\":null, \r        \"simulationSet\":null, \r        \"inputParams\":[\r        ], \r        \"mappingParams\":[\r        ], \r        \"outputElements\":[\r        ], \r        \"feederFormulaName\":null, \r        \"feederInputParams\":[\r        ]\r    }, \r    \"seriesGridPreferences\":{\r        \"typedId\":null, \r        \"version\":null, \r        \"preferenceType\":null, \r        \"preferenceName\":null, \r        \"areGlobal\":true, \r        \"areDefault\":true, \r        \"viewState\":\"({field:[{name:\\\"groupBy1\\\"},{name:\\\"groupBy2\\\"},{name:\\\"groupBy3\\\"},{name:\\\"groupBy4\\\"},{name:\\\"groupBy5\\\"},{name:\\\"groupBy6\\\"},{name:\\\"m1\\\"},{name:\\\"m2\\\"},{name:\\\"m3\\\"}],group:[{fieldName:\\\"groupBy1\\\",groupingMode:null,groupGranularity:null,groupPrecision:null},{fieldName:\\\"groupBy2\\\",groupingMode:null,groupGranularity:null,groupPrecision:null},{fieldName:\\\"groupBy3\\\",groupingMode:null,groupGranularity:null,groupPrecision:null},{fieldName:\\\"groupBy4\\\",groupingMode:null,groupGranularity:null,groupPrecision:null},{fieldName:\\\"groupBy5\\\",groupingMode:null,groupGranularity:null,groupPrecision:null}]})\", \r        \"filter\":\"{\\r}\", \r        \"columnLabels\":null\r    }\r}" ]
  },
  "chartType" : "DATATABLE",
  "createdByName" : "n.seeger",
  "description" : "Preisliste2016_v1",
  "label" : "Kunde_Klasse_SM_Umsatzdiff_DM2015",
  "uniqueName" : "n.seeger__1454579933252",
  "visibility" : "PUBLIC"
}