{
  "chartDefinition" : {
    "auxLines" : [ ],
    "chartType" : "DATATABLE",
    "dictionary" : "[{\"sectionIdx\":1,\"category\":\"PROJECTION\",\"key\":\"m1\",\"sectionLabel\":\"Serie1\",\"categoryLabel\":\"Projektion\",\"keyLabel\":\"Messwert 1\",\"defaultValue\":\"∑Summe Menge\"},{\"sectionIdx\":1,\"category\":\"PROJECTION\",\"key\":\"m6\",\"sectionLabel\":\"Serie1\",\"categoryLabel\":\"Projektion\",\"keyLabel\":\"Messwert 10\",\"defaultValue\":\"∑Differential DBs (Sim-historic) in Sum\"},{\"sectionIdx\":1,\"category\":\"PROJECTION\",\"key\":\"m2\",\"sectionLabel\":\"Serie1\",\"categoryLabel\":\"Projektion\",\"keyLabel\":\"Messwert 2\",\"defaultValue\":\"∑Summe_Umsatz_vorKopfrabatt\"},{\"sectionIdx\":1,\"category\":\"PROJECTION\",\"key\":\"m3\",\"sectionLabel\":\"Serie1\",\"categoryLabel\":\"Projektion\",\"keyLabel\":\"Messwert 3\",\"defaultValue\":\"∑Summe Umsatz\"},{\"sectionIdx\":1,\"category\":\"PROJECTION\",\"key\":\"m4\",\"sectionLabel\":\"Serie1\",\"categoryLabel\":\"Projektion\",\"keyLabel\":\"Messwert 4\",\"defaultValue\":\"∑SIM_Umsatz\"},{\"sectionIdx\":1,\"category\":\"PROJECTION\",\"key\":\"m5\",\"sectionLabel\":\"Serie1\",\"categoryLabel\":\"Projektion\",\"keyLabel\":\"Messwert 5\",\"defaultValue\":\"∑Differential Umsatz (Sim-historic) in Sum\"},{\"sectionIdx\":1,\"category\":\"PROJECTION\",\"key\":\"mnull\",\"sectionLabel\":\"Serie1\",\"categoryLabel\":\"Projektion\",\"keyLabel\":\"Messwert 6\",\"defaultValue\":\"∑Differential Umsatz (Sim-historic) in Prozent\"},{\"sectionIdx\":1,\"category\":\"PROJECTION\",\"key\":\"m7\",\"sectionLabel\":\"Serie1\",\"categoryLabel\":\"Projektion\",\"keyLabel\":\"Messwert 7\",\"defaultValue\":\"∑Summe_DB_vorKopfrabatt\"},{\"sectionIdx\":1,\"category\":\"PROJECTION\",\"key\":\"m8\",\"sectionLabel\":\"Serie1\",\"categoryLabel\":\"Projektion\",\"keyLabel\":\"Messwert 8\",\"defaultValue\":\"∑Summe_DB\"},{\"sectionIdx\":1,\"category\":\"PROJECTION\",\"key\":\"m9\",\"sectionLabel\":\"Serie1\",\"categoryLabel\":\"Projektion\",\"keyLabel\":\"Messwert 9\",\"defaultValue\":\"∑SIM_DB\"},{\"sectionIdx\":1,\"category\":\"PROJECTION\",\"key\":\"C1_Sku10\",\"sectionLabel\":\"Serie1\",\"categoryLabel\":\"Projektion\",\"keyLabel\":\"Sku 10-stellig für Preis aus PL\",\"defaultValue\":\"Sku 10-stellig für Preis aus PL\"}]",
    "options" : "{\n}",
    "series" : [ "{\n    \"datamart\":\"DMSIM.DM201516_oKopfr_mCRM_Clearing\", \n    \"label\":\"Serie1\", \n    \"hideDataLabels\":true, \n    \"lineLevelFilter\":{\n        \"_constructor\":\"AdvancedCriteria\", \n        \"operator\":\"and\", \n        \"criteria\":[\n            {\n                \"fieldName\":\"C2_ReadyForSim\", \n                \"operator\":\"equals\", \n                \"value\":\"Yes\"\n            }\n        ]\n    }, \n    \"filterTooltip\":\"Ready for Simulation is equal to Yes\", \n    \"dimFilters\":[\n        {\n            \"fieldName\":\"Verkaufsbereich3\", \n            \"fieldValue\":\"Handel\", \n            \"fieldSynced\":false\n        }\n    ], \n    \"currency\":\"EUR\", \n    \"calculatedFieldFormulaControllerState\":{\n    }, \n    \"calculatedFieldNonAggrFormulaControllerState\":{\n    }, \n    \"additionalMeasures\":[\n        {\n            \"aggrFormula\":\"SUM\", \n            \"name\":\"Summe_Menge\", \n            \"id\":1\n        }, \n        {\n            \"aggrFormula\":\"SUM\", \n            \"name\":\"Summe_Umsatz_vorKopfrabatt\", \n            \"id\":2\n        }, \n        {\n            \"aggrFormula\":\"SUM\", \n            \"name\":\"Summe_Umsatz\", \n            \"id\":3\n        }, \n        {\n            \"aggrFormula\":\"SUM\", \n            \"name\":\"C1_SIM_Umsatz\", \n            \"id\":4\n        }, \n        {\n            \"aggrFormula\":\"SUM\", \n            \"name\":\"C1_Umsatz_Diff\", \n            \"id\":5\n        }, \n        {\n            \"aggrFormula\":\"SUM\", \n            \"name\":\"C1_Umsatz_Diff_prozentual\", \n            \"isSelected\":false\n        }, \n        {\n            \"aggrFormula\":\"SUM\", \n            \"name\":\"Summe_DB_vorKopfrabatt\", \n            \"id\":7\n        }, \n        {\n            \"aggrFormula\":\"SUM\", \n            \"name\":\"Summe_DB\", \n            \"id\":8\n        }, \n        {\n            \"aggrFormula\":\"SUM\", \n            \"name\":\"C1_SIM_DB\", \n            \"id\":9\n        }, \n        {\n            \"aggrFormula\":\"SUM\", \n            \"name\":\"C1_DB_Diff\", \n            \"id\":6, \n            \"isSelected\":true\n        }\n    ], \n    \"groupByDims\":[\n        \"C1_Sku10\"\n    ], \n    \"formulaParams\":{\n        \"formulaName\":null, \n        \"targetDate\":\"2016-07-11\", \n        \"targetDateField\":null, \n        \"skuField\":null, \n        \"simulationSet\":null, \n        \"inputParams\":[\n        ], \n        \"mappingParams\":[\n        ], \n        \"outputElements\":[\n        ], \n        \"feederFormulaName\":null, \n        \"feederInputParams\":[\n        ]\n    }, \n    \"seriesGridPreferences\":{\n        \"typedId\":null, \n        \"version\":null, \n        \"preferenceType\":null, \n        \"preferenceName\":null, \n        \"areGlobal\":true, \n        \"areDefault\":true, \n        \"viewState\":\"({field:[{name:\\\"groupBy1\\\"},{name:\\\"m1\\\"},{name:\\\"m2\\\"},{name:\\\"m3\\\"},{name:\\\"m4\\\"},{name:\\\"m5\\\"},{name:\\\"mnull\\\"},{name:\\\"m6\\\"},{name:\\\"m7\\\"},{name:\\\"m8\\\"},{name:\\\"m9\\\"}]})\", \n        \"filter\":\"{}\", \n        \"columnLabels\":null\n    }\n}" ]
  },
  "chartType" : "DATATABLE",
  "createdByName" : "n.seeger",
  "label" : "TOP100 Handel",
  "uniqueName" : "n.seeger__1468218943587",
  "visibility" : "PUBLIC"
}