{
  "chartDefinition" : {
    "auxLines" : [ ],
    "chartType" : "PIE",
    "dictionary" : "[{\"sectionIdx\":1,\"category\":\"PROJECTION\",\"key\":\"y\",\"sectionLabel\":\"Serie1\",\"categoryLabel\":\"Projektion\",\"keyLabel\":\"Größe\",\"defaultValue\":\"#(CustomerID)\"},{\"sectionIdx\":1,\"category\":\"PROJECTION\",\"key\":\"x\",\"sectionLabel\":\"Serie1\",\"categoryLabel\":\"Projektion\",\"keyLabel\":\"Kategorien\",\"defaultValue\":\"Kunde_Klasse\"}]",
    "options" : "{\r    \"title\":\"\", \r    \"subtitle\":\"\", \r    \"comparison\":false, \r    \"hideLegend\":false, \r    \"hideTooltips\":false, \r    \"xLabel\":\"\", \r    \"yLabel\":\"\", \r    \"verticalLayout\":\"false\"\r}",
    "series" : [ "{\r    \"datamart\":\"S000458.DMKonditionen2014PHVOhne\", \r    \"label\":\"Serie1\", \r    \"hideDataLabels\":false, \r    \"lineLevelFilter\":{\r        \"operator\":\"and\", \r        \"criteria\":[\r            {\r                \"fieldName\":\"C2_ReadyForSim\", \r                \"operator\":\"equals\", \r                \"value\":\"Yes\"\r            }, \r            {\r                \"fieldName\":\"Inland_Ausland\", \r                \"operator\":\"equals\", \r                \"value\":\"Inland\"\r            }\r        ]\r    }, \r    \"filterTooltip\":\"Ready for Simulation is equal to Yes and Inland_Ausland is equal to Inland\", \r    \"currency\":\"EUR\", \r    \"calculatedFieldFormulaControllerState\":{\r        \"rowLimit\":{\r            \"aggregationFormula\":\"SUM\"\r        }, \r        \"y\":{\r            \"specifier\":\"COUNT\", \r            \"displayValue\":\"#({field})\", \r            \"value\":{\r                \"alias\":null, \r                \"name\":null, \r                \"expression\":\"COUNT({field})\", \r                \"function\":null, \r                \"default\":null, \r                \"label\":\"#({field})\", \r                \"formatString\":\"#({field})\", \r                \"parameters\":{\r                }\r            }\r        }\r    }, \r    \"calculatedFieldNonAggrFormulaControllerState\":{\r    }, \r    \"x\":\"Kunde_Klasse\", \r    \"y\":\"CustomerID\", \r    \"rowLimit\":{\r    }, \r    \"additionalMeasures\":[\r    ], \r    \"sortBy\":\"x\", \r    \"sortByDir\":{\r        \"sortBy\":{\r            \"specifier\":\"ascending\", \r            \"displayValue\":null\r        }\r    }, \r    \"formulaParams\":{\r        \"formulaName\":null, \r        \"targetDate\":\"2015-10-20\", \r        \"targetDateField\":null, \r        \"skuField\":null, \r        \"simulationSet\":null, \r        \"inputParams\":[\r        ], \r        \"mappingParams\":[\r        ], \r        \"outputElements\":[\r        ], \r        \"feederFormulaName\":null, \r        \"feederInputParams\":[\r        ]\r    }\r}" ]
  },
  "chartType" : "PIE",
  "createdByName" : "n.seeger",
  "label" : "Anteil Anzahl Kunde_Klasse",
  "uniqueName" : "n.seeger__1445947457829",
  "visibility" : "PUBLIC"
}