{
  "chartDefinition" : {
    "auxLines" : [ ],
    "chartType" : "BAR",
    "dictionary" : "[{\"sectionIdx\":1,\"category\":\"PROJECTION\",\"key\":\"x\",\"sectionLabel\":\"Series1\",\"categoryLabel\":\"Projektion\",\"keyLabel\":\"X-Achse\",\"defaultValue\":\"Prodh. IV\"},{\"sectionIdx\":1,\"category\":\"PROJECTION\",\"key\":\"y\",\"sectionLabel\":\"Series1\",\"categoryLabel\":\"Projektion\",\"keyLabel\":\"Y-Achse\",\"defaultValue\":\"∑Summe Umsatz\"},{\"sectionIdx\":1,\"category\":\"PROJECTION\",\"key\":\"bplot_y\",\"sectionLabel\":\"Series1\",\"categoryLabel\":\"Projektion\",\"keyLabel\":\"Y-Achse (Boxplot)\",\"defaultValue\":\"Summe Umsatz\"},{\"sectionIdx\":2,\"category\":\"PROJECTION\",\"key\":\"x\",\"sectionLabel\":\"Series2\",\"categoryLabel\":\"Projektion\",\"keyLabel\":\"X-Achse\",\"defaultValue\":\"Prodh. IV\"},{\"sectionIdx\":2,\"category\":\"PROJECTION\",\"key\":\"y\",\"sectionLabel\":\"Series2\",\"categoryLabel\":\"Projektion\",\"keyLabel\":\"Y-Achse\",\"defaultValue\":\"∑SIM_Umsatz\"},{\"sectionIdx\":2,\"category\":\"PROJECTION\",\"key\":\"bplot_y\",\"sectionLabel\":\"Series2\",\"categoryLabel\":\"Projektion\",\"keyLabel\":\"Y-Achse (Boxplot)\",\"defaultValue\":\"SIM_Umsatz\"}]",
    "options" : "{\r    \"title\":\"\", \r    \"subtitle\":\"\", \r    \"comparison\":true, \r    \"hideLegend\":false, \r    \"hideTooltips\":false, \r    \"xLabel\":\"\", \r    \"yLabel\":\"\", \r    \"comparisonType\":\"GROUPED\", \r    \"maxPoints\":\"0\", \r    \"showZAxis\":\"false\", \r    \"zAxisLabel\":\"Other\", \r    \"bplotLabel\":\"Box plot\"\r}",
    "series" : [ "{\r    \"datamart\":\"S000458.DMKonditionen2014PHVOhne\", \r    \"label\":\"Series1\", \r    \"hideDataLabels\":true, \r    \"lineLevelFilter\":{\r        \"_constructor\":\"AdvancedCriteria\", \r        \"operator\":\"and\", \r        \"criteria\":[\r            {\r                \"fieldName\":\"C2_ReadyForSim\", \r                \"operator\":\"equals\", \r                \"value\":\"Yes\"\r            }, \r            {\r                \"fieldName\":\"Land\", \r                \"operator\":\"equals\", \r                \"value\":\"Deutschland\"\r            }\r        ]\r    }, \r    \"filterTooltip\":\"Ready for Simulation is equal to Yes and Land is equal to Deutschland\", \r    \"dimFilters\":[\r        {\r            \"fieldName\":\"SM\", \r            \"fieldValue\":\"HDE9280 Alexander Klumpp\", \r            \"fieldSynced\":false\r        }\r    ], \r    \"currency\":\"EUR\", \r    \"calculatedFieldFormulaControllerState\":{\r        \"rowLimit\":{\r            \"aggregationFormula\":\"SUM\"\r        }, \r        \"y\":{\r            \"aggregationFormula\":\"SUM\"\r        }\r    }, \r    \"calculatedFieldNonAggrFormulaControllerState\":{\r        \"bplot_y\":{\r            \"nonAggregationFormula\":\"FIELD\"\r        }\r    }, \r    \"x\":\"ProdhIV\", \r    \"y\":\"Summe_Umsatz\", \r    \"bplot_y\":\"Summe_Umsatz\", \r    \"rowLimit\":{\r    }, \r    \"additionalMeasures\":[\r    ], \r    \"seriesType\":\"BAR\", \r    \"sortBy\":\"x\", \r    \"sortByDir\":{\r        \"sortBy\":{\r            \"specifier\":\"ascending\", \r            \"displayValue\":null\r        }\r    }, \r    \"whiskerType\":\"MIN_MAX\", \r    \"showBoxplot\":\"false\", \r    \"formulaParams\":{\r        \"formulaName\":null, \r        \"targetDate\":\"2015-09-20\", \r        \"targetDateField\":null, \r        \"skuField\":null, \r        \"simulationSet\":null, \r        \"inputParams\":[\r        ], \r        \"mappingParams\":[\r        ], \r        \"outputElements\":[\r        ], \r        \"feederFormulaName\":null, \r        \"feederInputParams\":[\r        ]\r    }\r}", "{\r    \"datamart\":\"S000458.DMKonditionen2014PHVOhne\", \r    \"label\":\"Series2\", \r    \"hideDataLabels\":true, \r    \"lineLevelFilter\":{\r        \"_constructor\":\"AdvancedCriteria\", \r        \"operator\":\"and\", \r        \"criteria\":[\r            {\r                \"fieldName\":\"C2_ReadyForSim\", \r                \"operator\":\"equals\", \r                \"value\":\"Yes\"\r            }, \r            {\r                \"fieldName\":\"Land\", \r                \"operator\":\"equals\", \r                \"value\":\"Deutschland\"\r            }\r        ]\r    }, \r    \"filterTooltip\":\"Ready for Simulation is equal to Yes and Land is equal to Deutschland\", \r    \"dimFilters\":[\r        {\r            \"fieldName\":\"SM\", \r            \"fieldValue\":\"HDE9280 Alexander Klumpp\", \r            \"fieldSynced\":false\r        }\r    ], \r    \"currency\":\"EUR\", \r    \"calculatedFieldFormulaControllerState\":{\r        \"rowLimit\":{\r            \"aggregationFormula\":\"SUM\"\r        }, \r        \"y\":{\r            \"aggregationFormula\":\"SUM\"\r        }\r    }, \r    \"calculatedFieldNonAggrFormulaControllerState\":{\r        \"bplot_y\":{\r            \"nonAggregationFormula\":\"FIELD\"\r        }\r    }, \r    \"x\":\"ProdhIV\", \r    \"y\":\"C1_SIM_Umsatz\", \r    \"bplot_y\":\"C1_SIM_Umsatz\", \r    \"rowLimit\":{\r    }, \r    \"additionalMeasures\":[\r    ], \r    \"seriesType\":\"BAR\", \r    \"sortBy\":\"x\", \r    \"sortByDir\":{\r        \"sortBy\":{\r            \"specifier\":\"ascending\", \r            \"displayValue\":null\r        }\r    }, \r    \"whiskerType\":\"MIN_MAX\", \r    \"showBoxplot\":\"false\", \r    \"formulaParams\":{\r        \"formulaName\":null, \r        \"targetDate\":\"2015-09-20\", \r        \"targetDateField\":null, \r        \"skuField\":null, \r        \"simulationSet\":null, \r        \"inputParams\":[\r        ], \r        \"mappingParams\":[\r        ], \r        \"outputElements\":[\r        ], \r        \"feederFormulaName\":null, \r        \"feederInputParams\":[\r        ]\r    }\r}" ]
  },
  "chartType" : "BAR",
  "createdByName" : "n.seeger",
  "description" : "RfS=Yes; DIM CI; Umsatz pre/post; auf Ebene Prodh IV",
  "label" : "Umsatz-Diff_SM_PH IV",
  "uniqueName" : "n.seeger__1443684628122",
  "visibility" : "PUBLIC"
}