{
  "chartDefinition" : {
    "auxLines" : [ ],
    "chartType" : "DATATABLE",
    "dictionary" : "[{\"sectionIdx\":1,\"category\":\"PROJECTION\",\"key\":\"m1\",\"sectionLabel\":\"Serie1\",\"categoryLabel\":\"Projektion\",\"keyLabel\":\"Messwert 1\",\"defaultValue\":\"∑Summe Umsatz\"},{\"sectionIdx\":1,\"category\":\"PROJECTION\",\"key\":\"m2\",\"sectionLabel\":\"Serie1\",\"categoryLabel\":\"Projektion\",\"keyLabel\":\"Messwert 2\",\"defaultValue\":\"∑SIM_Umsatz\"}]",
    "options" : "{\r}",
    "series" : [ "{\r    \"datamart\":\"DMSIM.DM2015_mitClearing\", \r    \"label\":\"Serie1\", \r    \"hideDataLabels\":true, \r    \"lineLevelFilter\":{\r        \"_constructor\":\"AdvancedCriteria\", \r        \"operator\":\"and\", \r        \"criteria\":[\r            {\r                \"fieldName\":\"C2_ReadyForSim\", \r                \"operator\":\"equals\", \r                \"value\":\"Yes\"\r            }\r        ]\r    }, \r    \"filterTooltip\":\"Ready for Simulation is equal to Yes\", \r    \"currency\":\"EUR\", \r    \"calculatedFieldFormulaControllerState\":{\r    }, \r    \"calculatedFieldNonAggrFormulaControllerState\":{\r    }, \r    \"additionalMeasures\":[\r        {\r            \"aggrFormula\":\"SUM\", \r            \"name\":\"Summe_Umsatz\", \r            \"id\":1\r        }, \r        {\r            \"aggrFormula\":\"SUM\", \r            \"name\":\"C1_SIM_Umsatz\", \r            \"id\":2\r        }\r    ], \r    \"groupByDims\":[\r        \"CustomerID\"\r    ], \r    \"formulaParams\":{\r        \"formulaName\":null, \r        \"targetDate\":\"2015-09-21\", \r        \"targetDateField\":null, \r        \"skuField\":null, \r        \"simulationSet\":null, \r        \"inputParams\":[\r        ], \r        \"mappingParams\":[\r        ], \r        \"outputElements\":[\r        ], \r        \"feederFormulaName\":null, \r        \"feederInputParams\":[\r        ]\r    }, \r    \"seriesGridPreferences\":{\r        \"typedId\":null, \r        \"version\":null, \r        \"preferenceType\":null, \r        \"preferenceName\":null, \r        \"areGlobal\":true, \r        \"areDefault\":true, \r        \"viewState\":\"({field:[{name:\\\"m1\\\"},{name:\\\"m2\\\"}]})\", \r        \"filter\":\"{}\", \r        \"columnLabels\":null\r    }\r}" ]
  },
  "chartType" : "DATATABLE",
  "createdByName" : "n.seeger",
  "label" : "Kunden-Umsatzvergleich kum.",
  "uniqueName" : "n.seeger__1442839092571",
  "visibility" : "PUBLIC"
}