{
  "chartDefinition" : {
    "auxLines" : [ ],
    "chartType" : "DATATABLE",
    "dictionary" : "[{\"sectionIdx\":1,\"category\":\"PROJECTION\",\"key\":\"m1\",\"sectionLabel\":\"Artikelverkäufe mit CRM-Nummer\",\"categoryLabel\":\"Projektion\",\"keyLabel\":\"Messwert 1\",\"defaultValue\":\"Ø Preis per 100\"},{\"sectionIdx\":1,\"category\":\"PROJECTION\",\"key\":\"m2\",\"sectionLabel\":\"Artikelverkäufe mit CRM-Nummer\",\"categoryLabel\":\"Projektion\",\"keyLabel\":\"Messwert 2\",\"defaultValue\":\"Ø Bestellmenge/Fakture\"},{\"sectionIdx\":1,\"category\":\"PROJECTION\",\"key\":\"Sku\",\"sectionLabel\":\"Artikelverkäufe mit CRM-Nummer\",\"categoryLabel\":\"Projektion\",\"keyLabel\":\"Sku\",\"defaultValue\":\"Sku\"}]",
    "dynamicFCsWidget" : "{\n}",
    "options" : "{\n}",
    "series" : [ "{\n    \"datamart\":\"DM.TX_DM\", \n    \"label\":\"Artikelverkäufe mit CRM-Nummer\", \n    \"hideDataLabels\":true, \n    \"lineLevelFilter\":{\n        \"_constructor\":\"AdvancedCriteria\", \n        \"operator\":\"and\", \n        \"criteria\":[\n            {\n                \"operator\":\"notNull\", \n                \"fieldName\":\"CRM_Nummer\"\n            }, \n            {\n                \"fieldName\":\"Inland_Ausland\", \n                \"operator\":\"equals\", \n                \"value\":\"Inland\"\n            }, \n            {\n                \"fieldName\":\"Verkaufsbereich3\", \n                \"operator\":\"notEqual\", \n                \"value\":\"Bozen\"\n            }\n        ]\n    }, \n    \"filterTooltip\":\"CRM-Nummer is ist nicht NULL and Inland_Ausland is equal to Inland and Verkaufsbereich3 is not equal to Bozen\", \n    \"currency\":\"EUR\", \n    \"calculatedFieldFormulaControllerState\":{\n    }, \n    \"calculatedFieldNonAggrFormulaControllerState\":{\n    }, \n    \"additionalMeasures\":[\n        {\n            \"aggrFormula\":\"FUNCTION\", \n            \"name\":\"Transaktionspreis\", \n            \"id\":1, \n            \"isSelected\":false, \n            \"aggrFormula_value\":{\n                \"specifier\":\"FUNCTION\", \n                \"displayValue\":\"Ø Preis per 100\", \n                \"value\":{\n                    \"alias\":null, \n                    \"name\":null, \n                    \"expression\":\"Avg(Transaktionspreis)*100\", \n                    \"function\":null, \n                    \"default\":null, \n                    \"label\":\"Ø Preis per 100\", \n                    \"formatString\":\"Ø Preis per 100\", \n                    \"parameters\":{\n                    }\n                }\n            }, \n            \"aggrFormula_display\":\"Ø Preis per 100\"\n        }, \n        {\n            \"aggrFormula\":\"FUNCTION\", \n            \"name\":\"Menge\", \n            \"id\":2, \n            \"isSelected\":true, \n            \"aggrFormula_value\":{\n                \"specifier\":\"FUNCTION\", \n                \"displayValue\":\"Ø Bestellmenge/Rechnung\", \n                \"value\":{\n                    \"alias\":null, \n                    \"name\":null, \n                    \"expression\":\"SUM({field})/Count(Faktura_Belegnummer)\", \n                    \"function\":null, \n                    \"default\":null, \n                    \"label\":\"Ø Bestellmenge/Rechnung\", \n                    \"formatString\":\"Ø Bestellmenge/Rechnung\", \n                    \"parameters\":{\n                    }\n                }\n            }, \n            \"aggrFormula_display\":\"Ø Bestellmenge/Rechnung\"\n        }\n    ], \n    \"groupByDims\":[\n        \"Sku\"\n    ], \n    \"formulaParams\":{\n        \"formulaName\":null, \n        \"targetDate\":\"2016-11-28\", \n        \"targetDateField\":null, \n        \"skuField\":null, \n        \"simulationSet\":null, \n        \"inputParams\":[\n        ], \n        \"mappingParams\":[\n        ], \n        \"outputElements\":[\n        ], \n        \"feederFormulaName\":null, \n        \"feederInputParams\":[\n        ]\n    }, \n    \"seriesGridPreferences\":{\n        \"typedId\":null, \n        \"version\":null, \n        \"preferenceType\":null, \n        \"preferenceName\":null, \n        \"areGlobal\":true, \n        \"areDefault\":true, \n        \"viewState\":\"({field:[{name:\\\"groupBy1\\\"},{name:\\\"m1\\\"},{name:\\\"m2\\\"}]})\", \n        \"filter\":\"{}\", \n        \"columnLabels\":null\n    }\n}" ]
  },
  "chartType" : "DATATABLE",
  "createdByName" : "n.seeger",
  "externalChartDefinition" : {
    "highchart" : null,
    "queryDTOs" : [ {
      "aggregateFilter" : null,
      "datamart" : "DM.TX_DM",
      "filter" : {
        "_constructor" : "AdvancedCriteria",
        "criteria" : [ {
          "fieldName" : "CRM_Nummer",
          "operator" : "notNull"
        }, {
          "fieldName" : "Inland_Ausland",
          "operator" : "equals",
          "value" : "Inland"
        }, {
          "fieldName" : "Verkaufsbereich3",
          "operator" : "notEqual",
          "value" : "Bozen"
        } ],
        "operator" : "and"
      },
      "label" : "Artikelverkäufe mit CRM-Nummer",
      "name" : null,
      "options" : {
        "currency" : "EUR"
      },
      "projections" : {
        "groupBy1" : "Sku",
        "m1" : {
          "alias" : "m1",
          "default" : null,
          "expression" : "Avg(Transaktionspreis)*100",
          "formatString" : "Ø Preis per 100",
          "function" : null,
          "label" : "Ø Preis per 100",
          "name" : "Transaktionspreis",
          "parameters" : {
            "base" : "Grundpreis_Neu",
            "field" : "Transaktionspreis",
            "quantity" : "Menge"
          }
        },
        "m2" : {
          "alias" : "m2",
          "default" : null,
          "expression" : "SUM({field})/Count(Faktura_Belegnummer)",
          "formatString" : "Ø Bestellmenge/Rechnung",
          "function" : null,
          "label" : "Ø Bestellmenge/Rechnung",
          "name" : "Menge",
          "parameters" : {
            "base" : "Grundpreis_Neu",
            "field" : "Menge",
            "quantity" : "Menge"
          }
        }
      },
      "rollup" : true,
      "sortBy" : [ "groupBy1" ],
      "source" : "DM.TX_DM"
    } ]
  },
  "label" : "Verkäufe mit CRM-Nummer",
  "uniqueName" : "n.seeger__1480335820973"
}