{
  "chartDefinition" : {
    "auxLines" : [ ],
    "chartType" : "DATATABLE",
    "dictionary" : "[{\"sectionIdx\":1,\"category\":\"PROJECTION\",\"key\":\"m1\",\"sectionLabel\":\"Serie1\",\"categoryLabel\":\"Projektion\",\"keyLabel\":\"Messwert 1\",\"defaultValue\":\"∑Summe Menge\"},{\"sectionIdx\":1,\"category\":\"PROJECTION\",\"key\":\"m10\",\"sectionLabel\":\"Serie1\",\"categoryLabel\":\"Projektion\",\"keyLabel\":\"Messwert 10\",\"defaultValue\":\"∑Clearing-Rabatte\"},{\"sectionIdx\":1,\"category\":\"PROJECTION\",\"key\":\"m2\",\"sectionLabel\":\"Serie1\",\"categoryLabel\":\"Projektion\",\"keyLabel\":\"Messwert 2\",\"defaultValue\":\"Avg(Durchschnittpreis_vorKopfrabatt)\"},{\"sectionIdx\":1,\"category\":\"PROJECTION\",\"key\":\"m3\",\"sectionLabel\":\"Serie1\",\"categoryLabel\":\"Projektion\",\"keyLabel\":\"Messwert 3\",\"defaultValue\":\"Avg(C1_NetPreis)\"},{\"sectionIdx\":1,\"category\":\"PROJECTION\",\"key\":\"m4\",\"sectionLabel\":\"Serie1\",\"categoryLabel\":\"Projektion\",\"keyLabel\":\"Messwert 4\",\"defaultValue\":\"∑Summe_Umsatz_vorKopfrabatt\"},{\"sectionIdx\":1,\"category\":\"PROJECTION\",\"key\":\"m5\",\"sectionLabel\":\"Serie1\",\"categoryLabel\":\"Projektion\",\"keyLabel\":\"Messwert 5\",\"defaultValue\":\"∑SIM_Umsatz\"},{\"sectionIdx\":1,\"category\":\"PROJECTION\",\"key\":\"m6\",\"sectionLabel\":\"Serie1\",\"categoryLabel\":\"Projektion\",\"keyLabel\":\"Messwert 6\",\"defaultValue\":\"∑Differential Umsatz (Sim-historic) in Sum\"},{\"sectionIdx\":1,\"category\":\"PROJECTION\",\"key\":\"m7\",\"sectionLabel\":\"Serie1\",\"categoryLabel\":\"Projektion\",\"keyLabel\":\"Messwert 7\",\"defaultValue\":\"Avg(C1_Umsatz_Diff_prozentual)\"},{\"sectionIdx\":1,\"category\":\"PROJECTION\",\"key\":\"m8\",\"sectionLabel\":\"Serie1\",\"categoryLabel\":\"Projektion\",\"keyLabel\":\"Messwert 8\",\"defaultValue\":\"∑Summe_DB_vorKopfrabatt\"},{\"sectionIdx\":1,\"category\":\"PROJECTION\",\"key\":\"m9\",\"sectionLabel\":\"Serie1\",\"categoryLabel\":\"Projektion\",\"keyLabel\":\"Messwert 9\",\"defaultValue\":\"∑SIM_DB\"},{\"sectionIdx\":1,\"category\":\"PROJECTION\",\"key\":\"ProductLabel\",\"sectionLabel\":\"Serie1\",\"categoryLabel\":\"Projektion\",\"keyLabel\":\"Product Label\",\"defaultValue\":\"Product Label\"},{\"sectionIdx\":1,\"category\":\"PROJECTION\",\"key\":\"Sku\",\"sectionLabel\":\"Serie1\",\"categoryLabel\":\"Projektion\",\"keyLabel\":\"Sku\",\"defaultValue\":\"Sku\"}]",
    "options" : "{\n}",
    "series" : [ "{\n    \"datamart\":\"DMSIM.DM201516_oKopfr_mCRM_Clearing\", \n    \"label\":\"Serie1\", \n    \"hideDataLabels\":true, \n    \"lineLevelFilter\":{\n        \"_constructor\":\"AdvancedCriteria\", \n        \"operator\":\"and\", \n        \"criteria\":[\n            {\n                \"fieldName\":\"C2_ReadyForSim\", \n                \"operator\":\"equals\", \n                \"value\":\"Yes\"\n            }, \n            {\n                \"fieldName\":\"Inland_Ausland\", \n                \"operator\":\"equals\", \n                \"value\":\"Inland\"\n            }\n        ]\n    }, \n    \"filterTooltip\":\"Ready for Simulation is equal to Yes and Inland_Ausland is equal to Inland\", \n    \"dimFilters\":[\n        {\n            \"fieldName\":\"CustomerID\", \n            \"fieldValue\":\"0001000728\", \n            \"fieldSynced\":false\n        }\n    ], \n    \"currency\":\"EUR\", \n    \"calculatedFieldFormulaControllerState\":{\n    }, \n    \"calculatedFieldNonAggrFormulaControllerState\":{\n    }, \n    \"additionalMeasures\":[\n        {\n            \"aggrFormula\":\"SUM\", \n            \"name\":\"Summe_Menge\", \n            \"id\":1, \n            \"isSelected\":false, \n            \"aggrFormula_value\":{\n                \"specifier\":\"SUM\", \n                \"displayValue\":\"∑{field}\", \n                \"value\":{\n                    \"alias\":null, \n                    \"name\":null, \n                    \"expression\":\"SUM({field})\", \n                    \"function\":null, \n                    \"default\":null, \n                    \"label\":\"∑{field}\", \n                    \"formatString\":\"∑{field}\", \n                    \"parameters\":{\n                    }\n                }\n            }, \n            \"aggrFormula_display\":\"∑{field}\"\n        }, \n        {\n            \"aggrFormula\":\"FUNCTION\", \n            \"name\":\"Durchschnittpreis_vorKopfrabatt\", \n            \"id\":2, \n            \"isSelected\":false, \n            \"aggrFormula_display\":\"Avg(Durchschnittpreis_vorKopfrabatt)\", \n            \"aggrFormula_value\":{\n                \"specifier\":\"FUNCTION\", \n                \"displayValue\":\"Avg(Durchschnittpreis_vorKopfrabatt)\", \n                \"value\":{\n                    \"alias\":null, \n                    \"name\":null, \n                    \"expression\":\"Avg(Durchschnittpreis_vorKopfrabatt)\", \n                    \"function\":null, \n                    \"default\":null, \n                    \"label\":\"Avg(Durchschnittpreis_vorKopfrabatt)\", \n                    \"formatString\":\"Avg(Durchschnittpreis_vorKopfrabatt)\", \n                    \"parameters\":{\n                    }\n                }\n            }\n        }, \n        {\n            \"aggrFormula\":\"FUNCTION\", \n            \"name\":\"C1_NetPreis\", \n            \"id\":3, \n            \"isSelected\":false, \n            \"aggrFormula_display\":\"Avg(C1_NetPreis)\", \n            \"aggrFormula_value\":{\n                \"specifier\":\"FUNCTION\", \n                \"displayValue\":\"Avg(C1_NetPreis)\", \n                \"value\":{\n                    \"alias\":null, \n                    \"name\":null, \n                    \"expression\":\"Avg(C1_NetPreis)\", \n                    \"function\":null, \n                    \"default\":null, \n                    \"label\":\"Avg(C1_NetPreis)\", \n                    \"formatString\":\"Avg(C1_NetPreis)\", \n                    \"parameters\":{\n                    }\n                }\n            }\n        }, \n        {\n            \"aggrFormula\":\"SUM\", \n            \"name\":\"Summe_Umsatz_vorKopfrabatt\", \n            \"id\":4, \n            \"aggrFormula_value\":{\n                \"specifier\":\"SUM\", \n                \"displayValue\":\"∑{field}\", \n                \"value\":{\n                    \"alias\":null, \n                    \"name\":null, \n                    \"expression\":\"SUM({field})\", \n                    \"function\":null, \n                    \"default\":null, \n                    \"label\":\"∑{field}\", \n                    \"formatString\":\"∑{field}\", \n                    \"parameters\":{\n                    }\n                }\n            }, \n            \"aggrFormula_display\":\"∑{field}\", \n            \"isSelected\":false\n        }, \n        {\n            \"aggrFormula\":\"SUM\", \n            \"name\":\"C1_SIM_Umsatz\", \n            \"id\":5, \n            \"aggrFormula_value\":{\n                \"specifier\":\"SUM\", \n                \"displayValue\":\"∑{field}\", \n                \"value\":{\n                    \"alias\":null, \n                    \"name\":null, \n                    \"expression\":\"SUM({field})\", \n                    \"function\":null, \n                    \"default\":null, \n                    \"label\":\"∑{field}\", \n                    \"formatString\":\"∑{field}\", \n                    \"parameters\":{\n                    }\n                }\n            }, \n            \"aggrFormula_display\":\"∑{field}\"\n        }, \n        {\n            \"aggrFormula\":\"SUM\", \n            \"name\":\"C1_Umsatz_Diff\", \n            \"id\":6, \n            \"aggrFormula_value\":{\n                \"specifier\":\"SUM\", \n                \"displayValue\":\"∑{field}\", \n                \"value\":{\n                    \"alias\":null, \n                    \"name\":null, \n                    \"expression\":\"SUM({field})\", \n                    \"function\":null, \n                    \"default\":null, \n                    \"label\":\"∑{field}\", \n                    \"formatString\":\"∑{field}\", \n                    \"parameters\":{\n                    }\n                }\n            }, \n            \"aggrFormula_display\":\"∑{field}\", \n            \"isSelected\":false\n        }, \n        {\n            \"aggrFormula\":\"FUNCTION\", \n            \"name\":\"C1_Umsatz_Diff_prozentual\", \n            \"id\":7, \n            \"isSelected\":false, \n            \"aggrFormula_value\":{\n                \"specifier\":\"FUNCTION\", \n                \"displayValue\":\"Avg(C1_Umsatz_Diff_prozentual)\", \n                \"value\":{\n                    \"alias\":null, \n                    \"name\":null, \n                    \"expression\":\"Avg(C1_Umsatz_Diff_prozentual)\", \n                    \"function\":null, \n                    \"default\":null, \n                    \"label\":\"Avg(C1_Umsatz_Diff_prozentual)\", \n                    \"formatString\":\"Avg(C1_Umsatz_Diff_prozentual)\", \n                    \"parameters\":{\n                    }\n                }\n            }, \n            \"aggrFormula_display\":\"Avg(C1_Umsatz_Diff_prozentual)\"\n        }, \n        {\n            \"aggrFormula\":\"SUM\", \n            \"name\":\"Summe_DB_vorKopfrabatt\", \n            \"id\":8, \n            \"aggrFormula_value\":{\n                \"specifier\":\"SUM\", \n                \"displayValue\":\"∑{field}\", \n                \"value\":{\n                    \"alias\":null, \n                    \"name\":null, \n                    \"expression\":\"SUM({field})\", \n                    \"function\":null, \n                    \"default\":null, \n                    \"label\":\"∑{field}\", \n                    \"formatString\":\"∑{field}\", \n                    \"parameters\":{\n                    }\n                }\n            }, \n            \"aggrFormula_display\":\"∑{field}\"\n        }, \n        {\n            \"aggrFormula\":\"SUM\", \n            \"name\":\"C1_SIM_DB\", \n            \"id\":9, \n            \"aggrFormula_value\":{\n                \"specifier\":\"SUM\", \n                \"displayValue\":\"∑{field}\", \n                \"value\":{\n                    \"alias\":null, \n                    \"name\":null, \n                    \"expression\":\"SUM({field})\", \n                    \"function\":null, \n                    \"default\":null, \n                    \"label\":\"∑{field}\", \n                    \"formatString\":\"∑{field}\", \n                    \"parameters\":{\n                    }\n                }\n            }, \n            \"aggrFormula_display\":\"∑{field}\"\n        }, \n        {\n            \"aggrFormula\":\"SUM\", \n            \"name\":\"C1_ClearingRabatt\", \n            \"id\":10, \n            \"aggrFormula_value\":{\n                \"specifier\":\"SUM\", \n                \"displayValue\":\"∑{field}\", \n                \"value\":{\n                    \"alias\":null, \n                    \"name\":null, \n                    \"expression\":\"SUM({field})\", \n                    \"function\":null, \n                    \"default\":null, \n                    \"label\":\"∑{field}\", \n                    \"formatString\":\"∑{field}\", \n                    \"parameters\":{\n                    }\n                }\n            }, \n            \"aggrFormula_display\":\"∑{field}\"\n        }\n    ], \n    \"groupByDims\":[\n        \"Sku\", \n        \"ProductLabel\"\n    ], \n    \"formulaParams\":{\n        \"formulaName\":null, \n        \"targetDate\":\"2016-06-19\", \n        \"targetDateField\":null, \n        \"skuField\":null, \n        \"simulationSet\":null, \n        \"inputParams\":[\n        ], \n        \"mappingParams\":[\n        ], \n        \"outputElements\":[\n        ], \n        \"feederFormulaName\":null, \n        \"feederInputParams\":[\n        ]\n    }, \n    \"seriesGridPreferences\":{\n        \"typedId\":null, \n        \"version\":null, \n        \"preferenceType\":null, \n        \"preferenceName\":null, \n        \"areGlobal\":true, \n        \"areDefault\":true, \n        \"viewState\":\"({field:[{name:\\\"groupBy1\\\"},{name:\\\"groupBy2\\\"},{name:\\\"m1\\\"},{name:\\\"m2\\\"},{name:\\\"m3\\\"},{name:\\\"m4\\\"},{name:\\\"m5\\\"},{name:\\\"m6\\\"},{name:\\\"m7\\\"},{name:\\\"m8\\\"},{name:\\\"m9\\\"},{name:\\\"m10\\\"}],group:[{fieldName:\\\"groupBy1\\\",groupingMode:null,groupGranularity:null,groupPrecision:null}]})\", \n        \"filter\":\"{}\", \n        \"columnLabels\":null\n    }\n}" ]
  },
  "chartType" : "DATATABLE",
  "createdByName" : "n.seeger",
  "description" : "mit Clearing\nDM201516",
  "label" : "Kunden-Preisübersicht-alt-neu",
  "uniqueName" : "n.seeger__1466341042436",
  "visibility" : "PUBLIC"
}