{
  "chartDefinition" : {
    "auxLines" : [ ],
    "chartType" : "DATATABLE",
    "dictionary" : "[{\"sectionIdx\":1,\"category\":\"PROJECTION\",\"key\":\"Kunde_Klasse\",\"sectionLabel\":\"Serie1\",\"categoryLabel\":\"Projektion\",\"keyLabel\":\"Kunde Klasse\",\"defaultValue\":\"Kunde Klasse\"},{\"sectionIdx\":1,\"category\":\"PROJECTION\",\"key\":\"m1\",\"sectionLabel\":\"Serie1\",\"categoryLabel\":\"Projektion\",\"keyLabel\":\"Messwert 1\",\"defaultValue\":\"∑Summe_Umsatz_vorKopfrabatt\"},{\"sectionIdx\":1,\"category\":\"PROJECTION\",\"key\":\"m2\",\"sectionLabel\":\"Serie1\",\"categoryLabel\":\"Projektion\",\"keyLabel\":\"Messwert 2\",\"defaultValue\":\"∑SIM_Umsatz\"},{\"sectionIdx\":1,\"category\":\"PROJECTION\",\"key\":\"m3\",\"sectionLabel\":\"Serie1\",\"categoryLabel\":\"Projektion\",\"keyLabel\":\"Messwert 3\",\"defaultValue\":\"∑Differential Umsatz (Sim-historic) in Sum\"},{\"sectionIdx\":1,\"category\":\"PROJECTION\",\"key\":\"m4\",\"sectionLabel\":\"Serie1\",\"categoryLabel\":\"Projektion\",\"keyLabel\":\"Messwert 4\",\"defaultValue\":\"∑Summe_DB_vorKopfrabatt\"},{\"sectionIdx\":1,\"category\":\"PROJECTION\",\"key\":\"m5\",\"sectionLabel\":\"Serie1\",\"categoryLabel\":\"Projektion\",\"keyLabel\":\"Messwert 5\",\"defaultValue\":\"∑SIM_DB\"},{\"sectionIdx\":1,\"category\":\"PROJECTION\",\"key\":\"m6\",\"sectionLabel\":\"Serie1\",\"categoryLabel\":\"Projektion\",\"keyLabel\":\"Messwert 6\",\"defaultValue\":\"∑Differential DBs (Sim-historic) in Sum\"},{\"sectionIdx\":1,\"category\":\"PROJECTION\",\"key\":\"SM\",\"sectionLabel\":\"Serie1\",\"categoryLabel\":\"Projektion\",\"keyLabel\":\"SM\",\"defaultValue\":\"SM\"},{\"sectionIdx\":1,\"category\":\"PROJECTION\",\"key\":\"Verkaufsbereich3\",\"sectionLabel\":\"Serie1\",\"categoryLabel\":\"Projektion\",\"keyLabel\":\"Verkaufsbereich3\",\"defaultValue\":\"Verkaufsbereich3\"}]",
    "options" : "{\n}",
    "series" : [ "{\n    \"datamart\":\"DMSIM.DM201516_oKopfr_mitCRM\", \n    \"label\":\"Serie1\", \n    \"hideDataLabels\":true, \n    \"lineLevelFilter\":{\n        \"_constructor\":\"AdvancedCriteria\", \n        \"operator\":\"and\", \n        \"criteria\":[\n            {\n                \"fieldName\":\"C2_ReadyForSim\", \n                \"operator\":\"equals\", \n                \"value\":\"Yes\", \n                \"_constructor\":\"AdvancedCriteria\"\n            }\n        ]\n    }, \n    \"filterTooltip\":\"Ready for Simulation is equal to Yes\", \n    \"dimFilters\":[\n        {\n            \"fieldName\":\"Inland_Ausland\", \n            \"fieldValue\":\"Inland\", \n            \"fieldSynced\":false\n        }\n    ], \n    \"currency\":\"EUR\", \n    \"calculatedFieldFormulaControllerState\":{\n    }, \n    \"calculatedFieldNonAggrFormulaControllerState\":{\n    }, \n    \"additionalMeasures\":[\n        {\n            \"aggrFormula\":\"SUM\", \n            \"name\":\"Summe_Umsatz_vorKopfrabatt\", \n            \"id\":1\n        }, \n        {\n            \"aggrFormula\":\"SUM\", \n            \"name\":\"C1_SIM_Umsatz\", \n            \"id\":2\n        }, \n        {\n            \"aggrFormula\":\"SUM\", \n            \"name\":\"C1_Umsatz_Diff\", \n            \"id\":3\n        }, \n        {\n            \"aggrFormula\":\"SUM\", \n            \"name\":\"Summe_DB_vorKopfrabatt\", \n            \"id\":4\n        }, \n        {\n            \"aggrFormula\":\"SUM\", \n            \"name\":\"C1_SIM_DB\", \n            \"id\":5\n        }, \n        {\n            \"aggrFormula\":\"SUM\", \n            \"name\":\"C1_DB_Diff\", \n            \"id\":6\n        }\n    ], \n    \"groupByDims\":[\n        \"Kunde_Klasse\", \n        \"SM\", \n        \"Verkaufsbereich3\"\n    ], \n    \"formulaParams\":{\n        \"formulaName\":null, \n        \"targetDate\":\"2016-06-17\", \n        \"targetDateField\":null, \n        \"skuField\":null, \n        \"simulationSet\":null, \n        \"inputParams\":[\n        ], \n        \"mappingParams\":[\n        ], \n        \"outputElements\":[\n        ], \n        \"feederFormulaName\":null, \n        \"feederInputParams\":[\n        ]\n    }, \n    \"seriesGridPreferences\":{\n        \"typedId\":null, \n        \"version\":null, \n        \"preferenceType\":null, \n        \"preferenceName\":null, \n        \"areGlobal\":true, \n        \"areDefault\":true, \n        \"viewState\":\"({field:[{name:\\\"groupBy1\\\"},{name:\\\"groupBy2\\\"},{name:\\\"groupBy3\\\"},{name:\\\"m1\\\"},{name:\\\"m2\\\"},{name:\\\"m3\\\"},{name:\\\"m4\\\"},{name:\\\"m5\\\"},{name:\\\"m6\\\"}],group:[{fieldName:\\\"groupBy1\\\",groupingMode:null,groupGranularity:null,groupPrecision:null},{fieldName:\\\"groupBy2\\\",groupingMode:null,groupGranularity:null,groupPrecision:null}]})\", \n        \"filter\":\"{}\", \n        \"columnLabels\":null\n    }\n}" ]
  },
  "chartType" : "DATATABLE",
  "createdByName" : "n.seeger",
  "description" : "DM201516_oKopfr_mitCRM\n\nPreisliste_ZPLP_HP1",
  "label" : "Kunde Klasse_SM_VB3",
  "uniqueName" : "n.seeger__1466144423426",
  "visibility" : "PUBLIC"
}