{
  "chartDefinition" : {
    "auxLines" : [ ],
    "chartType" : "DATATABLE",
    "dictionary" : "[{\"sectionIdx\":1,\"category\":\"PROJECTION\",\"key\":\"m3\",\"sectionLabel\":\"Serie1\",\"categoryLabel\":\"Projektion\",\"keyLabel\":\"Messwert 3\",\"defaultValue\":\"∑Summe Menge\"},{\"sectionIdx\":1,\"category\":\"PROJECTION\",\"key\":\"m4\",\"sectionLabel\":\"Serie1\",\"categoryLabel\":\"Projektion\",\"keyLabel\":\"Messwert 4\",\"defaultValue\":\"∑Summe_Umsatz_vorKopfrabatt\"},{\"sectionIdx\":1,\"category\":\"PROJECTION\",\"key\":\"m5\",\"sectionLabel\":\"Serie1\",\"categoryLabel\":\"Projektion\",\"keyLabel\":\"Messwert 5\",\"defaultValue\":\"∑SIM_Umsatz\"},{\"sectionIdx\":1,\"category\":\"PROJECTION\",\"key\":\"m6\",\"sectionLabel\":\"Serie1\",\"categoryLabel\":\"Projektion\",\"keyLabel\":\"Messwert 6\",\"defaultValue\":\"∑Differential Umsatz (Sim-historic) in Sum\"},{\"sectionIdx\":1,\"category\":\"PROJECTION\",\"key\":\"m7\",\"sectionLabel\":\"Serie1\",\"categoryLabel\":\"Projektion\",\"keyLabel\":\"Messwert 7\",\"defaultValue\":\"∑Summe_DB_vorKopfrabatt\"},{\"sectionIdx\":1,\"category\":\"PROJECTION\",\"key\":\"m8\",\"sectionLabel\":\"Serie1\",\"categoryLabel\":\"Projektion\",\"keyLabel\":\"Messwert 8\",\"defaultValue\":\"∑SIM_DB\"},{\"sectionIdx\":1,\"category\":\"PROJECTION\",\"key\":\"Sku\",\"sectionLabel\":\"Serie1\",\"categoryLabel\":\"Projektion\",\"keyLabel\":\"Sku\",\"defaultValue\":\"Sku\"}]",
    "options" : "{\n}",
    "series" : [ "{\n    \"datamart\":\"DMSIM.DM2015_v4_ohneKopfrabatt_1_1\", \n    \"label\":\"Serie1\", \n    \"hideDataLabels\":true, \n    \"lineLevelFilter\":{\n        \"_constructor\":\"AdvancedCriteria\", \n        \"operator\":\"and\", \n        \"criteria\":[\n            {\n                \"fieldName\":\"C2_ReadyForSim\", \n                \"operator\":\"equals\", \n                \"value\":\"Yes\"\n            }, \n            {\n                \"fieldName\":\"Verkaufsbereich3\", \n                \"operator\":\"equals\", \n                \"value\":\"Handel\"\n            }\n        ]\n    }, \n    \"filterTooltip\":\"Ready for Simulation is equal to Yes and Verkaufsbereich3 is equal to Handel\", \n    \"currency\":\"EUR\", \n    \"calculatedFieldFormulaControllerState\":{\n    }, \n    \"calculatedFieldNonAggrFormulaControllerState\":{\n    }, \n    \"additionalMeasures\":[\n        {\n            \"aggrFormula\":\"SUM\", \n            \"name\":\"Summe_Menge\", \n            \"id\":3, \n            \"isSelected\":false, \n            \"aggrFormula_value\":{\n                \"specifier\":\"SUM\", \n                \"displayValue\":\"∑{field}\", \n                \"value\":{\n                    \"alias\":null, \n                    \"name\":null, \n                    \"expression\":\"SUM({field})\", \n                    \"function\":null, \n                    \"default\":null, \n                    \"label\":\"∑{field}\", \n                    \"formatString\":\"∑{field}\", \n                    \"parameters\":{\n                    }\n                }\n            }, \n            \"aggrFormula_display\":\"∑{field}\"\n        }, \n        {\n            \"aggrFormula\":\"SUM\", \n            \"name\":\"Summe_Umsatz_vorKopfrabatt\", \n            \"id\":4, \n            \"aggrFormula_value\":{\n                \"specifier\":\"SUM\", \n                \"displayValue\":\"∑{field}\", \n                \"value\":{\n                    \"alias\":null, \n                    \"name\":null, \n                    \"expression\":\"SUM({field})\", \n                    \"function\":null, \n                    \"default\":null, \n                    \"label\":\"∑{field}\", \n                    \"formatString\":\"∑{field}\", \n                    \"parameters\":{\n                    }\n                }\n            }, \n            \"aggrFormula_display\":\"∑{field}\"\n        }, \n        {\n            \"aggrFormula\":\"SUM\", \n            \"name\":\"C1_SIM_Umsatz\", \n            \"id\":5, \n            \"isSelected\":false, \n            \"aggrFormula_value\":{\n                \"specifier\":\"SUM\", \n                \"displayValue\":\"∑{field}\", \n                \"value\":{\n                    \"alias\":null, \n                    \"name\":null, \n                    \"expression\":\"SUM({field})\", \n                    \"function\":null, \n                    \"default\":null, \n                    \"label\":\"∑{field}\", \n                    \"formatString\":\"∑{field}\", \n                    \"parameters\":{\n                    }\n                }\n            }, \n            \"aggrFormula_display\":\"∑{field}\"\n        }, \n        {\n            \"aggrFormula\":\"SUM\", \n            \"name\":\"C1_Umsatz_Diff\", \n            \"id\":6, \n            \"isSelected\":false, \n            \"aggrFormula_value\":{\n                \"specifier\":\"SUM\", \n                \"displayValue\":\"∑{field}\", \n                \"value\":{\n                    \"alias\":null, \n                    \"name\":null, \n                    \"expression\":\"SUM({field})\", \n                    \"function\":null, \n                    \"default\":null, \n                    \"label\":\"∑{field}\", \n                    \"formatString\":\"∑{field}\", \n                    \"parameters\":{\n                    }\n                }\n            }, \n            \"aggrFormula_display\":\"∑{field}\"\n        }, \n        {\n            \"aggrFormula\":\"SUM\", \n            \"name\":\"Summe_DB_vorKopfrabatt\", \n            \"id\":7, \n            \"aggrFormula_value\":{\n                \"specifier\":\"SUM\", \n                \"displayValue\":\"∑{field}\", \n                \"value\":{\n                    \"alias\":null, \n                    \"name\":null, \n                    \"expression\":\"SUM({field})\", \n                    \"function\":null, \n                    \"default\":null, \n                    \"label\":\"∑{field}\", \n                    \"formatString\":\"∑{field}\", \n                    \"parameters\":{\n                    }\n                }\n            }, \n            \"aggrFormula_display\":\"∑{field}\"\n        }, \n        {\n            \"aggrFormula\":\"SUM\", \n            \"name\":\"C1_SIM_DB\", \n            \"id\":8, \n            \"aggrFormula_value\":{\n                \"specifier\":\"SUM\", \n                \"displayValue\":\"∑{field}\", \n                \"value\":{\n                    \"alias\":null, \n                    \"name\":null, \n                    \"expression\":\"SUM({field})\", \n                    \"function\":null, \n                    \"default\":null, \n                    \"label\":\"∑{field}\", \n                    \"formatString\":\"∑{field}\", \n                    \"parameters\":{\n                    }\n                }\n            }, \n            \"aggrFormula_display\":\"∑{field}\"\n        }\n    ], \n    \"groupByDims\":[\n        \"Sku\"\n    ], \n    \"formulaParams\":{\n        \"formulaName\":null, \n        \"targetDate\":\"2016-05-25\", \n        \"targetDateField\":null, \n        \"skuField\":null, \n        \"simulationSet\":null, \n        \"inputParams\":[\n        ], \n        \"mappingParams\":[\n        ], \n        \"outputElements\":[\n        ], \n        \"feederFormulaName\":null, \n        \"feederInputParams\":[\n        ]\n    }, \n    \"seriesGridPreferences\":{\n        \"typedId\":null, \n        \"version\":null, \n        \"preferenceType\":null, \n        \"preferenceName\":null, \n        \"areGlobal\":true, \n        \"areDefault\":true, \n        \"viewState\":\"({field:[{name:\\\"groupBy1\\\"},{name:\\\"groupBy2\\\"},{name:\\\"m3\\\"},{name:\\\"m1\\\"},{name:\\\"m2\\\"},{name:\\\"m4\\\"},{name:\\\"m5\\\"},{name:\\\"m6\\\"},{name:\\\"m7\\\"},{name:\\\"m8\\\"},{name:\\\"m9\\\"}],group:[{fieldName:\\\"groupBy1\\\",groupingMode:null,groupGranularity:null,groupPrecision:null}]})\", \n        \"filter\":\"{}\", \n        \"columnLabels\":null\n    }\n}" ]
  },
  "chartType" : "DATATABLE",
  "createdByName" : "n.seeger",
  "description" : "PL2016_v8",
  "label" : "Auswertung Handel",
  "uniqueName" : "n.seeger__1464946000980",
  "visibility" : "PUBLIC"
}