{
  "chartDefinition" : {
    "auxLines" : [ ],
    "chartType" : "DATATABLE",
    "dictionary" : "[{\"sectionIdx\":1,\"category\":\"PROJECTION\",\"key\":\"CorrectionType\",\"sectionLabel\":\"Series1\",\"categoryLabel\":\"Projection\",\"keyLabel\":\"Correction Type\",\"defaultValue\":\"Correction Type\"},{\"sectionIdx\":1,\"category\":\"PROJECTION\",\"key\":\"m1\",\"sectionLabel\":\"Series1\",\"categoryLabel\":\"Projection\",\"keyLabel\":\"Measure 1\",\"defaultValue\":\"∑Total Umsatz\",\"value\":\"Total Umsatz\"},{\"sectionIdx\":1,\"category\":\"PROJECTION\",\"key\":\"m2\",\"sectionLabel\":\"Series1\",\"categoryLabel\":\"Projection\",\"keyLabel\":\"Measure 2\",\"defaultValue\":\"Contribution(Total Umsatz)\",\"value\":\"Umsatz Percentage\",\"format\":\"#.##%\"},{\"sectionIdx\":1,\"category\":\"PROJECTION\",\"key\":\"m3\",\"sectionLabel\":\"Series1\",\"categoryLabel\":\"Projection\",\"keyLabel\":\"Measure 3\",\"defaultValue\":\"∑Total DB\",\"value\":\"Total DB\"},{\"sectionIdx\":1,\"category\":\"PROJECTION\",\"key\":\"m4\",\"sectionLabel\":\"Series1\",\"categoryLabel\":\"Projection\",\"keyLabel\":\"Measure 4\",\"defaultValue\":\"Contribution(Total DB)\",\"value\":\"DB Percentage\",\"format\":\"#.##%\"},{\"sectionIdx\":1,\"category\":\"PROJECTION\",\"key\":\"m5\",\"sectionLabel\":\"Series1\",\"categoryLabel\":\"Projection\",\"keyLabel\":\"Measure 5\",\"defaultValue\":\"∑Potential Umsatz\",\"value\":\"Potential Umsatz\"},{\"sectionIdx\":1,\"category\":\"PROJECTION\",\"key\":\"m6\",\"sectionLabel\":\"Series1\",\"categoryLabel\":\"Projection\",\"keyLabel\":\"Measure 6\",\"defaultValue\":\"∑Potential Umsatz Gain\",\"value\":\"Potential Umsatz Gain\"},{\"sectionIdx\":1,\"category\":\"PROJECTION\",\"key\":\"m7\",\"sectionLabel\":\"Series1\",\"categoryLabel\":\"Projection\",\"keyLabel\":\"Measure 7\",\"defaultValue\":\"∑Potential DB\"},{\"sectionIdx\":1,\"category\":\"PROJECTION\",\"key\":\"m8\",\"sectionLabel\":\"Series1\",\"categoryLabel\":\"Projection\",\"keyLabel\":\"Measure 8\",\"defaultValue\":\"∑Potential DB Gain\"}]",
    "dynamicFCsWidget" : "{\n}",
    "options" : "{\n}",
    "series" : [ "{\n    \"datamart\":\"47.DMR\", \n    \"label\":\"Series1\", \n    \"hideDataLabels\":true, \n    \"lineLevelFilter\":{\n        \"_constructor\":\"AdvancedCriteria\", \n        \"operator\":\"and\", \n        \"criteria\":[\n            {\n                \"fieldName\":\"CCYear\", \n                \"operator\":\"equals\", \n                \"value\":\"2019-01-01\"\n            }, \n            {\n                \"fieldName\":\"CorrectionType\", \n                \"operator\":\"notEqual\", \n                \"value\":\"Higher\"\n            }\n        ]\n    }, \n    \"filterTooltip\":\"CCYear equals 01/01/2019 00:00 and Correction Type not equal Higher\", \n    \"currency\":\"EUR\", \n    \"calculatedFieldFormulaControllerState\":{\n        \"aggrFormula\":{\n            \"aggregationFormula\":\"SUM\"\n        }\n    }, \n    \"calculatedFieldNonAggrFormulaControllerState\":{\n    }, \n    \"exclusions\":[\n    ], \n    \"additionalMeasures\":[\n        {\n            \"aggrFormula\":\"SUM\", \n            \"name\":\"p9_SubtotalUmsatz\", \n            \"id\":1, \n            \"aggrFormula_value\":{\n                \"specifier\":\"SUM\", \n                \"displayValue\":\"∑{field}\", \n                \"value\":{\n                    \"alias\":null, \n                    \"label\":\"∑{field}\", \n                    \"expression\":\"SUM({field})\", \n                    \"name\":null, \n                    \"advancedProjection\":true, \n                    \"function\":null, \n                    \"default\":null, \n                    \"formatString\":\"∑{field}\", \n                    \"parameters\":{\n                    }\n                }\n            }, \n            \"aggrFormula_display\":\"∑{field}\", \n            \"isSelected\":false\n        }, \n        {\n            \"aggrFormula\":\"CONTRIB\", \n            \"name\":\"p9_SubtotalUmsatz\", \n            \"id\":2, \n            \"aggrFormula_value\":{\n                \"specifier\":\"CONTRIB\", \n                \"displayValue\":\"Contribution({field})\", \n                \"value\":{\n                    \"alias\":null, \n                    \"label\":\"Contribution({field})\", \n                    \"expression\":\"SUM({field})\", \n                    \"name\":null, \n                    \"advancedProjection\":true, \n                    \"function\":\"CONTRIB\", \n                    \"default\":null, \n                    \"formatString\":\"Contribution({field})\", \n                    \"parameters\":{\n                    }\n                }\n            }, \n            \"aggrFormula_display\":\"Contribution({field})\", \n            \"isSelected\":false\n        }, \n        {\n            \"aggrFormula\":\"SUM\", \n            \"name\":\"p10_SubtotalMargin\", \n            \"id\":3, \n            \"aggrFormula_value\":{\n                \"specifier\":\"SUM\", \n                \"displayValue\":\"∑{field}\", \n                \"value\":{\n                    \"alias\":null, \n                    \"label\":\"∑{field}\", \n                    \"expression\":\"SUM({field})\", \n                    \"name\":null, \n                    \"advancedProjection\":true, \n                    \"function\":null, \n                    \"default\":null, \n                    \"formatString\":\"∑{field}\", \n                    \"parameters\":{\n                    }\n                }\n            }, \n            \"aggrFormula_display\":\"∑{field}\", \n            \"isSelected\":false\n        }, \n        {\n            \"aggrFormula\":\"CONTRIB\", \n            \"name\":\"p10_SubtotalMargin\", \n            \"id\":4, \n            \"aggrFormula_value\":{\n                \"specifier\":\"CONTRIB\", \n                \"displayValue\":\"Contribution({field})\", \n                \"value\":{\n                    \"alias\":null, \n                    \"label\":\"Contribution({field})\", \n                    \"expression\":\"SUM({field})\", \n                    \"name\":null, \n                    \"advancedProjection\":true, \n                    \"function\":\"CONTRIB\", \n                    \"default\":null, \n                    \"formatString\":\"Contribution({field})\", \n                    \"parameters\":{\n                    }\n                }\n            }, \n            \"aggrFormula_display\":\"Contribution({field})\", \n            \"isSelected\":false\n        }, \n        {\n            \"aggrFormula\":\"SUM\", \n            \"name\":\"p7_PotentialRevenue\", \n            \"id\":5, \n            \"aggrFormula_value\":{\n                \"specifier\":\"SUM\", \n                \"displayValue\":\"∑{field}\", \n                \"value\":{\n                    \"alias\":null, \n                    \"label\":\"∑{field}\", \n                    \"expression\":\"SUM({field})\", \n                    \"name\":null, \n                    \"advancedProjection\":true, \n                    \"function\":null, \n                    \"default\":null, \n                    \"formatString\":\"∑{field}\", \n                    \"parameters\":{\n                    }\n                }\n            }, \n            \"aggrFormula_display\":\"∑{field}\", \n            \"isSelected\":false\n        }, \n        {\n            \"aggrFormula\":\"SUM\", \n            \"name\":\"p8_PotentialUmsatzGain\", \n            \"id\":6, \n            \"aggrFormula_value\":{\n                \"specifier\":\"SUM\", \n                \"displayValue\":\"∑{field}\", \n                \"value\":{\n                    \"alias\":null, \n                    \"label\":\"∑{field}\", \n                    \"expression\":\"SUM({field})\", \n                    \"name\":null, \n                    \"advancedProjection\":true, \n                    \"function\":null, \n                    \"default\":null, \n                    \"formatString\":\"∑{field}\", \n                    \"parameters\":{\n                    }\n                }\n            }, \n            \"aggrFormula_display\":\"∑{field}\", \n            \"isSelected\":false\n        }, \n        {\n            \"aggrFormula\":\"SUM\", \n            \"name\":\"p5_PotentialMargin\", \n            \"id\":7, \n            \"aggrFormula_value\":{\n                \"specifier\":\"SUM\", \n                \"displayValue\":\"∑{field}\", \n                \"value\":{\n                    \"alias\":null, \n                    \"label\":\"∑{field}\", \n                    \"expression\":\"SUM({field})\", \n                    \"name\":null, \n                    \"advancedProjection\":true, \n                    \"function\":null, \n                    \"default\":null, \n                    \"formatString\":\"∑{field}\", \n                    \"parameters\":{\n                    }\n                }\n            }, \n            \"aggrFormula_display\":\"∑{field}\", \n            \"isSelected\":false\n        }, \n        {\n            \"aggrFormula\":\"SUM\", \n            \"name\":\"p6_PotentialMarginGain\", \n            \"id\":8, \n            \"aggrFormula_value\":{\n                \"specifier\":\"SUM\", \n                \"displayValue\":\"∑{field}\", \n                \"value\":{\n                    \"alias\":null, \n                    \"label\":\"∑{field}\", \n                    \"expression\":\"SUM({field})\", \n                    \"name\":null, \n                    \"advancedProjection\":true, \n                    \"function\":null, \n                    \"default\":null, \n                    \"formatString\":\"∑{field}\", \n                    \"parameters\":{\n                    }\n                }\n            }, \n            \"aggrFormula_display\":\"∑{field}\", \n            \"isSelected\":true\n        }\n    ], \n    \"groupByDims\":[\n        \"CorrectionType\"\n    ], \n    \"formulaParams\":{\n        \"formulaName\":null, \n        \"targetDate\":\"2020-04-07\", \n        \"targetDateField\":null, \n        \"skuField\":null, \n        \"simulationSet\":null, \n        \"inputParams\":[\n        ], \n        \"mappingParams\":[\n        ], \n        \"outputElements\":[\n        ], \n        \"feederFormulaName\":null, \n        \"feederInputParams\":[\n        ]\n    }, \n    \"seriesGridPreferences\":{\n        \"typedId\":null, \n        \"version\":null, \n        \"preferenceType\":null, \n        \"preferenceName\":null, \n        \"areGlobal\":true, \n        \"areDefault\":true, \n        \"viewState\":\"({field:[{name:\\\"CorrectionType\\\"},{name:\\\"m1\\\"},{name:\\\"m2\\\"},{name:\\\"m3\\\"},{name:\\\"m4\\\"},{name:\\\"m5\\\"},{name:\\\"m6\\\"},{name:\\\"m7\\\"},{name:\\\"m8\\\"}],group:null})\", \n        \"filter\":\"{}\", \n        \"columnLabels\":null\n    }\n}" ]
  },
  "chartType" : "DATATABLE",
  "createdByName" : "vivek.thakare",
  "externalChartDefinition" : {
    "highchart" : null,
    "queryDTOs" : [ {
      "aggregateFilter" : null,
      "datamart" : "47.DMR",
      "filter" : {
        "_constructor" : "AdvancedCriteria",
        "criteria" : [ {
          "fieldName" : "CCYear",
          "operator" : "equals",
          "value" : "2019-01-01"
        }, {
          "fieldName" : "CorrectionType",
          "operator" : "notEqual",
          "value" : "Higher"
        } ],
        "operator" : "and"
      },
      "label" : "Series1",
      "name" : null,
      "options" : {
        "currency" : "EUR"
      },
      "projections" : {
        "CorrectionType" : {
          "alias" : "CorrectionType",
          "expression" : "CorrectionType",
          "label" : "Correction Type"
        },
        "m1" : {
          "advancedProjection" : true,
          "alias" : "m1",
          "default" : null,
          "expression" : "SUM({field})",
          "formatString" : "∑{field}",
          "function" : null,
          "label" : "Total Umsatz",
          "name" : "p9_SubtotalUmsatz",
          "parameters" : {
            "field" : "p9_SubtotalUmsatz"
          }
        },
        "m2" : {
          "advancedProjection" : true,
          "alias" : "m2",
          "default" : null,
          "expression" : "SUM({field})",
          "formatString" : "Contribution({field})",
          "function" : "CONTRIB",
          "label" : "Umsatz Percentage",
          "name" : "p9_SubtotalUmsatz",
          "parameters" : {
            "field" : "p9_SubtotalUmsatz"
          }
        },
        "m3" : {
          "advancedProjection" : true,
          "alias" : "m3",
          "default" : null,
          "expression" : "SUM({field})",
          "formatString" : "∑{field}",
          "function" : null,
          "label" : "Total DB",
          "name" : "p10_SubtotalMargin",
          "parameters" : {
            "field" : "p10_SubtotalMargin"
          }
        },
        "m4" : {
          "advancedProjection" : true,
          "alias" : "m4",
          "default" : null,
          "expression" : "SUM({field})",
          "formatString" : "Contribution({field})",
          "function" : "CONTRIB",
          "label" : "DB Percentage",
          "name" : "p10_SubtotalMargin",
          "parameters" : {
            "field" : "p10_SubtotalMargin"
          }
        },
        "m5" : {
          "advancedProjection" : true,
          "alias" : "m5",
          "default" : null,
          "expression" : "SUM({field})",
          "formatString" : "∑{field}",
          "function" : null,
          "label" : "Potential Umsatz",
          "name" : "p7_PotentialRevenue",
          "parameters" : {
            "field" : "p7_PotentialRevenue"
          }
        },
        "m6" : {
          "advancedProjection" : true,
          "alias" : "m6",
          "default" : null,
          "expression" : "SUM({field})",
          "formatString" : "∑{field}",
          "function" : null,
          "label" : "Potential Umsatz Gain",
          "name" : "p8_PotentialUmsatzGain",
          "parameters" : {
            "field" : "p8_PotentialUmsatzGain"
          }
        },
        "m7" : {
          "advancedProjection" : true,
          "alias" : "m7",
          "default" : null,
          "expression" : "SUM({field})",
          "formatString" : "∑{field}",
          "function" : null,
          "label" : "∑Potential DB",
          "name" : "p5_PotentialMargin",
          "parameters" : {
            "field" : "p5_PotentialMargin"
          }
        },
        "m8" : {
          "advancedProjection" : true,
          "alias" : "m8",
          "default" : null,
          "expression" : "SUM({field})",
          "formatString" : "∑{field}",
          "function" : null,
          "label" : "∑Potential DB Gain",
          "name" : "p6_PotentialMarginGain",
          "parameters" : {
            "field" : "p6_PotentialMarginGain"
          }
        }
      },
      "rollup" : true,
      "sortBy" : [ "CorrectionType" ],
      "source" : "47.DMR"
    } ]
  },
  "folder" : "CustomerCategoryImpactAnalysis",
  "label" : "CustomerRevenueDistributionPerCorrectionType",
  "uniqueName" : "vivek.thakare__1586205751534",
  "visibility" : "PRIVATE"
}