{
  "chartDefinition" : {
    "auxLines" : [ ],
    "chartType" : "PIE",
    "dictionary" : "[{\"sectionIdx\":1,\"category\":\"PROJECTION\",\"key\":\"x\",\"sectionLabel\":\"Series1\",\"categoryLabel\":\"Projection\",\"keyLabel\":\"Categories\",\"defaultValue\":\"Verkaufsbüro(Sales Office)\"},{\"sectionIdx\":1,\"category\":\"PROJECTION\",\"key\":\"m1\",\"sectionLabel\":\"Series1\",\"categoryLabel\":\"Projection\",\"keyLabel\":\"Measure 1\",\"defaultValue\":\"∑CC Revenue(Qualified Umsatz)\"},{\"sectionIdx\":1,\"category\":\"PROJECTION\",\"key\":\"m2\",\"sectionLabel\":\"Series1\",\"categoryLabel\":\"Projection\",\"keyLabel\":\"Measure 2\",\"defaultValue\":\"∑Non CC Revenue(Other Umsatz)\"},{\"sectionIdx\":1,\"category\":\"PROJECTION\",\"key\":\"m3\",\"sectionLabel\":\"Series1\",\"categoryLabel\":\"Projection\",\"keyLabel\":\"Measure 3\",\"defaultValue\":\"∑Subtotal Umsatz(CC+Other @ Line Item)\"},{\"sectionIdx\":1,\"category\":\"PROJECTION\",\"key\":\"m4\",\"sectionLabel\":\"Series1\",\"categoryLabel\":\"Projection\",\"keyLabel\":\"Measure 4\",\"defaultValue\":\"∑Potential Margin Gain\"},{\"sectionIdx\":1,\"category\":\"PROJECTION\",\"key\":\"y\",\"sectionLabel\":\"Series1\",\"categoryLabel\":\"Projection\",\"keyLabel\":\"Size\",\"defaultValue\":\"∑Potential Revenue Gain\"}]",
    "dynamicFCsWidget" : "{\n}",
    "options" : "{\n    \"title\":\"\", \n    \"subtitle\":\"\", \n    \"comparison\":false, \n    \"hideLegend\":false, \n    \"hideTooltips\":false, \n    \"verticalLayout\":\"false\"\n}",
    "series" : [ "{\n    \"datamart\":\"39.DMR\", \n    \"label\":\"Series1\", \n    \"hideDataLabels\":false, \n    \"filterTooltip\":\"\", \n    \"currency\":\"EUR\", \n    \"calculatedFieldFormulaControllerState\":{\n        \"rowLimit\":{\n            \"aggregationFormula\":\"SUM\"\n        }, \n        \"y\":{\n            \"aggregationFormula\":\"SUM\"\n        }, \n        \"aggrFormula\":{\n            \"aggregationFormula\":\"SUM\"\n        }\n    }, \n    \"calculatedFieldNonAggrFormulaControllerState\":{\n    }, \n    \"exclusions\":[\n    ], \n    \"x\":\"CCVerkaufsbereich3\", \n    \"y\":\"p3_PotentialRevGain\", \n    \"rowLimit\":{\n    }, \n    \"additionalMeasures\":[\n        {\n            \"aggrFormula\":\"SUM\", \n            \"name\":\"p5_CCDUmsatz\", \n            \"id\":1, \n            \"aggrFormula_value\":{\n                \"specifier\":\"SUM\", \n                \"displayValue\":\"∑{field}\", \n                \"value\":{\n                    \"alias\":null, \n                    \"label\":\"∑{field}\", \n                    \"expression\":\"SUM({field})\", \n                    \"name\":null, \n                    \"advancedProjection\":true, \n                    \"function\":null, \n                    \"default\":null, \n                    \"formatString\":\"∑{field}\", \n                    \"parameters\":{\n                    }\n                }\n            }, \n            \"aggrFormula_display\":\"∑{field}\", \n            \"isSelected\":false\n        }, \n        {\n            \"aggrFormula\":\"SUM\", \n            \"name\":\"p8_NonCCDUmsatz\", \n            \"id\":2, \n            \"aggrFormula_value\":{\n                \"specifier\":\"SUM\", \n                \"displayValue\":\"∑{field}\", \n                \"value\":{\n                    \"alias\":null, \n                    \"label\":\"∑{field}\", \n                    \"expression\":\"SUM({field})\", \n                    \"name\":null, \n                    \"advancedProjection\":true, \n                    \"function\":null, \n                    \"default\":null, \n                    \"formatString\":\"∑{field}\", \n                    \"parameters\":{\n                    }\n                }\n            }, \n            \"aggrFormula_display\":\"∑{field}\", \n            \"isSelected\":false\n        }, \n        {\n            \"aggrFormula\":\"SUM\", \n            \"name\":\"p12_SubtotalUmsatz\", \n            \"id\":3, \n            \"aggrFormula_value\":{\n                \"specifier\":\"SUM\", \n                \"displayValue\":\"∑{field}\", \n                \"value\":{\n                    \"alias\":null, \n                    \"label\":\"∑{field}\", \n                    \"expression\":\"SUM({field})\", \n                    \"name\":null, \n                    \"advancedProjection\":true, \n                    \"function\":null, \n                    \"default\":null, \n                    \"formatString\":\"∑{field}\", \n                    \"parameters\":{\n                    }\n                }\n            }, \n            \"aggrFormula_display\":\"∑{field}\", \n            \"isSelected\":false\n        }, \n        {\n            \"aggrFormula\":\"SUM\", \n            \"name\":\"p4_PotentialMarginGain\", \n            \"id\":4, \n            \"aggrFormula_value\":{\n                \"specifier\":\"SUM\", \n                \"displayValue\":\"∑{field}\", \n                \"value\":{\n                    \"alias\":null, \n                    \"label\":\"∑{field}\", \n                    \"expression\":\"SUM({field})\", \n                    \"name\":null, \n                    \"advancedProjection\":true, \n                    \"function\":null, \n                    \"default\":null, \n                    \"formatString\":\"∑{field}\", \n                    \"parameters\":{\n                    }\n                }\n            }, \n            \"aggrFormula_display\":\"∑{field}\", \n            \"isSelected\":true\n        }\n    ], \n    \"sortBy\":\"x\", \n    \"sortByDir\":{\n        \"sortBy\":{\n            \"specifier\":\"ascending\", \n            \"displayValue\":\"ascending\"\n        }\n    }, \n    \"formulaParams\":{\n        \"formulaName\":null, \n        \"targetDate\":\"2020-03-13\", \n        \"targetDateField\":null, \n        \"skuField\":null, \n        \"simulationSet\":null, \n        \"inputParams\":[\n        ], \n        \"mappingParams\":[\n        ], \n        \"outputElements\":[\n        ], \n        \"feederFormulaName\":null, \n        \"feederInputParams\":[\n        ]\n    }\n}" ]
  },
  "chartType" : "PIE",
  "createdByName" : "vivek.thakare",
  "description" : "Per Sales office show how the user can go into the details of the charts and do analysis around customer category changes.",
  "externalChartDefinition" : {
    "highchart" : {
      "chart" : {
        "type" : "pie"
      },
      "colors" : [ "#4572A7", "#2f7ed8", "#0d233a", "#8bbc21", "#910000", "#1aadce", "#492970", "#f28f43", "#1CE6FF", "#FF4A46", "#008941", "#A30059", "#FFDBE5", "#7A4900", "#0000A6", "#63FFAC", "#B79762", "#004D43", "#997D87", "#5A0007", "#809693", "#FEFFE6", "#1B4400", "#3B5DFF", "#4A3B53", "#FF2F80", "#61615A", "#BA0900", "#6B7900", "#00C2A0", "#FFAA92" ],
      "credits" : {
        "enabled" : false
      },
      "exporting" : {
        "filename" : "Pie Chart",
        "url" : "/pricefx/haefele/hcexportserver"
      },
      "plotOptions" : {
        "series" : {
          "events" : { }
        },
        "showInLegend" : true
      },
      "series" : [ {
        "data" : [ ],
        "id" : "FIX_SGWT_RENDERING",
        "name" : "FIX_SGWT_RENDERING",
        "showInLegend" : false,
        "type" : "line"
      } ],
      "subtitle" : {
        "text" : ""
      },
      "title" : {
        "text" : ""
      },
      "tooltip" : { },
      "xAxis" : {
        "lineWidth" : 0,
        "title" : {
          "enabled" : false
        }
      },
      "yAxis" : {
        "lineWidth" : 0,
        "title" : {
          "enabled" : false
        }
      }
    },
    "queryDTOs" : [ {
      "aggregateFilter" : null,
      "datamart" : "39.DMR",
      "filter" : null,
      "label" : "Series1",
      "name" : null,
      "options" : {
        "currency" : "EUR",
        "distribution" : [ "m1", "m2", "m3", "m4", "y" ]
      },
      "projections" : {
        "m1" : {
          "advancedProjection" : true,
          "alias" : "m1",
          "default" : null,
          "expression" : "SUM({field})",
          "formatString" : "∑{field}",
          "function" : null,
          "label" : "∑CC Revenue(Qualified Umsatz)",
          "name" : "p5_CCDUmsatz",
          "parameters" : {
            "field" : "p5_CCDUmsatz"
          }
        },
        "m2" : {
          "advancedProjection" : true,
          "alias" : "m2",
          "default" : null,
          "expression" : "SUM({field})",
          "formatString" : "∑{field}",
          "function" : null,
          "label" : "∑Non CC Revenue(Other Umsatz)",
          "name" : "p8_NonCCDUmsatz",
          "parameters" : {
            "field" : "p8_NonCCDUmsatz"
          }
        },
        "m3" : {
          "advancedProjection" : true,
          "alias" : "m3",
          "default" : null,
          "expression" : "SUM({field})",
          "formatString" : "∑{field}",
          "function" : null,
          "label" : "∑Subtotal Umsatz(CC+Other @ Line Item)",
          "name" : "p12_SubtotalUmsatz",
          "parameters" : {
            "field" : "p12_SubtotalUmsatz"
          }
        },
        "m4" : {
          "advancedProjection" : true,
          "alias" : "m4",
          "default" : null,
          "expression" : "SUM({field})",
          "formatString" : "∑{field}",
          "function" : null,
          "label" : "∑Potential Margin Gain",
          "name" : "p4_PotentialMarginGain",
          "parameters" : {
            "field" : "p4_PotentialMarginGain"
          }
        },
        "x" : {
          "alias" : "x",
          "expression" : "CCVerkaufsbereich3",
          "label" : "Verkaufsbüro(Sales Office)"
        },
        "y" : {
          "advancedProjection" : true,
          "alias" : "y",
          "default" : null,
          "expression" : "SUM({field})",
          "formatString" : "∑{field}",
          "function" : null,
          "label" : "∑Potential Revenue Gain",
          "name" : "p3_PotentialRevGain",
          "parameters" : {
            "field" : "p3_PotentialRevGain"
          }
        }
      },
      "rollup" : true,
      "sortBy" : [ "x" ],
      "source" : "39.DMR"
    } ]
  },
  "folder" : "CustomerCategoryImpactAnalysis/CustomerGrouping",
  "label" : "PerSalesOfficeAnalysis",
  "uniqueName" : "vivek.thakare__1584081727696",
  "visibility" : "PRIVATE"
}