{
  "chartDefinition" : {
    "auxLines" : [ ],
    "chartType" : "DATATABLE",
    "dictionary" : "[{\"sectionIdx\":1,\"category\":\"PROJECTION\",\"key\":\"BrancheCategory\",\"sectionLabel\":\"Provide the recommendation for correcting wrong customer categorization\",\"categoryLabel\":\"Projection\",\"keyLabel\":\"Branche Category\",\"defaultValue\":\"Branche Category\"},{\"sectionIdx\":1,\"category\":\"PROJECTION\",\"key\":\"ComputedPotentialGroup\",\"sectionLabel\":\"Provide the recommendation for correcting wrong customer categorization\",\"categoryLabel\":\"Projection\",\"keyLabel\":\"Computed Potential Group\",\"defaultValue\":\"Computed Potential Group\"},{\"sectionIdx\":1,\"category\":\"PROJECTION\",\"key\":\"CustomerId\",\"sectionLabel\":\"Provide the recommendation for correcting wrong customer categorization\",\"categoryLabel\":\"Projection\",\"keyLabel\":\"Customer Id\",\"defaultValue\":\"Customer Id\"},{\"sectionIdx\":1,\"category\":\"PROJECTION\",\"key\":\"CustomerName\",\"sectionLabel\":\"Provide the recommendation for correcting wrong customer categorization\",\"categoryLabel\":\"Projection\",\"keyLabel\":\"Customer Name\",\"defaultValue\":\"Customer Name\"},{\"sectionIdx\":1,\"category\":\"PROJECTION\",\"key\":\"CustomerPotentialGroup\",\"sectionLabel\":\"Provide the recommendation for correcting wrong customer categorization\",\"categoryLabel\":\"Projection\",\"keyLabel\":\"Customer Potential Group\",\"defaultValue\":\"Customer Potential Group\"},{\"sectionIdx\":1,\"category\":\"PROJECTION\",\"key\":\"m1\",\"sectionLabel\":\"Provide the recommendation for correcting wrong customer categorization\",\"categoryLabel\":\"Projection\",\"keyLabel\":\"Measure 1\",\"defaultValue\":\"∑THYear3Umsatz\",\"value\":\"Umsatz 2018\"},{\"sectionIdx\":1,\"category\":\"PROJECTION\",\"key\":\"m2\",\"sectionLabel\":\"Provide the recommendation for correcting wrong customer categorization\",\"categoryLabel\":\"Projection\",\"keyLabel\":\"Measure 2\",\"defaultValue\":\"∑Umsatz 2019\",\"value\":\"Umsatz 2019\"},{\"sectionIdx\":1,\"category\":\"PROJECTION\",\"key\":\"m3\",\"sectionLabel\":\"Provide the recommendation for correcting wrong customer categorization\",\"categoryLabel\":\"Projection\",\"keyLabel\":\"Measure 3\",\"defaultValue\":\"∑Umsatz 2019 Overall % Contribution\",\"value\":\"Umsatz 2019 Overall Percentage\",\"format\":\"#.##%\"},{\"sectionIdx\":1,\"category\":\"PROJECTION\",\"key\":\"m4\",\"sectionLabel\":\"Provide the recommendation for correcting wrong customer categorization\",\"categoryLabel\":\"Projection\",\"keyLabel\":\"Measure 4\",\"defaultValue\":\"∑Umsatz 2020\",\"value\":\"Umsatz 2020\"},{\"sectionIdx\":1,\"category\":\"PROJECTION\",\"key\":\"m5\",\"sectionLabel\":\"Provide the recommendation for correcting wrong customer categorization\",\"categoryLabel\":\"Projection\",\"keyLabel\":\"Measure 5\",\"defaultValue\":\"∑Umsatz 2020 Overall % Contribution\",\"value\":\"Umsatz 2020 Overall Percentage\",\"format\":\"#.##%\"},{\"sectionIdx\":1,\"category\":\"PROJECTION\",\"key\":\"m6\",\"sectionLabel\":\"Provide the recommendation for correcting wrong customer categorization\",\"categoryLabel\":\"Projection\",\"keyLabel\":\"Measure 6\",\"defaultValue\":\"∑Customer Age\",\"value\":\"Customer Age\"},{\"sectionIdx\":1,\"category\":\"PROJECTION\",\"key\":\"m7\",\"sectionLabel\":\"Provide the recommendation for correcting wrong customer categorization\",\"categoryLabel\":\"Projection\",\"keyLabel\":\"Measure 7\",\"defaultValue\":\"∑CAGR\",\"value\":\"CAGR\"},{\"sectionIdx\":1,\"category\":\"PROJECTION\",\"key\":\"Verkaufsbereich3\",\"sectionLabel\":\"Provide the recommendation for correcting wrong customer categorization\",\"categoryLabel\":\"Projection\",\"keyLabel\":\"Verkaufsbereich3\",\"defaultValue\":\"Verkaufsbereich3\"}]",
    "dynamicFCsWidget" : "{\n}",
    "options" : "{\n}",
    "series" : [ "{\n    \"datamart\":\"50.DMR\", \n    \"label\":\"Provide the recommendation for correcting wrong customer categorization\", \n    \"hideDataLabels\":true, \n    \"filterTooltip\":\"\", \n    \"dimFilters\":[\n        {\n            \"fieldName\":\"Verkaufsbereich3\", \n            \"fieldValue\":\"Berlin\", \n            \"fieldSynced\":false\n        }, \n        {\n            \"fieldName\":\"BrancheCategory\", \n            \"fieldValue\":null, \n            \"fieldSynced\":false\n        }, \n        {\n            \"fieldName\":\"CustomerPotentialGroup\", \n            \"fieldValue\":null, \n            \"fieldSynced\":false\n        }\n    ], \n    \"currency\":\"EUR\", \n    \"calculatedFieldFormulaControllerState\":{\n        \"aggrFormula\":{\n            \"aggregationFormula\":\"SUM\"\n        }\n    }, \n    \"calculatedFieldNonAggrFormulaControllerState\":{\n    }, \n    \"additionalMeasures\":[\n        {\n            \"aggrFormula\":\"SUM\", \n            \"name\":\"p5_THYear3Umsatz\", \n            \"id\":1, \n            \"aggrFormula_value\":{\n                \"specifier\":\"SUM\", \n                \"displayValue\":\"∑{field}\", \n                \"value\":{\n                    \"alias\":null, \n                    \"label\":\"∑{field}\", \n                    \"expression\":\"SUM({field})\", \n                    \"name\":null, \n                    \"advancedProjection\":true, \n                    \"function\":null, \n                    \"default\":null, \n                    \"formatString\":\"∑{field}\", \n                    \"parameters\":{\n                    }\n                }\n            }, \n            \"aggrFormula_display\":\"∑{field}\", \n            \"isSelected\":false\n        }, \n        {\n            \"aggrFormula\":\"SUM\", \n            \"name\":\"p3_THYear2Umsatz\", \n            \"id\":2, \n            \"aggrFormula_value\":{\n                \"specifier\":\"SUM\", \n                \"displayValue\":\"∑{field}\", \n                \"value\":{\n                    \"alias\":null, \n                    \"label\":\"∑{field}\", \n                    \"expression\":\"SUM({field})\", \n                    \"name\":null, \n                    \"advancedProjection\":true, \n                    \"function\":null, \n                    \"default\":null, \n                    \"formatString\":\"∑{field}\", \n                    \"parameters\":{\n                    }\n                }\n            }, \n            \"aggrFormula_display\":\"∑{field}\", \n            \"isSelected\":false\n        }, \n        {\n            \"aggrFormula\":\"SUM\", \n            \"name\":\"p4_THY2PerUmsatzContribution\", \n            \"id\":3, \n            \"aggrFormula_value\":{\n                \"specifier\":\"SUM\", \n                \"displayValue\":\"∑{field}\", \n                \"value\":{\n                    \"alias\":null, \n                    \"label\":\"∑{field}\", \n                    \"expression\":\"SUM({field})\", \n                    \"name\":null, \n                    \"advancedProjection\":true, \n                    \"function\":null, \n                    \"default\":null, \n                    \"formatString\":\"∑{field}\", \n                    \"parameters\":{\n                    }\n                }\n            }, \n            \"aggrFormula_display\":\"∑{field}\", \n            \"isSelected\":false\n        }, \n        {\n            \"aggrFormula\":\"SUM\", \n            \"name\":\"p1_THYear1Umsatz\", \n            \"id\":4, \n            \"aggrFormula_value\":{\n                \"specifier\":\"SUM\", \n                \"displayValue\":\"∑{field}\", \n                \"value\":{\n                    \"alias\":null, \n                    \"label\":\"∑{field}\", \n                    \"expression\":\"SUM({field})\", \n                    \"name\":null, \n                    \"advancedProjection\":true, \n                    \"function\":null, \n                    \"default\":null, \n                    \"formatString\":\"∑{field}\", \n                    \"parameters\":{\n                    }\n                }\n            }, \n            \"aggrFormula_display\":\"∑{field}\", \n            \"isSelected\":false\n        }, \n        {\n            \"aggrFormula\":\"SUM\", \n            \"name\":\"p2_THY1PerUmsatzContribution\", \n            \"id\":5, \n            \"aggrFormula_value\":{\n                \"specifier\":\"SUM\", \n                \"displayValue\":\"∑{field}\", \n                \"value\":{\n                    \"alias\":null, \n                    \"label\":\"∑{field}\", \n                    \"expression\":\"SUM({field})\", \n                    \"name\":null, \n                    \"advancedProjection\":true, \n                    \"function\":null, \n                    \"default\":null, \n                    \"formatString\":\"∑{field}\", \n                    \"parameters\":{\n                    }\n                }\n            }, \n            \"aggrFormula_display\":\"∑{field}\", \n            \"isSelected\":false\n        }, \n        {\n            \"aggrFormula\":\"SUM\", \n            \"name\":\"p10_THAgeOfCustomer\", \n            \"id\":6, \n            \"aggrFormula_value\":{\n                \"specifier\":\"SUM\", \n                \"displayValue\":\"∑{field}\", \n                \"value\":{\n                    \"alias\":null, \n                    \"label\":\"∑{field}\", \n                    \"expression\":\"SUM({field})\", \n                    \"name\":null, \n                    \"advancedProjection\":true, \n                    \"function\":null, \n                    \"default\":null, \n                    \"formatString\":\"∑{field}\", \n                    \"parameters\":{\n                    }\n                }\n            }, \n            \"aggrFormula_display\":\"∑{field}\", \n            \"isSelected\":false\n        }, \n        {\n            \"aggrFormula\":\"SUM\", \n            \"name\":\"p9_THCAGR\", \n            \"id\":7, \n            \"aggrFormula_value\":{\n                \"specifier\":\"SUM\", \n                \"displayValue\":\"∑{field}\", \n                \"value\":{\n                    \"alias\":null, \n                    \"label\":\"∑{field}\", \n                    \"expression\":\"SUM({field})\", \n                    \"name\":null, \n                    \"advancedProjection\":true, \n                    \"function\":null, \n                    \"default\":null, \n                    \"formatString\":\"∑{field}\", \n                    \"parameters\":{\n                    }\n                }\n            }, \n            \"aggrFormula_display\":\"∑{field}\", \n            \"isSelected\":false\n        }\n    ], \n    \"groupByDims\":[\n        \"CustomerId\", \n        \"CustomerName\", \n        \"Verkaufsbereich3\", \n        \"BrancheCategory\", \n        \"CustomerPotentialGroup\", \n        \"ComputedPotentialGroup\"\n    ], \n    \"formulaParams\":{\n        \"formulaName\":null, \n        \"targetDate\":\"2020-04-06\", \n        \"targetDateField\":null, \n        \"skuField\":null, \n        \"simulationSet\":null, \n        \"inputParams\":[\n        ], \n        \"mappingParams\":[\n        ], \n        \"outputElements\":[\n        ], \n        \"feederFormulaName\":null, \n        \"feederInputParams\":[\n        ]\n    }, \n    \"seriesGridPreferences\":{\n        \"typedId\":null, \n        \"version\":null, \n        \"preferenceType\":null, \n        \"preferenceName\":null, \n        \"areGlobal\":true, \n        \"areDefault\":true, \n        \"viewState\":\"({field:[{name:\\\"CustomerId\\\",autoFitWidth:false,width:83},{name:\\\"CustomerName\\\",autoFitWidth:false,width:182},{name:\\\"Verkaufsbereich3\\\",autoFitWidth:false,width:108},{name:\\\"BrancheCategory\\\",autoFitWidth:false,width:119},{name:\\\"CustomerPotentialGroup\\\",autoFitWidth:false,width:150},{name:\\\"ComputedPotentialGroup\\\",autoFitWidth:false,width:153},{name:\\\"m1\\\",autoFitWidth:false,width:88},{name:\\\"m2\\\",autoFitWidth:false,width:88},{name:\\\"m3\\\",autoFitWidth:false,width:200},{name:\\\"m4\\\",autoFitWidth:false,width:88},{name:\\\"m5\\\",autoFitWidth:false,width:200},{name:\\\"m6\\\",autoFitWidth:false,width:92},{name:\\\"m7\\\",autoFitWidth:false,width:55}],sort:{fieldName:\\\"BrancheCategory\\\",sortDir:\\\"ascending\\\",sortSpecifiers:[{property:\\\"BrancheCategory\\\",direction:\\\"ascending\\\"}]},group:null})\", \n        \"filter\":\"{}\", \n        \"columnLabels\":null\n    }\n}" ]
  },
  "chartType" : "DATATABLE",
  "createdByName" : "vivek.thakare",
  "externalChartDefinition" : {
    "highchart" : null,
    "queryDTOs" : [ {
      "aggregateFilter" : null,
      "datamart" : "50.DMR",
      "filter" : null,
      "label" : "Provide the recommendation for correcting wrong customer categorization",
      "name" : null,
      "options" : {
        "currency" : "EUR"
      },
      "projections" : {
        "BrancheCategory" : {
          "alias" : "BrancheCategory",
          "expression" : "BrancheCategory",
          "label" : "Branche Category"
        },
        "ComputedPotentialGroup" : {
          "alias" : "ComputedPotentialGroup",
          "expression" : "ComputedPotentialGroup",
          "label" : "Computed Potential Group"
        },
        "CustomerId" : {
          "alias" : "CustomerId",
          "expression" : "CustomerId",
          "label" : "Customer Id"
        },
        "CustomerName" : {
          "alias" : "CustomerName",
          "expression" : "CustomerName",
          "label" : "Customer Name"
        },
        "CustomerPotentialGroup" : {
          "alias" : "CustomerPotentialGroup",
          "expression" : "CustomerPotentialGroup",
          "label" : "Customer Potential Group"
        },
        "Verkaufsbereich3" : {
          "alias" : "Verkaufsbereich3",
          "expression" : "Verkaufsbereich3",
          "label" : "Verkaufsbereich3"
        },
        "m1" : {
          "advancedProjection" : true,
          "alias" : "m1",
          "default" : null,
          "expression" : "SUM({field})",
          "formatString" : "∑{field}",
          "function" : null,
          "label" : "Umsatz 2018",
          "name" : "p5_THYear3Umsatz",
          "parameters" : {
            "field" : "p5_THYear3Umsatz"
          }
        },
        "m2" : {
          "advancedProjection" : true,
          "alias" : "m2",
          "default" : null,
          "expression" : "SUM({field})",
          "formatString" : "∑{field}",
          "function" : null,
          "label" : "Umsatz 2019",
          "name" : "p3_THYear2Umsatz",
          "parameters" : {
            "field" : "p3_THYear2Umsatz"
          }
        },
        "m3" : {
          "advancedProjection" : true,
          "alias" : "m3",
          "default" : null,
          "expression" : "SUM({field})",
          "formatString" : "∑{field}",
          "function" : null,
          "label" : "Umsatz 2019 Overall Percentage",
          "name" : "p4_THY2PerUmsatzContribution",
          "parameters" : {
            "field" : "p4_THY2PerUmsatzContribution"
          }
        },
        "m4" : {
          "advancedProjection" : true,
          "alias" : "m4",
          "default" : null,
          "expression" : "SUM({field})",
          "formatString" : "∑{field}",
          "function" : null,
          "label" : "Umsatz 2020",
          "name" : "p1_THYear1Umsatz",
          "parameters" : {
            "field" : "p1_THYear1Umsatz"
          }
        },
        "m5" : {
          "advancedProjection" : true,
          "alias" : "m5",
          "default" : null,
          "expression" : "SUM({field})",
          "formatString" : "∑{field}",
          "function" : null,
          "label" : "Umsatz 2020 Overall Percentage",
          "name" : "p2_THY1PerUmsatzContribution",
          "parameters" : {
            "field" : "p2_THY1PerUmsatzContribution"
          }
        },
        "m6" : {
          "advancedProjection" : true,
          "alias" : "m6",
          "default" : null,
          "expression" : "SUM({field})",
          "formatString" : "∑{field}",
          "function" : null,
          "label" : "Customer Age",
          "name" : "p10_THAgeOfCustomer",
          "parameters" : {
            "field" : "p10_THAgeOfCustomer"
          }
        },
        "m7" : {
          "advancedProjection" : true,
          "alias" : "m7",
          "default" : null,
          "expression" : "SUM({field})",
          "formatString" : "∑{field}",
          "function" : null,
          "label" : "CAGR",
          "name" : "p9_THCAGR",
          "parameters" : {
            "field" : "p9_THCAGR"
          }
        }
      },
      "rollup" : true,
      "sortBy" : [ "CustomerId", "CustomerName", "Verkaufsbereich3", "BrancheCategory", "CustomerPotentialGroup", "ComputedPotentialGroup" ],
      "source" : "50.DMR"
    } ]
  },
  "folder" : "CustomerCategoryImpactAnalysis",
  "label" : "CustomerLevelAnalysisOfWronglyCategorizeCustomerPotential",
  "uniqueName" : "vivek.thakare__1586169652873",
  "visibility" : "PRIVATE"
}