{
  "areDefault" : true,
  "areGlobal" : true,
  "preferenceName" : "--single-preferences--",
  "viewState" : {
    "columns" : [ {
      "portlets" : [ {
        "height" : 438,
        "minimized" : false,
        "name" : "ZPAPsPerProductTable",
        "rowOffset" : 0,
        "viewState" : null
      }, {
        "height" : 507,
        "minimized" : false,
        "name" : "ZPAPsPerCustomerTable",
        "rowOffset" : 0,
        "viewState" : null
      } ],
      "width" : 295
    }, {
      "portlets" : [ {
        "height" : 500,
        "minimized" : false,
        "name" : "ZPAPsPerProductChart",
        "rowOffset" : 0,
        "viewState" : null
      }, {
        "height" : 506,
        "minimized" : false,
        "name" : "ZPAPsPerCustomerChart",
        "rowOffset" : 0,
        "viewState" : null
      } ],
      "width" : 1613
    } ]
  }
}