{
  "aggregation" : false,
  "auxiliary" : false,
  "calculated" : false,
  "deleted" : false,
  "deployed" : true,
  "dimension" : false,
  "expression" : "PocketMarginPer",
  "key" : false,
  "label" : "Pocket Margin %",
  "labelTranslations" : { },
  "measureType" : "EXTENDED",
  "numeric" : true,
  "owningFC" : "LPG Simulation",
  "partitioningKey" : false,
  "persisted" : true,
  "queryable" : true,
  "source" : "DMDS.LpgSimulation",
  "system" : false,
  "time" : false,
  "type" : "NUMBER",
  "visibility" : 1
}