{
  "elements" : [ {
    "allowOverride" : false,
    "combinationType" : "FUNCTION",
    "displayOptions" : 16,
    "elementGroups" : [ "row" ],
    "elementName" : "ArticleNumber",
    "elementTimeout" : 0,
    "hideWarnings" : false,
    "protectedExpression" : false
  }, {
    "allowOverride" : false,
    "combinationType" : "FUNCTION",
    "displayOptions" : 16,
    "elementGroups" : [ "row" ],
    "elementName" : "CustomerId",
    "elementTimeout" : 0,
    "hideWarnings" : false,
    "protectedExpression" : false
  }, {
    "allowOverride" : false,
    "combinationType" : "FUNCTION",
    "displayOptions" : 16,
    "elementGroups" : [ "row" ],
    "elementName" : "InvoiceDate",
    "elementTimeout" : 0,
    "hideWarnings" : false,
    "protectedExpression" : false
  }, {
    "allowOverride" : false,
    "combinationType" : "FUNCTION",
    "displayOptions" : 16,
    "elementGroups" : [ "row" ],
    "elementName" : "Units",
    "elementTimeout" : 0,
    "hideWarnings" : false,
    "protectedExpression" : false
  }, {
    "allowOverride" : false,
    "combinationType" : "FUNCTION",
    "displayOptions" : 16,
    "elementGroups" : [ "row" ],
    "elementName" : "RegularSalesPricePer100",
    "elementTimeout" : 0,
    "hideWarnings" : false,
    "protectedExpression" : false
  }, {
    "allowOverride" : false,
    "combinationType" : "FUNCTION",
    "displayOptions" : 16,
    "elementGroups" : [ "row" ],
    "elementName" : "ClearingRebatePrice",
    "elementTimeout" : 0,
    "hideWarnings" : false,
    "protectedExpression" : false
  } ],
  "formulaNature" : "paDataLoad",
  "inputDescriptors" : [ ],
  "label" : "Transactions - Clearing Rebates",
  "status" : "ACTIVE",
  "uniqueName" : "DL_TransactionsClearingRebates",
  "validAfter" : "2019-01-01"
}