{
  "auxiliary" : false,
  "deployed" : true,
  "fields" : [ "InvoiceDate", "InvoiceId", "isDeleted", "lastUpdateDate" ],
  "isPlasma" : false,
  "label" : "Invoices",
  "loadableFields" : [ "InvoiceId", "InvoiceDate", "isDeleted", "lastUpdateDate" ],
  "locked" : false,
  "queryable" : true,
  "type" : "DATASOURCE",
  "uniqueName" : "Invoices",
  "valid" : true,
  "view" : false
}