{
  "calculationConfig" : {
    "feederInputParams" : [ ],
    "inputParams" : [ ],
    "mappingParams" : [ ],
    "outputElements" : [ ]
  },
  "continuous" : false,
  "distributed" : false,
  "incremental" : true,
  "isDefault" : true,
  "isPlasma" : false,
  "label" : "ZRI",
  "sourceName" : "DMF.ZRI",
  "targetName" : "DMDS.ZRI",
  "type" : "DS_FLUSH",
  "valid" : true,
  "withTargetSnapshot" : false
}