{
  "aggregation" : false,
  "auxiliary" : false,
  "calculated" : false,
  "deleted" : false,
  "deployed" : true,
  "dimension" : false,
  "expression" : "ManualOverrides",
  "key" : false,
  "label" : "ManualOverrides",
  "labelTranslations" : { },
  "numeric" : false,
  "owningFC" : "RebateRecord",
  "partitioningKey" : false,
  "persisted" : true,
  "queryable" : true,
  "source" : "DMDS.RebateRecord",
  "sourceField" : "manualOverrides",
  "system" : false,
  "time" : false,
  "type" : "TEXT",
  "visibility" : 1
}