{
  "aggregation" : false,
  "auxiliary" : false,
  "calculated" : false,
  "deleted" : false,
  "deployed" : true,
  "dimension" : false,
  "expression" : "PriceChange",
  "key" : false,
  "label" : "PriceChange",
  "labelTranslations" : { },
  "measureType" : "PERUNIT",
  "numeric" : true,
  "owningFC" : "RebateRecord",
  "partitioningKey" : false,
  "persisted" : true,
  "queryable" : true,
  "source" : "DMDS.RebateRecord",
  "sourceField" : "priceChange",
  "system" : false,
  "time" : false,
  "type" : "NUMBER",
  "visibility" : 1
}