{
  "aggregation" : false,
  "auxiliary" : false,
  "calculated" : false,
  "deleted" : false,
  "deployed" : true,
  "dimension" : true,
  "expression" : "DATAB",
  "key" : true,
  "label" : "DATAB",
  "labelTranslations" : { },
  "numeric" : false,
  "owningFC" : "Manual Upload of ZPAP for verifications",
  "partitioningKey" : false,
  "persisted" : true,
  "queryable" : true,
  "source" : "DMDS.ZPAP_ManualDataUplaod",
  "system" : false,
  "time" : true,
  "type" : "DATE",
  "visibility" : 1
}