{
  "areDefault" : true,
  "areGlobal" : true,
  "preferenceName" : "Default",
  "viewState" : "({\"field\":[{\"name\":\"typedId\",\"visible\":false},{\"name\":\"sku\",\"autoFitWidth\":false,\"width\":95},{\"name\":\"lastUpdateDate\",\"autoFitWidth\":true,\"width\":110},{\"name\":\"attribute1\",\"autoFitWidth\":false,\"width\":58},{\"name\":\"attribute2\",\"autoFitWidth\":false,\"width\":55},{\"name\":\"attribute3\",\"autoFitWidth\":false,\"width\":64},{\"name\":\"attribute4\",\"autoFitWidth\":false,\"width\":59},{\"name\":\"attribute5\",\"autoFitWidth\":false,\"width\":62},{\"name\":\"attribute6\",\"autoFitWidth\":false,\"width\":63},{\"name\":\"attribute7\",\"autoFitWidth\":false,\"width\":85},{\"name\":\"attribute8\",\"autoFitWidth\":false,\"width\":57},{\"name\":\"attribute9\",\"autoFitWidth\":false,\"width\":59},{\"name\":\"attribute10\",\"autoFitWidth\":false,\"width\":62},{\"name\":\"attribute11\",\"autoFitWidth\":false,\"width\":82},{\"name\":\"attribute12\",\"autoFitWidth\":false,\"width\":82},{\"name\":\"attribute13\",\"autoFitWidth\":false,\"width\":82},{\"name\":\"attribute14\",\"autoFitWidth\":false,\"width\":82},{\"name\":\"attribute15\",\"autoFitWidth\":false,\"width\":82},{\"name\":\"attribute16\",\"autoFitWidth\":false,\"width\":82},{\"name\":\"attribute17\",\"autoFitWidth\":false,\"width\":82},{\"name\":\"attribute18\",\"autoFitWidth\":false,\"width\":73},{\"name\":\"attribute19\",\"autoFitWidth\":false,\"width\":67},{\"name\":\"attribute20\",\"autoFitWidth\":false,\"width\":90},{\"name\":\"attribute21\",\"autoFitWidth\":false,\"width\":60},{\"name\":\"attribute22\",\"autoFitWidth\":false,\"width\":63},{\"name\":\"attribute23\",\"autoFitWidth\":false,\"width\":59},{\"name\":\"attribute24\",\"autoFitWidth\":false,\"width\":64},{\"name\":\"attribute25\",\"autoFitWidth\":false,\"width\":57},{\"name\":\"attribute26\",\"autoFitWidth\":false,\"width\":56},{\"name\":\"attribute27\",\"autoFitWidth\":false,\"width\":57},{\"name\":\"attribute28\",\"autoFitWidth\":false,\"width\":58},{\"name\":\"attribute29\",\"autoFitWidth\":false,\"width\":94},{\"name\":\"attribute30\",\"autoFitWidth\":false,\"width\":94},{\"name\":\"attribute31\",\"autoFitWidth\":false,\"width\":57},{\"name\":\"attribute32\",\"autoFitWidth\":false,\"width\":67},{\"name\":\"attribute33\",\"autoFitWidth\":false,\"width\":75},{\"name\":\"attribute34\",\"autoFitWidth\":false,\"width\":83},{\"name\":\"attribute35\",\"autoFitWidth\":false,\"width\":57},{\"name\":\"attribute36\",\"autoFitWidth\":false,\"width\":76},{\"name\":\"attribute37\",\"visible\":false,\"autoFitWidth\":false,\"width\":76},{\"name\":\"attribute38\",\"visible\":false,\"autoFitWidth\":false,\"width\":57},{\"name\":\"attribute39\",\"visible\":false},{\"name\":\"attribute40\",\"visible\":false},{\"name\":\"attribute41\",\"visible\":false},{\"name\":\"attribute42\",\"visible\":false},{\"name\":\"attribute43\",\"visible\":false},{\"name\":\"attribute44\",\"visible\":false},{\"name\":\"attribute45\",\"visible\":false},{\"name\":\"attribute46\",\"visible\":false},{\"name\":\"attribute47\",\"visible\":false},{\"name\":\"attribute48\",\"visible\":false},{\"name\":\"attribute49\",\"visible\":false},{\"name\":\"attribute50\",\"visible\":false}],\"pricefx_columnLabels\":null})"
}