{
  "aggregation" : false,
  "auxiliary" : false,
  "calculated" : false,
  "deleted" : false,
  "deployed" : true,
  "dimension" : false,
  "expression" : "AugCurrentTotalPocketMarginNetPrice",
  "key" : false,
  "label" : "August Current Total Pocket Margin (Net Price)",
  "labelTranslations" : { },
  "measureType" : "EXTENDED",
  "numeric" : true,
  "partitioningKey" : false,
  "persisted" : true,
  "queryable" : true,
  "system" : false,
  "time" : false,
  "type" : "MONEY",
  "visibility" : 1
}