{
  "aggregation" : false,
  "auxiliary" : false,
  "calculated" : false,
  "deleted" : false,
  "deployed" : true,
  "dimension" : false,
  "expression" : "DecGrossPrice",
  "key" : false,
  "label" : "DecGrossPrice",
  "labelTranslations" : { },
  "numeric" : true,
  "partitioningKey" : false,
  "persisted" : true,
  "queryable" : true,
  "system" : false,
  "time" : false,
  "type" : "NUMBER",
  "visibility" : 1
}