{
  "aggregation" : false,
  "auxiliary" : false,
  "calculated" : false,
  "deleted" : false,
  "deployed" : true,
  "dimension" : false,
  "expression" : "CCCategorizationMatchingRevenue",
  "key" : false,
  "label" : "CategorizationMatchingRevenue",
  "numeric" : false,
  "owningFC" : "CustomerCategorizationImpactOnMargins",
  "persisted" : true,
  "queryable" : true,
  "source" : "DMDS.CustomerCategorizationImpactOnMargins",
  "system" : false,
  "time" : false,
  "type" : "BOOLEAN"
}