{
  "aggregation" : false,
  "auxiliary" : false,
  "calculated" : false,
  "deleted" : false,
  "deployed" : true,
  "dimension" : false,
  "expression" : "NonCCDUmsatz",
  "key" : false,
  "label" : "Other Umsatz",
  "measureType" : "EXTENDED",
  "numeric" : true,
  "owningFC" : "CustomerCategorizationImpactOnMargins",
  "persisted" : true,
  "queryable" : true,
  "source" : "DMDS.CustomerCategorizationImpactOnMargins",
  "system" : false,
  "time" : false,
  "type" : "MONEY"
}