{
  "aggregation" : false,
  "auxiliary" : false,
  "calculated" : false,
  "deleted" : false,
  "deployed" : true,
  "dimension" : false,
  "expression" : "ToDate",
  "key" : false,
  "label" : "To Date",
  "labelTranslations" : { },
  "numeric" : false,
  "owningFC" : "ZNRVForCompare",
  "partitioningKey" : false,
  "persisted" : true,
  "queryable" : true,
  "source" : "DMDS.ToCompareSurchargeCostPrice_1",
  "sourceField" : "attribute2",
  "system" : false,
  "time" : true,
  "type" : "DATE",
  "visibility" : 1
}