{
  "elements" : [ {
    "allowOverride" : false,
    "combinationType" : "INFO",
    "displayOptions" : 16,
    "elementLabel" : "Get Sku",
    "elementName" : "sku",
    "elementTimeout" : 0,
    "hideOnNull" : false,
    "hideWarnings" : false,
    "protectedExpression" : false,
    "summarize" : false
  }, {
    "allowOverride" : false,
    "combinationType" : "INFO",
    "displayOptions" : 16,
    "elementLabel" : "Nettopreis Deutschland aus PP",
    "elementName" : "VK_Netto_DE",
    "elementTimeout" : 0,
    "hideOnNull" : false,
    "hideWarnings" : false,
    "protectedExpression" : false,
    "summarize" : false
  } ],
  "inputDescriptors" : [ ],
  "label" : "Nettopreise DE+Global in VK-Netto in PM",
  "status" : "ACTIVE",
  "uniqueName" : "Nettopreise_DE",
  "validAfter" : "2015-10-01"
}