{
  "areDefault" : true,
  "areGlobal" : true,
  "preferenceName" : "Global Default",
  "viewState" : "({\"field\":[{\"name\":\"typedId\",\"visible\":false},{\"name\":\"sku\",\"autoFitWidth\":false,\"width\":96},{\"name\":\"lastUpdateDate\",\"autoFitWidth\":false,\"width\":108},{\"name\":\"attribute1\",\"autoFitWidth\":false,\"width\":84},{\"name\":\"attribute2\",\"autoFitWidth\":false,\"width\":94},{\"name\":\"attribute3\",\"autoFitWidth\":false,\"width\":94},{\"name\":\"attribute4\",\"autoFitWidth\":false,\"width\":129},{\"name\":\"attribute13\",\"autoFitWidth\":false,\"width\":70},{\"name\":\"attribute8\",\"autoFitWidth\":false,\"width\":87},{\"name\":\"attribute14\",\"visible\":false},{\"name\":\"attribute15\",\"visible\":false},{\"name\":\"attribute16\",\"visible\":false},{\"name\":\"attribute17\",\"visible\":false},{\"name\":\"attribute9\",\"autoFitWidth\":false,\"width\":101},{\"name\":\"attribute10\",\"autoFitWidth\":false,\"width\":150},{\"name\":\"attribute11\",\"autoFitWidth\":false,\"width\":132},{\"name\":\"attribute12\",\"autoFitWidth\":false,\"width\":82},{\"name\":\"attribute5\",\"autoFitWidth\":true,\"width\":89},{\"name\":\"attribute6\",\"autoFitWidth\":true,\"width\":80},{\"name\":\"attribute7\",\"autoFitWidth\":false,\"width\":109},{\"name\":\"attribute18\",\"autoFitWidth\":false,\"width\":116},{\"name\":\"attribute19\",\"autoFitWidth\":false,\"width\":94},{\"name\":\"attribute21\",\"autoFitWidth\":false,\"width\":149},{\"name\":\"attribute22\",\"autoFitWidth\":false,\"width\":135},{\"name\":\"attribute20\",\"autoFitWidth\":false,\"width\":85},{\"name\":\"attribute23\",\"visible\":false},{\"name\":\"attribute24\",\"visible\":false},{\"name\":\"attribute25\",\"visible\":false},{\"name\":\"attribute26\",\"visible\":false},{\"name\":\"attribute27\",\"visible\":false},{\"name\":\"attribute28\",\"visible\":false},{\"name\":\"attribute29\",\"visible\":false},{\"name\":\"attribute30\",\"visible\":false}],\"sort\":{\"fieldName\":\"attribute8\",\"sortDir\":\"descending\",\"sortSpecifiers\":[{\"property\":\"attribute8\",\"direction\":\"descending\"}]},\"pricefx_columnLabels\":null})"
}