{
  "areDefault" : true,
  "areGlobal" : true,
  "columnLabels" : "{}",
  "preferenceName" : "PSD_1",
  "viewState" : {
    "field" : [ ],
    "layout" : [ {
      "h" : 5,
      "i" : "StoredReferencePrices",
      "isChart" : false,
      "isMaximized" : null,
      "minH" : 3,
      "minW" : 3,
      "moved" : false,
      "static" : false,
      "w" : 12,
      "x" : 0,
      "y" : 29
    }, {
      "h" : 6,
      "i" : "PercentageCountOfTransactionsPerSalesTypePerMonth",
      "isChart" : false,
      "isMaximized" : null,
      "minH" : 3,
      "minW" : 3,
      "moved" : false,
      "static" : false,
      "w" : 12,
      "x" : 0,
      "y" : 23
    }, {
      "h" : 6,
      "i" : "AbsoluteCountOfTransactionsPerSalesTypePerMonth",
      "isChart" : false,
      "isMaximized" : null,
      "minH" : 3,
      "minW" : 3,
      "moved" : false,
      "static" : false,
      "w" : 12,
      "x" : 0,
      "y" : 17
    }, {
      "h" : 6,
      "i" : "PercentageRelativeRevenuePerPerSalesTypePerMonth",
      "isChart" : false,
      "isMaximized" : null,
      "minH" : 3,
      "minW" : 3,
      "moved" : false,
      "static" : false,
      "w" : 12,
      "x" : 0,
      "y" : 11
    }, {
      "h" : 6,
      "i" : "AbsoluteRevenueSumPerSalesTypePerMonth",
      "isChart" : false,
      "isMaximized" : null,
      "minH" : 3,
      "minW" : 3,
      "moved" : false,
      "static" : false,
      "w" : 12,
      "x" : 0,
      "y" : 5
    }, {
      "h" : 5,
      "i" : "SummaryTable",
      "isChart" : false,
      "isMaximized" : null,
      "minH" : 3,
      "minW" : 3,
      "moved" : false,
      "static" : false,
      "w" : 12,
      "x" : 0,
      "y" : 0
    }, {
      "h" : 3,
      "i" : "TempCompute",
      "isAutoHidden" : true,
      "isChart" : false,
      "isHidden" : false,
      "isMaximized" : null,
      "minH" : 2,
      "minW" : 2,
      "moved" : false,
      "static" : false,
      "w" : 6,
      "x" : 0,
      "y" : 9
    } ]
  }
}