{
  "areDefault" : true,
  "areGlobal" : true,
  "columnLabels" : "{}",
  "preferenceName" : "Default",
  "viewState" : {
    "field" : [ ],
    "layout" : [ {
      "h" : 7,
      "i" : "CustomerPerformingChart",
      "isChart" : true,
      "isMaximized" : null,
      "minH" : 1,
      "minW" : 1,
      "moved" : false,
      "static" : false,
      "w" : 6,
      "x" : 0,
      "y" : 0
    }, {
      "h" : 7,
      "i" : "ProductPerformingChart",
      "isChart" : true,
      "isMaximized" : null,
      "minH" : 1,
      "minW" : 1,
      "moved" : false,
      "static" : false,
      "w" : 6,
      "x" : 6,
      "y" : 0
    }, {
      "h" : 7,
      "i" : "PerformingCustomers",
      "isChart" : false,
      "isMaximized" : null,
      "minH" : 3,
      "minW" : 3,
      "moved" : false,
      "static" : false,
      "w" : 6,
      "x" : 0,
      "y" : 7
    }, {
      "h" : 7,
      "i" : "PerformingProducts",
      "isChart" : false,
      "isMaximized" : null,
      "minH" : 3,
      "minW" : 3,
      "moved" : false,
      "static" : false,
      "w" : 6,
      "x" : 6,
      "y" : 7
    } ]
  }
}