{
  "areDefault" : true,
  "areGlobal" : true,
  "preferenceName" : "--single-preferences--",
  "viewState" : {
    "columns" : [ {
      "portlets" : [ {
        "height" : 652,
        "minimized" : false,
        "name" : "CustomerCPGDistribution",
        "rowOffset" : 0,
        "viewState" : null
      }, {
        "height" : 500,
        "minimized" : false,
        "name" : "UndefinedCPGAnalysis",
        "rowOffset" : 0,
        "viewState" : null
      }, {
        "height" : 657,
        "minimized" : false,
        "name" : "CustomerCategoryDistribution",
        "rowOffset" : 0,
        "viewState" : null
      }, {
        "height" : 500,
        "minimized" : false,
        "name" : "RevenueDistribution",
        "rowOffset" : 0,
        "viewState" : null
      }, {
        "height" : 500,
        "minimized" : false,
        "name" : "RevDistributionDetails",
        "rowOffset" : 0,
        "viewState" : null
      } ],
      "width" : 1695
    } ],
    "isToolbarVisible" : true
  }
}