{
  "folder" : "HistoricalData",
  "hideWarnings" : false,
  "isPlasma" : false,
  "status" : "ACTIVE",
  "type" : "MATRIX",
  "uniqueName" : "ClearingRebatesPerCustomerClassHistory",
  "validAfter" : "2018-01-01",
  "valueType" : "MATRIX2"
}