{
  "areDefault" : true,
  "areGlobal" : true,
  "columnLabels" : "{}",
  "preferenceName" : "ZPAP PG View",
  "viewState" : {
    "field" : [ {
      "autoFitWidth" : false,
      "frozen" : false,
      "name" : "Prodh__II",
      "visible" : true,
      "width" : 159
    }, {
      "autoFitWidth" : false,
      "frozen" : false,
      "name" : "Prodh__III",
      "visible" : true,
      "width" : 204
    }, {
      "autoFitWidth" : false,
      "frozen" : false,
      "name" : "Prodh__IV",
      "visible" : true,
      "width" : 112
    }, {
      "autoFitWidth" : false,
      "frozen" : false,
      "name" : "Number_of_Customers",
      "visible" : true,
      "width" : 130
    }, {
      "autoFitWidth" : false,
      "frozen" : false,
      "name" : "Number_of_Material_with_ZPAP(Year-2019)",
      "visible" : true,
      "width" : 228
    }, {
      "autoFitWidth" : false,
      "frozen" : false,
      "name" : "Number_of_ZPAP(Year-2019)",
      "visible" : true,
      "width" : 163
    }, {
      "autoFitWidth" : false,
      "frozen" : false,
      "name" : "Min_Discount__",
      "visible" : false,
      "width" : 99
    }, {
      "autoFitWidth" : false,
      "frozen" : false,
      "name" : "Max_Discount__",
      "visible" : false,
      "width" : 102
    }, {
      "autoFitWidth" : false,
      "frozen" : false,
      "name" : "Avg_Discount__",
      "visible" : true,
      "width" : 100
    } ],
    "group" : [ ],
    "sort" : {
      "fieldName" : "Prodh. II",
      "sortDir" : "ascending",
      "sortSpecifiers" : [ {
        "direction" : "ascending",
        "property" : "Prodh. II"
      } ]
    }
  }
}