{
  "configuration" : {
    "entries" : [ {
      "formulaName" : "CFF_MonitoredConfigNotifications",
      "id" : "DF4E2592-7FA1-4B21-AAB1-14D202A86F1D",
      "name" : "ConfigurationMonitorNotification",
      "numberOfTimeUnits" : 7,
      "periodic" : true,
      "startingDate" : "2021-07-05T17:30:00",
      "targetDate" : null,
      "timeUnit" : "DAY"
    } ]
  }
}