{
  "configuration" : {
    "entries" : [ {
      "formulaName" : "CFF_RunUpdateMarginMonthlyCFS",
      "globalFormulaState" : { },
      "id" : "7BD96631-AB8F-4C63-8FA5-10FD1ECA3546",
      "name" : "Run CFS \"Update Margin Monthly\"",
      "numberOfTimeUnits" : 7,
      "periodic" : true,
      "startingDate" : "2022-04-18T11:00:00",
      "timeUnit" : "DAY"
    } ]
  }
}