{
  "configuration" : {
    "entries" : [ {
      "formulaName" : "SurchargeCheckLPGRecalculate",
      "globalFormulaState" : { },
      "id" : "96581CA7-D36F-439D-8A6F-CE211BD963B9",
      "name" : "Run",
      "numberOfTimeUnits" : 7,
      "periodic" : true,
      "startingDate" : "2022-04-18T06:51:00",
      "timeUnit" : "DAY"
    } ]
  }
}