{
  "elements" : [ {
    "allowOverride" : false,
    "combinationType" : "FUNCTION",
    "displayOptions" : 0,
    "elementGroups" : [ ],
    "elementName" : "BaseCosts",
    "elementTimeout" : 0,
    "hideWarnings" : false,
    "protectedExpression" : false
  }, {
    "allowOverride" : false,
    "combinationType" : "FUNCTION",
    "displayOptions" : 0,
    "elementGroups" : [ ],
    "elementName" : "SalesPrices",
    "elementTimeout" : 0,
    "hideWarnings" : false,
    "protectedExpression" : false
  }, {
    "allowOverride" : false,
    "combinationType" : "FUNCTION",
    "displayOptions" : 0,
    "elementGroups" : [ ],
    "elementName" : "ChartData",
    "elementTimeout" : 0,
    "hideWarnings" : false,
    "protectedExpression" : false
  }, {
    "allowOverride" : false,
    "combinationType" : "FUNCTION",
    "displayOptions" : 16,
    "elementGroups" : [ ],
    "elementLabel" : "Contribution Margin",
    "elementName" : "MarginChart",
    "elementTimeout" : 0,
    "hideWarnings" : false,
    "protectedExpression" : false
  }, {
    "allowOverride" : false,
    "combinationType" : "FUNCTION",
    "displayOptions" : 16,
    "elementGroups" : [ ],
    "elementLabel" : "Table",
    "elementName" : "Table",
    "elementTimeout" : 0,
    "hideWarnings" : false,
    "protectedExpression" : false
  } ],
  "formulaNature" : "productDetail",
  "inputDescriptors" : [ ],
  "status" : "ACTIVE",
  "uniqueName" : "ProductDetails_Margin",
  "validAfter" : "2018-01-01"
}