{
  "actionUUID" : "TruncateTask-y66wP",
  "calculationConfig" : {
    "feederInputParams" : [ ],
    "inputParams" : [ ],
    "mappingParams" : [ ],
    "outputElements" : [ ]
  },
  "continuous" : false,
  "distributed" : false,
  "incLoadDate" : "2021-05-24T01:47:09",
  "incremental" : false,
  "isDefault" : true,
  "isPlasma" : false,
  "label" : "ZPAPs DM",
  "targetName" : "DM.CustomerSalesPricesDM",
  "type" : "TRUNCATE",
  "valid" : true,
  "withTargetSnapshot" : false
}