{
  "aggregation" : false,
  "auxiliary" : false,
  "calculated" : false,
  "deleted" : false,
  "deployed" : true,
  "dimension" : false,
  "expression" : "UnitsSold",
  "key" : false,
  "label" : "Units Sold",
  "labelTranslations" : { },
  "measureType" : "EXTENDED",
  "numeric" : true,
  "owningFC" : "Sales History Copy",
  "partitioningKey" : false,
  "persisted" : true,
  "queryable" : true,
  "source" : "DMDS.SalesHistoryCopy",
  "system" : false,
  "time" : false,
  "type" : "QUANTITY",
  "visibility" : 1
}