{
  "aggregation" : false,
  "auxiliary" : false,
  "calculated" : false,
  "deleted" : false,
  "deployed" : true,
  "dimension" : true,
  "expression" : "YearMonth",
  "key" : true,
  "label" : "Year-Month",
  "labelTranslations" : { },
  "numeric" : false,
  "owningFC" : "Sales History Copy",
  "partitioningKey" : false,
  "persisted" : true,
  "queryable" : true,
  "source" : "DMDS.SalesHistoryCopy",
  "system" : false,
  "time" : true,
  "type" : "DATE",
  "visibility" : 1
}