{
  "aggregation" : false,
  "auxiliary" : false,
  "calculated" : false,
  "deleted" : false,
  "deployed" : true,
  "dimension" : true,
  "expression" : "customerId",
  "key" : true,
  "label" : "Customer ID",
  "labelTranslations" : { },
  "numeric" : false,
  "owningFC" : "CustomerSalesPrice",
  "partitioningKey" : false,
  "persisted" : true,
  "queryable" : true,
  "source" : "DMDS.CustomerSalesPrice",
  "system" : false,
  "time" : false,
  "type" : "TEXT",
  "visibility" : 1
}