{
  "fieldName" : "attribute11",
  "fieldType" : 2,
  "label" : "PreviousCost",
  "labelTranslations" : {
    "" : "Previous Cost Attribute Name"
  },
  "readOnly" : false,
  "requiredField" : false
}