{
  "fieldName" : "attribute5",
  "fieldType" : 2,
  "label" : "PriceChangeType",
  "labelTranslations" : {
    "" : "Price Change Type Attribute Name"
  },
  "readOnly" : false,
  "requiredField" : false
}