{
  "elements" : [ {
    "allowOverride" : false,
    "combinationType" : "FUNCTION",
    "displayOptions" : 16,
    "elementGroups" : [ ],
    "elementName" : "Run",
    "elementTimeout" : 0,
    "hideOnNull" : false,
    "hideWarnings" : false,
    "protectedExpression" : false,
    "summarize" : false
  } ],
  "formulaNature" : "calculationFlow",
  "inputDescriptors" : [ ],
  "label" : "Run Update Percentage Price Increase CFS",
  "status" : "ACTIVE",
  "uniqueName" : "CFF_RunUpdatePercentagePriceIncreaseCFS",
  "validAfter" : "2021-06-22"
}