{
  "aggregation" : false,
  "auxiliary" : false,
  "calculated" : false,
  "deleted" : false,
  "deployed" : true,
  "dimension" : false,
  "expression" : "ZPS",
  "key" : false,
  "label" : "ZPS",
  "labelTranslations" : { },
  "measureType" : "PERUNIT",
  "numeric" : true,
  "owningFC" : "Active Conditions For Deactivated Materials",
  "partitioningKey" : false,
  "persisted" : true,
  "queryable" : true,
  "source" : "DMDS.ActiveConditionsForDeactivatedMaterails",
  "sourceField" : "ZPS",
  "system" : false,
  "time" : false,
  "type" : "NUMBER",
  "visibility" : 1
}