{
  "aggregation" : false,
  "auxiliary" : false,
  "calculated" : false,
  "deleted" : false,
  "deployed" : true,
  "dimension" : false,
  "expression" : "SHY1PerUmsatzContribution",
  "key" : false,
  "label" : "SHY1PerUmsatzContribution",
  "labelTranslations" : { },
  "measureType" : "PERUNIT",
  "numeric" : true,
  "owningFC" : "CustomerSummaryData",
  "partitioningKey" : false,
  "persisted" : true,
  "queryable" : true,
  "source" : "DMDS.CustomerSummaryData",
  "sourceField" : "SHY1PerUmsatzContribution",
  "system" : false,
  "time" : false,
  "type" : "NUMBER",
  "visibility" : 1
}