{
  "areDefault" : true,
  "areGlobal" : true,
  "filter" : { },
  "preferenceName" : "Default",
  "viewState" : "({field:[{name:\"Monat\",autoFitWidth:false,width:68},{name:\"2013\",autoFitWidth:false,width:59},{name:\"2014\",autoFitWidth:false,width:68},{name:\"2015\",autoFitWidth:false,width:65},{name:\"2016\",autoFitWidth:false,width:62},{name:\"2017\",autoFitWidth:false,width:61},{name:\"2018\",autoFitWidth:false,width:76},{name:\"CAGR\",autoFitWidth:false,width:54},{name:\"Hochgerechnet\",autoFitWidth:false,width:97},{name:\"Ist_vs_Soll_(_)\",autoFitWidth:false,width:90}]})"
}