{
  "auxiliary" : false,
  "deployed" : true,
  "fields" : [ "CustomerSalesPrice", "DiscountABS", "DiscountPercentage", "Margin", "MatchType", "Material", "Revenue", "SalesPrice", "SourceID", "SupplierId", "Units", "ValidFrom", "ValidTo", "customerId", "isDeleted", "lastUpdateDate" ],
  "isPlasma" : false,
  "label" : "CustomerSalesPrice",
  "loadableFields" : [ "CustomerSalesPrice", "Material", "SourceID", "SupplierId", "ValidFrom", "ValidTo", "customerId", "DiscountABS", "DiscountPercentage", "SalesPrice", "MatchType", "Revenue", "Margin", "Units", "isDeleted", "lastUpdateDate" ],
  "locked" : false,
  "queryable" : true,
  "type" : "DATASOURCE",
  "uniqueName" : "CustomerSalesPrice",
  "valid" : true,
  "view" : false
}