{
  "aggregation" : false,
  "auxiliary" : false,
  "calculated" : false,
  "deleted" : false,
  "deployed" : true,
  "dimension" : true,
  "expression" : "Gltigbis",
  "key" : false,
  "label" : "Gültig bis",
  "labelTranslations" : { },
  "numeric" : false,
  "owningFC" : "Spezialpreis (ZPAP)",
  "partitioningKey" : false,
  "persisted" : true,
  "queryable" : true,
  "source" : "DMDS.CustomerSalesPrice_2",
  "sourceField" : "attribute3",
  "system" : false,
  "time" : true,
  "type" : "DATE",
  "visibility" : 1
}