{
  "areDefault" : true,
  "areGlobal" : true,
  "preferenceName" : "MLZperCDG_Table",
  "viewState" : {
    "field" : [ {
      "frozen" : false,
      "name" : "Discount_Group",
      "visible" : true
    }, {
      "frozen" : false,
      "name" : "Count_of_ZPAPs",
      "visible" : true
    } ],
    "group" : [ ],
    "sort" : { }
  }
}