{
  "actionUUID" : "CalculationTask-LCReN",
  "calculationConfig" : {
    "feederInputParams" : [ ],
    "formulaName" : "DL_CalculateCustomerCategoryImpactOnMargin",
    "inputParams" : [ {
      "formattingOptions" : { },
      "label" : "CCYear",
      "name" : "CCYear",
      "parameterConfig" : {
        "dataType" : "date"
      },
      "type" : "DATEUSERENTRY"
    }, {
      "formattingOptions" : { },
      "label" : "NonCCDUmsatz",
      "name" : "NonCCDUmsatz",
      "parameterConfig" : {
        "dataType" : "float"
      },
      "type" : "USERENTRY"
    }, {
      "formattingOptions" : { },
      "label" : "CustomerId",
      "name" : "CustomerId",
      "parameterConfig" : {
        "dataType" : "text"
      },
      "type" : "STRINGUSERENTRY"
    }, {
      "formattingOptions" : { },
      "label" : "CCVerkaufsbereich3",
      "name" : "CCVerkaufsbereich3",
      "parameterConfig" : {
        "dataType" : "text"
      },
      "type" : "STRINGUSERENTRY"
    }, {
      "formattingOptions" : { },
      "label" : "CCUnitsPurchased",
      "name" : "CCUnitsPurchased",
      "parameterConfig" : {
        "dataType" : "float"
      },
      "type" : "USERENTRY"
    }, {
      "formattingOptions" : { },
      "label" : "CCDMenge",
      "name" : "CCDMenge",
      "parameterConfig" : {
        "dataType" : "float"
      },
      "type" : "USERENTRY"
    }, {
      "formattingOptions" : { },
      "label" : "CustomerCreationDate",
      "name" : "CustomerCreationDate",
      "parameterConfig" : {
        "dataType" : "date"
      },
      "type" : "DATEUSERENTRY"
    }, {
      "formattingOptions" : { },
      "label" : "NonCCDMenge",
      "name" : "NonCCDMenge",
      "parameterConfig" : {
        "dataType" : "float"
      },
      "type" : "USERENTRY"
    }, {
      "formattingOptions" : { },
      "label" : "OtherMargin",
      "name" : "OtherMargin",
      "parameterConfig" : {
        "dataType" : "float"
      },
      "type" : "USERENTRY"
    }, {
      "formattingOptions" : { },
      "label" : "CCKundePotentialGruppe",
      "name" : "CCKundePotentialGruppe",
      "parameterConfig" : {
        "dataType" : "text"
      },
      "type" : "STRINGUSERENTRY"
    }, {
      "formattingOptions" : { },
      "label" : "CCTotalRevenue",
      "name" : "CCTotalRevenue",
      "parameterConfig" : {
        "dataType" : "float"
      },
      "type" : "USERENTRY"
    }, {
      "formattingOptions" : { },
      "label" : "CCTotalMargin",
      "name" : "CCTotalMargin",
      "parameterConfig" : {
        "dataType" : "float"
      },
      "type" : "USERENTRY"
    }, {
      "formattingOptions" : { },
      "label" : "CCDUmsatz",
      "name" : "CCDUmsatz",
      "parameterConfig" : {
        "dataType" : "float"
      },
      "type" : "USERENTRY"
    }, {
      "formattingOptions" : { },
      "label" : "CCDMargin",
      "name" : "CCDMargin",
      "parameterConfig" : {
        "dataType" : "float"
      },
      "type" : "USERENTRY"
    } ],
    "mappingParams" : [ {
      "formattingOptions" : { },
      "label" : "CCYear",
      "name" : "CCYear",
      "parameterConfig" : { },
      "type" : ""
    }, {
      "formattingOptions" : { },
      "label" : "NonCCDUmsatz",
      "name" : "NonCCDUmsatz",
      "parameterConfig" : { },
      "type" : ""
    }, {
      "formattingOptions" : { },
      "label" : "CustomerId",
      "name" : "CustomerId",
      "parameterConfig" : { },
      "type" : ""
    }, {
      "formattingOptions" : { },
      "label" : "CCVerkaufsbereich3",
      "name" : "CCVerkaufsbereich3",
      "parameterConfig" : { },
      "type" : ""
    }, {
      "formattingOptions" : { },
      "label" : "CCUnitsPurchased",
      "name" : "CCUnitsPurchased",
      "parameterConfig" : { },
      "type" : ""
    }, {
      "formattingOptions" : { },
      "label" : "CCDMenge",
      "name" : "CCDMenge",
      "parameterConfig" : { },
      "type" : ""
    }, {
      "formattingOptions" : { },
      "label" : "CustomerCreationDate",
      "name" : "CustomerCreationDate",
      "parameterConfig" : { },
      "type" : ""
    }, {
      "formattingOptions" : { },
      "label" : "NonCCDMenge",
      "name" : "NonCCDMenge",
      "parameterConfig" : { },
      "type" : ""
    }, {
      "formattingOptions" : { },
      "label" : "OtherMargin",
      "name" : "OtherMargin",
      "parameterConfig" : { },
      "type" : ""
    }, {
      "formattingOptions" : { },
      "label" : "CCKundePotentialGruppe",
      "name" : "CCKundePotentialGruppe",
      "parameterConfig" : { },
      "type" : ""
    }, {
      "formattingOptions" : { },
      "label" : "CCTotalRevenue",
      "name" : "CCTotalRevenue",
      "parameterConfig" : { },
      "type" : ""
    }, {
      "formattingOptions" : { },
      "label" : "CCTotalMargin",
      "name" : "CCTotalMargin",
      "parameterConfig" : { },
      "type" : ""
    }, {
      "formattingOptions" : { },
      "label" : "CCDUmsatz",
      "name" : "CCDUmsatz",
      "parameterConfig" : { },
      "type" : ""
    }, {
      "formattingOptions" : { },
      "label" : "CCDMargin",
      "name" : "CCDMargin",
      "parameterConfig" : { },
      "type" : ""
    } ],
    "outputElements" : [ {
      "displayedInPriceShop" : true,
      "elementGroups" : [ "row" ],
      "elementLabel" : "Potential Umsatz Gain",
      "elementName" : "PotentialUmsatzGain",
      "formulaDate" : "2018-01-01",
      "formulaName" : "DL_CalculateCustomerCategoryImpactOnMargin",
      "key" : false,
      "selected" : true
    }, {
      "displayedInPriceShop" : true,
      "elementGroups" : [ "row" ],
      "elementLabel" : "ProjectedSubtotalMargin",
      "elementName" : "ProjectedSubtotalMargin",
      "formatType" : "MONEY",
      "formulaDate" : "2018-01-01",
      "formulaName" : "DL_CalculateCustomerCategoryImpactOnMargin",
      "key" : false,
      "selected" : false
    }, {
      "displayedInPriceShop" : true,
      "elementGroups" : [ "row" ],
      "elementLabel" : "QualifiedPotentialRevGainPer",
      "elementName" : "QualifiedPotentialRevGainPer",
      "formulaDate" : "2018-01-01",
      "formulaName" : "DL_CalculateCustomerCategoryImpactOnMargin",
      "key" : false,
      "selected" : true
    }, {
      "displayedInPriceShop" : true,
      "elementGroups" : [ "row" ],
      "elementLabel" : "Sales Office",
      "elementName" : "CCVerkaufsbereich3",
      "formulaDate" : "2018-01-01",
      "formulaName" : "DL_CalculateCustomerCategoryImpactOnMargin",
      "key" : false,
      "selected" : true
    }, {
      "displayedInPriceShop" : true,
      "elementGroups" : [ "row" ],
      "elementName" : "AvoidSyntaxCheck",
      "formulaDate" : "2018-01-01",
      "formulaName" : "DL_CalculateCustomerCategoryImpactOnMargin",
      "key" : false,
      "selected" : false
    }, {
      "displayedInPriceShop" : true,
      "elementGroups" : [ "row" ],
      "elementLabel" : "Customer Id",
      "elementName" : "CustomerId",
      "formatType" : "TEXT",
      "formulaDate" : "2018-01-01",
      "formulaName" : "DL_CalculateCustomerCategoryImpactOnMargin",
      "key" : false,
      "selected" : true
    }, {
      "displayedInPriceShop" : true,
      "elementGroups" : [ "row" ],
      "elementLabel" : "NonCCDMargin",
      "elementName" : "NonCCDMargin",
      "formatType" : "MONEY",
      "formulaDate" : "2018-01-01",
      "formulaName" : "DL_CalculateCustomerCategoryImpactOnMargin",
      "key" : false,
      "selected" : false
    }, {
      "displayedInPriceShop" : true,
      "elementGroups" : [ "row" ],
      "elementLabel" : "Qualified Umsatz",
      "elementName" : "CCDUmsatz",
      "formulaDate" : "2018-01-01",
      "formulaName" : "DL_CalculateCustomerCategoryImpactOnMargin",
      "key" : false,
      "selected" : true
    }, {
      "displayedInPriceShop" : true,
      "elementGroups" : [ "row" ],
      "elementLabel" : "Subtotal COGS",
      "elementName" : "SubtotalCOGS",
      "formulaDate" : "2018-01-01",
      "formulaName" : "DL_CalculateCustomerCategoryImpactOnMargin",
      "key" : false,
      "selected" : true
    }, {
      "displayedInPriceShop" : true,
      "elementGroups" : [ "row" ],
      "elementLabel" : "CCTotalRevenue",
      "elementName" : "CCTotalRevenue",
      "formatType" : "MONEY",
      "formulaDate" : "2018-01-01",
      "formulaName" : "DL_CalculateCustomerCategoryImpactOnMargin",
      "key" : false,
      "selected" : true
    }, {
      "displayedInPriceShop" : true,
      "elementGroups" : [ "row" ],
      "elementLabel" : "Potential Margin Gain",
      "elementName" : "PotentialMarginGain",
      "formulaDate" : "2018-01-01",
      "formulaName" : "DL_CalculateCustomerCategoryImpactOnMargin",
      "key" : false,
      "selected" : true
    }, {
      "displayedInPriceShop" : true,
      "elementGroups" : [ "row" ],
      "elementLabel" : "QualifiedPotentialMarGainPer",
      "elementName" : "QualifiedPotentialMarGainPer",
      "formulaDate" : "2018-01-01",
      "formulaName" : "DL_CalculateCustomerCategoryImpactOnMargin",
      "key" : false,
      "selected" : true
    }, {
      "displayedInPriceShop" : true,
      "elementGroups" : [ "row" ],
      "elementLabel" : "Discount Percentage Gain",
      "elementName" : "DiscountPerGain",
      "formatType" : "PERCENT",
      "formulaDate" : "2018-01-01",
      "formulaName" : "DL_CalculateCustomerCategoryImpactOnMargin",
      "key" : false,
      "selected" : true
    }, {
      "displayedInPriceShop" : true,
      "elementGroups" : [ "row" ],
      "elementLabel" : "QualifiedPotential Margin Gain",
      "elementName" : "QualifiedPotentialMarginGain",
      "formatType" : "MONEY",
      "formulaDate" : "2018-01-01",
      "formulaName" : "DL_CalculateCustomerCategoryImpactOnMargin",
      "key" : false,
      "selected" : false
    }, {
      "displayedInPriceShop" : true,
      "elementGroups" : [ "row" ],
      "elementLabel" : "PotentialMargin",
      "elementName" : "PotentialMargin",
      "formulaDate" : "2018-01-01",
      "formulaName" : "DL_CalculateCustomerCategoryImpactOnMargin",
      "key" : false,
      "selected" : true
    }, {
      "displayedInPriceShop" : true,
      "elementGroups" : [ "row" ],
      "elementLabel" : "Non CCD Umsatz",
      "elementName" : "NonCCDUmsatz",
      "formatType" : "MONEY",
      "formulaDate" : "2018-01-01",
      "formulaName" : "DL_CalculateCustomerCategoryImpactOnMargin",
      "key" : false,
      "selected" : true
    }, {
      "displayedInPriceShop" : true,
      "elementGroups" : [ "row" ],
      "elementLabel" : "Menge",
      "elementName" : "CCUnitsPurchased",
      "formatType" : "NUMERIC",
      "formulaDate" : "2018-01-01",
      "formulaName" : "DL_CalculateCustomerCategoryImpactOnMargin",
      "key" : false,
      "selected" : true
    }, {
      "displayedInPriceShop" : true,
      "elementGroups" : [ "row" ],
      "elementLabel" : "ProjectedSubtotalUmsatz",
      "elementName" : "ProjectedSubtotalUmsatz",
      "formatType" : "MONEY",
      "formulaDate" : "2018-01-01",
      "formulaName" : "DL_CalculateCustomerCategoryImpactOnMargin",
      "key" : false,
      "selected" : false
    }, {
      "displayedInPriceShop" : true,
      "elementGroups" : [ "row" ],
      "elementLabel" : "CCKundePotentialGruppe",
      "elementName" : "CCKundePotentialGruppe",
      "formatType" : "TEXT",
      "formulaDate" : "2018-01-01",
      "formulaName" : "DL_CalculateCustomerCategoryImpactOnMargin",
      "key" : false,
      "selected" : true
    }, {
      "displayedInPriceShop" : true,
      "elementGroups" : [ "row" ],
      "elementName" : "CommonCustomerCalculations",
      "formulaDate" : "2018-01-01",
      "formulaName" : "DL_CalculateCustomerCategoryImpactOnMargin",
      "key" : false,
      "selected" : false
    }, {
      "displayedInPriceShop" : true,
      "elementGroups" : [ "row" ],
      "elementLabel" : "Computed Gross Profit",
      "elementName" : "ComputedGrossProfit",
      "formulaDate" : "2018-01-01",
      "formulaName" : "DL_CalculateCustomerCategoryImpactOnMargin",
      "key" : false,
      "selected" : true
    }, {
      "displayedInPriceShop" : true,
      "elementGroups" : [ "row" ],
      "elementLabel" : "CCDMargin",
      "elementName" : "CCDMargin",
      "formulaDate" : "2018-01-01",
      "formulaName" : "DL_CalculateCustomerCategoryImpactOnMargin",
      "key" : false,
      "selected" : true
    }, {
      "displayedInPriceShop" : true,
      "elementGroups" : [ "row" ],
      "elementLabel" : "CorrectionType",
      "elementName" : "CorrectionType",
      "formulaDate" : "2018-01-01",
      "formulaName" : "DL_CalculateCustomerCategoryImpactOnMargin",
      "key" : false,
      "selected" : true
    }, {
      "displayedInPriceShop" : true,
      "elementGroups" : [ "row" ],
      "elementLabel" : "CCTotalMargin",
      "elementName" : "CCTotalMargin",
      "formulaDate" : "2018-01-01",
      "formulaName" : "DL_CalculateCustomerCategoryImpactOnMargin",
      "key" : false,
      "selected" : true
    }, {
      "displayedInPriceShop" : true,
      "elementGroups" : [ "row" ],
      "elementLabel" : "Potential Revenue Gain",
      "elementName" : "QualifiedPotentialRevGain",
      "formatType" : "MONEY",
      "formulaDate" : "2018-01-01",
      "formulaName" : "DL_CalculateCustomerCategoryImpactOnMargin",
      "key" : false,
      "selected" : true
    }, {
      "displayedInPriceShop" : true,
      "elementGroups" : [ "row" ],
      "elementLabel" : "IsProcessed",
      "elementName" : "IsProcessed",
      "formulaDate" : "2018-01-01",
      "formulaName" : "DL_CalculateCustomerCategoryImpactOnMargin",
      "key" : false,
      "selected" : true
    }, {
      "displayedInPriceShop" : true,
      "elementGroups" : [ "row" ],
      "elementName" : "CustomerCreationDate",
      "formulaDate" : "2018-01-01",
      "formulaName" : "DL_CalculateCustomerCategoryImpactOnMargin",
      "key" : false,
      "selected" : true
    }, {
      "displayedInPriceShop" : true,
      "elementGroups" : [ "row" ],
      "elementLabel" : "SubtotalMenge",
      "elementName" : "SubtotalMenge",
      "formulaDate" : "2018-01-01",
      "formulaName" : "DL_CalculateCustomerCategoryImpactOnMargin",
      "key" : false,
      "selected" : true
    }, {
      "displayedInPriceShop" : true,
      "elementGroups" : [ "row" ],
      "elementName" : "NonCCDMenge",
      "formulaDate" : "2018-01-01",
      "formulaName" : "DL_CalculateCustomerCategoryImpactOnMargin",
      "key" : false,
      "selected" : true
    }, {
      "displayedInPriceShop" : true,
      "elementGroups" : [ "row" ],
      "elementName" : "CCDMenge",
      "formulaDate" : "2018-01-01",
      "formulaName" : "DL_CalculateCustomerCategoryImpactOnMargin",
      "key" : false,
      "selected" : true
    }, {
      "displayedInPriceShop" : true,
      "elementGroups" : [ "row" ],
      "elementLabel" : "CCCategorizationMatchingRevenue",
      "elementName" : "CCCategorizationMatchingRevenue",
      "formulaDate" : "2018-01-01",
      "formulaName" : "DL_CalculateCustomerCategoryImpactOnMargin",
      "key" : false,
      "selected" : true
    }, {
      "displayedInPriceShop" : true,
      "elementGroups" : [ "row" ],
      "elementLabel" : "PotentialRevenue",
      "elementName" : "PotentialRevenue",
      "formulaDate" : "2018-01-01",
      "formulaName" : "DL_CalculateCustomerCategoryImpactOnMargin",
      "key" : false,
      "selected" : true
    }, {
      "displayedInPriceShop" : true,
      "elementGroups" : [ "row" ],
      "elementLabel" : "PotentialUmsatzGainPer",
      "elementName" : "PotentialUmsatzGainPer",
      "formulaDate" : "2018-01-01",
      "formulaName" : "DL_CalculateCustomerCategoryImpactOnMargin",
      "key" : false,
      "selected" : true
    }, {
      "displayedInPriceShop" : true,
      "elementGroups" : [ "row" ],
      "elementLabel" : "Subtotal Umsatz Before Discount",
      "elementName" : "SubtotalUmsatzBeforeDiscount",
      "formulaDate" : "2018-01-01",
      "formulaName" : "DL_CalculateCustomerCategoryImpactOnMargin",
      "key" : false,
      "selected" : true
    }, {
      "displayedInPriceShop" : true,
      "elementGroups" : [ "row" ],
      "elementLabel" : "CCYear",
      "elementName" : "CCYear",
      "formatType" : "DATE",
      "formulaDate" : "2018-01-01",
      "formulaName" : "DL_CalculateCustomerCategoryImpactOnMargin",
      "key" : false,
      "selected" : true
    }, {
      "displayedInPriceShop" : true,
      "elementGroups" : [ "row" ],
      "elementLabel" : "CustomerAgeInYears",
      "elementName" : "CustomerAgeInYears",
      "formulaDate" : "2018-01-01",
      "formulaName" : "DL_CalculateCustomerCategoryImpactOnMargin",
      "key" : false,
      "selected" : true
    }, {
      "displayedInPriceShop" : true,
      "elementGroups" : [ "row" ],
      "elementLabel" : "Line Item Umsatz",
      "elementName" : "SubtotalUmsatz",
      "formatType" : "MONEY",
      "formulaDate" : "2018-01-01",
      "formulaName" : "DL_CalculateCustomerCategoryImpactOnMargin",
      "key" : false,
      "selected" : true
    }, {
      "displayedInPriceShop" : true,
      "elementGroups" : [ "row" ],
      "elementLabel" : "PotentialMarginGainPer",
      "elementName" : "PotentialMarginGainPer",
      "formulaDate" : "2018-01-01",
      "formulaName" : "DL_CalculateCustomerCategoryImpactOnMargin",
      "key" : false,
      "selected" : true
    }, {
      "displayedInPriceShop" : true,
      "elementGroups" : [ "row" ],
      "elementLabel" : "CCComputedPotentialGroup",
      "elementName" : "CCComputedPotentialGroup",
      "formatType" : "TEXT",
      "formulaDate" : "2018-01-01",
      "formulaName" : "DL_CalculateCustomerCategoryImpactOnMargin",
      "key" : false,
      "selected" : true
    }, {
      "displayedInPriceShop" : true,
      "elementGroups" : [ "row" ],
      "elementLabel" : "SubTotalMargin",
      "elementName" : "SubtotalMargin",
      "formatType" : "MONEY",
      "formulaDate" : "2018-01-01",
      "formulaName" : "DL_CalculateCustomerCategoryImpactOnMargin",
      "key" : false,
      "selected" : true
    }, {
      "displayedInPriceShop" : true,
      "elementGroups" : [ "row" ],
      "elementLabel" : "Umsatz Before CCD",
      "elementName" : "PreCCDUmsatz",
      "formatType" : "MONEY",
      "formulaDate" : "2018-01-01",
      "formulaName" : "DL_CalculateCustomerCategoryImpactOnMargin",
      "key" : false,
      "selected" : true
    } ],
    "targetDate" : "2020-03-11"
  },
  "continuous" : false,
  "distributed" : false,
  "incLoadDate" : "2020-11-18T01:12:06",
  "incremental" : false,
  "isDefault" : false,
  "isPlasma" : false,
  "label" : "Compute Impact for wrong customer category on Margin",
  "targetDate" : "2020-03-11",
  "targetName" : "DMDS.CustomerCategorizationImpact",
  "type" : "CALCULATION",
  "valid" : true,
  "withTargetSnapshot" : false
}