{
  "aggregation" : false,
  "auxiliary" : false,
  "calculated" : false,
  "deleted" : false,
  "deployed" : true,
  "dimension" : false,
  "expression" : "Einstandspreis",
  "key" : false,
  "label" : "Einstandspreis",
  "labelTranslations" : { },
  "measureType" : "PERUNIT",
  "numeric" : true,
  "owningFC" : "Einstandpreis (ZPE)",
  "partitioningKey" : false,
  "persisted" : true,
  "queryable" : true,
  "source" : "DMDS.BaseCost",
  "sourceField" : "attribute3",
  "system" : false,
  "time" : false,
  "type" : "MONEY",
  "visibility" : 1
}