{
  "aggregation" : false,
  "auxiliary" : false,
  "calculated" : false,
  "deleted" : false,
  "deployed" : true,
  "dimension" : true,
  "expression" : "Gltigvon",
  "key" : true,
  "label" : "Gültig von",
  "labelTranslations" : { },
  "numeric" : false,
  "owningFC" : "Einstandpreis (ZPE)",
  "partitioningKey" : false,
  "persisted" : true,
  "queryable" : true,
  "source" : "DMDS.BaseCost",
  "sourceField" : "attribute1",
  "system" : false,
  "time" : true,
  "type" : "DATE",
  "visibility" : 1
}