{
  "fieldName" : "attribute2",
  "fieldType" : 1,
  "formatType" : "MONEY_EUR",
  "label" : "Margin €",
  "labelTranslations" : {
    "de" : "DB €"
  },
  "readOnly" : false,
  "requiredField" : false
}