{
  "fieldName" : "attribute1",
  "fieldType" : 1,
  "formatType" : "PERCENT",
  "label" : "Margin %",
  "labelTranslations" : {
    "de" : "DB %"
  },
  "readOnly" : false,
  "requiredField" : false
}