{
  "hideWarnings" : false,
  "isPlasma" : false,
  "label" : "Potentialgruppe lt. SAP",
  "status" : "ACTIVE",
  "type" : "SIMPLE",
  "uniqueName" : "Potentialgruppe",
  "validAfter" : "2017-05-23",
  "valueType" : "STRING"
}