{
  "areDefault" : true,
  "areGlobal" : true,
  "filter" : { },
  "preferenceName" : "n.seeger",
  "viewState" : "({field:[{name:\"sku\"},{name:\"lastUpdateDate\",width:80},{name:\"attribute1\"},{name:\"attribute2\"},{name:\"attribute3\"},{name:\"attribute4\"},{name:\"attribute5\"},{name:\"attribute6\"},{name:\"attribute7\"},{name:\"attribute8\"},{name:\"attribute9\"},{name:\"attribute10\"},{name:\"attribute11\"},{name:\"attribute12\",visible:false},{name:\"attribute13\",visible:false},{name:\"attribute14\",visible:false},{name:\"attribute15\",visible:false},{name:\"attribute16\",visible:false},{name:\"attribute17\",visible:false},{name:\"attribute18\",visible:false},{name:\"attribute19\",visible:false},{name:\"attribute20\",visible:false},{name:\"attribute21\",visible:false},{name:\"attribute22\",visible:false},{name:\"attribute23\",visible:false},{name:\"attribute24\",visible:false},{name:\"attribute25\",visible:false},{name:\"attribute26\",visible:false},{name:\"attribute27\",visible:false},{name:\"attribute28\",visible:false},{name:\"attribute29\",visible:false},{name:\"attribute30\",visible:false}]})"
}