{
  "elements" : [ {
    "allowOverride" : false,
    "combinationType" : "FUNCTION",
    "displayOptions" : 0,
    "elementName" : "RetainGlobalVars",
    "elementTimeout" : 0,
    "hideOnNull" : false,
    "hideWarnings" : false,
    "protectedExpression" : false,
    "summarize" : false
  }, {
    "allowOverride" : false,
    "combinationType" : "FUNCTION",
    "displayOptions" : 0,
    "elementGroups" : [ "row" ],
    "elementName" : "Init",
    "elementTimeout" : 0,
    "hideOnNull" : false,
    "hideWarnings" : false,
    "protectedExpression" : false,
    "summarize" : false
  }, {
    "allowOverride" : false,
    "combinationType" : "INFO",
    "displayOptions" : 0,
    "elementGroups" : [ "row" ],
    "elementLabel" : "Pricelist",
    "elementName" : "Pricelist",
    "elementTimeout" : 0,
    "hideOnNull" : false,
    "hideWarnings" : false,
    "protectedExpression" : false,
    "summarize" : false
  }, {
    "allowOverride" : false,
    "combinationType" : "INFO",
    "displayOptions" : 0,
    "elementGroups" : [ "row" ],
    "elementLabel" : "Customer ID",
    "elementName" : "CustomerID",
    "elementTimeout" : 0,
    "hideOnNull" : false,
    "hideWarnings" : false,
    "protectedExpression" : false,
    "summarize" : false
  }, {
    "allowOverride" : false,
    "combinationType" : "INFO",
    "displayOptions" : 0,
    "elementGroups" : [ "row" ],
    "elementLabel" : "Kunde Klasse",
    "elementName" : "Kunde_Klasse",
    "elementTimeout" : 0,
    "hideOnNull" : false,
    "hideWarnings" : false,
    "protectedExpression" : false,
    "summarize" : false
  }, {
    "allowOverride" : false,
    "combinationType" : "INFO",
    "displayOptions" : 0,
    "elementDescription" : "",
    "elementGroups" : [ "row" ],
    "elementLabel" : "Sku",
    "elementName" : "Sku",
    "elementTimeout" : 0,
    "hideOnNull" : false,
    "hideWarnings" : false,
    "protectedExpression" : false,
    "summarize" : false
  }, {
    "allowOverride" : false,
    "combinationType" : "FUNCTION",
    "displayOptions" : 16,
    "elementDescription" : "",
    "elementGroups" : [ "row" ],
    "elementLabel" : "Sku 10-stellig für Preis aus PL",
    "elementName" : "Sku10",
    "elementTimeout" : 0,
    "hideOnNull" : false,
    "hideWarnings" : false,
    "protectedExpression" : false,
    "summarize" : false
  }, {
    "allowOverride" : false,
    "combinationType" : "INFO",
    "displayOptions" : 0,
    "elementDescription" : "",
    "elementGroups" : [ "row" ],
    "elementLabel" : "Ready for Simulation",
    "elementName" : "ReadyForSim",
    "elementTimeout" : 0,
    "hideOnNull" : false,
    "hideWarnings" : false,
    "protectedExpression" : false,
    "summarize" : false
  }, {
    "allowOverride" : false,
    "combinationType" : "INFO",
    "displayOptions" : 0,
    "elementDescription" : "",
    "elementGroups" : [ "row" ],
    "elementLabel" : "Menge (Summe Stueck)",
    "elementName" : "Menge",
    "elementTimeout" : 0,
    "hideOnNull" : false,
    "hideWarnings" : false,
    "protectedExpression" : false,
    "summarize" : false
  }, {
    "allowOverride" : false,
    "combinationType" : "INFO",
    "displayOptions" : 0,
    "elementDescription" : "",
    "elementGroups" : [ "row" ],
    "elementLabel" : "Umsatz (Summe)",
    "elementName" : "Umsatz",
    "elementTimeout" : 0,
    "hideOnNull" : false,
    "hideWarnings" : false,
    "protectedExpression" : false,
    "summarize" : false
  }, {
    "allowOverride" : false,
    "combinationType" : "INFO",
    "displayOptions" : 0,
    "elementDescription" : "",
    "elementGroups" : [ "row" ],
    "elementLabel" : "DB (Summe)",
    "elementName" : "DB",
    "elementTimeout" : 0,
    "hideOnNull" : false,
    "hideWarnings" : false,
    "protectedExpression" : false,
    "summarize" : false
  }, {
    "allowOverride" : false,
    "combinationType" : "INFO",
    "displayOptions" : 0,
    "elementDescription" : "",
    "elementGroups" : [ "row" ],
    "elementLabel" : "EK (Summe)",
    "elementName" : "EK",
    "elementTimeout" : 0,
    "hideOnNull" : false,
    "hideWarnings" : false,
    "protectedExpression" : false,
    "summarize" : false
  }, {
    "allowOverride" : false,
    "combinationType" : "FUNCTION",
    "displayOptions" : 0,
    "elementDescription" : "",
    "elementGroups" : [ "row" ],
    "elementName" : "ReadyCheck",
    "elementTimeout" : 0,
    "hideOnNull" : false,
    "hideWarnings" : false,
    "protectedExpression" : false,
    "summarize" : false
  }, {
    "allowOverride" : false,
    "combinationType" : "FUNCTION",
    "displayOptions" : 0,
    "elementDescription" : "",
    "elementGroups" : [ "row" ],
    "elementName" : "PricelistCache",
    "elementTimeout" : 0,
    "hideOnNull" : false,
    "hideWarnings" : false,
    "protectedExpression" : false,
    "summarize" : false
  }, {
    "allowOverride" : false,
    "combinationType" : "INFO",
    "displayOptions" : 16,
    "elementDescription" : "",
    "elementGroups" : [ "row" ],
    "elementLabel" : "Preislist Preis",
    "elementName" : "PreislistPreis",
    "elementTimeout" : 0,
    "formatType" : "MONEY",
    "hideOnNull" : false,
    "hideWarnings" : false,
    "protectedExpression" : false,
    "summarize" : false
  }, {
    "allowOverride" : false,
    "combinationType" : "FUNCTION",
    "displayOptions" : 0,
    "elementGroups" : [ "row" ],
    "elementName" : "StandardRabattCache",
    "elementTimeout" : 0,
    "hideOnNull" : false,
    "hideWarnings" : false,
    "protectedExpression" : false,
    "summarize" : false
  }, {
    "allowOverride" : false,
    "combinationType" : "INFO",
    "displayOptions" : 16,
    "elementGroups" : [ "row" ],
    "elementLabel" : "Standard Rabatt",
    "elementName" : "StandardRabatt",
    "elementTimeout" : 0,
    "formatType" : "PERCENT",
    "hideOnNull" : false,
    "hideWarnings" : false,
    "protectedExpression" : false,
    "summarize" : false
  }, {
    "allowOverride" : false,
    "combinationType" : "INFO",
    "displayOptions" : 16,
    "elementDescription" : "",
    "elementGroups" : [ "row" ],
    "elementLabel" : "Net Preis",
    "elementName" : "NetPreis",
    "elementTimeout" : 0,
    "formatType" : "MONEY",
    "hideOnNull" : false,
    "hideWarnings" : false,
    "protectedExpression" : false,
    "summarize" : false
  }, {
    "allowOverride" : false,
    "combinationType" : "INFO",
    "displayOptions" : 16,
    "elementGroups" : [ "row" ],
    "elementLabel" : "Preis Diff",
    "elementName" : "PreisDiff",
    "elementTimeout" : 0,
    "formatType" : "MONEY",
    "hideOnNull" : false,
    "hideWarnings" : false,
    "protectedExpression" : false,
    "summarize" : false
  }, {
    "allowOverride" : false,
    "combinationType" : "INFO",
    "displayOptions" : 16,
    "elementGroups" : [ "row" ],
    "elementLabel" : "SIM_Umsatz",
    "elementName" : "SIM_Umsatz",
    "elementTimeout" : 0,
    "formatType" : "MONEY",
    "hideOnNull" : false,
    "hideWarnings" : false,
    "protectedExpression" : false,
    "summarize" : false
  }, {
    "allowOverride" : false,
    "combinationType" : "INFO",
    "displayOptions" : 16,
    "elementGroups" : [ "row" ],
    "elementLabel" : "SIM_DB",
    "elementName" : "SIM_DB",
    "elementTimeout" : 0,
    "formatType" : "MONEY",
    "hideOnNull" : false,
    "hideWarnings" : false,
    "protectedExpression" : false,
    "summarize" : false
  }, {
    "allowOverride" : false,
    "combinationType" : "INFO",
    "displayOptions" : 16,
    "elementDescription" : "null",
    "elementGroups" : [ "row" ],
    "elementLabel" : "Differential DBs (Sim-historic) in Sum",
    "elementName" : "DB_Diff",
    "elementTimeout" : 0,
    "formatType" : "MONEY",
    "hideOnNull" : false,
    "hideWarnings" : false,
    "protectedExpression" : false,
    "summarize" : false
  }, {
    "allowOverride" : false,
    "combinationType" : "INFO",
    "displayOptions" : 16,
    "elementDescription" : "null",
    "elementGroups" : [ "row" ],
    "elementLabel" : "Differential Umsatz (Sim-historic) in Sum",
    "elementName" : "Umsatz_Diff",
    "elementTimeout" : 0,
    "formatType" : "MONEY",
    "hideOnNull" : false,
    "hideWarnings" : false,
    "protectedExpression" : false,
    "summarize" : false
  }, {
    "allowOverride" : false,
    "combinationType" : "INFO",
    "displayOptions" : 16,
    "elementDescription" : "null",
    "elementGroups" : [ "row" ],
    "elementLabel" : "Differential Umsatz (Sim-historic) in Prozent",
    "elementName" : "Umsatz_Diff_prozentual",
    "elementTimeout" : 0,
    "formatType" : "PERCENT",
    "hideOnNull" : false,
    "hideWarnings" : false,
    "protectedExpression" : false,
    "summarize" : false
  }, {
    "allowOverride" : false,
    "combinationType" : "INFO",
    "displayOptions" : 16,
    "elementGroups" : [ "row" ],
    "elementLabel" : "Clearing Faktor",
    "elementName" : "Clearing",
    "elementTimeout" : 0,
    "formatType" : "PERCENT",
    "hideOnNull" : false,
    "hideWarnings" : false,
    "protectedExpression" : false,
    "summarize" : false
  } ],
  "formulaNature" : "paDataLoad",
  "inputDescriptors" : [ ],
  "label" : "Net Price for TX DM Sim (PL nur 10-stellige!!) - Optimized - should run faster",
  "status" : "ACTIVE",
  "uniqueName" : "NetPrice_SKU10_ohneLF_optimized",
  "validAfter" : "2015-01-05"
}