{
  "areDefault" : true,
  "areGlobal" : true,
  "columnLabels" : "{}",
  "preferenceName" : "MLZperCDG",
  "viewState" : {
    "field" : [ ],
    "layout" : [ {
      "h" : 10,
      "i" : "ZPAPsPerCustomerDiscountGroupChart",
      "isChart" : true,
      "isMaximized" : null,
      "minH" : 3,
      "minW" : 4,
      "moved" : false,
      "static" : false,
      "w" : 9,
      "x" : 3,
      "y" : 0
    }, {
      "h" : 10,
      "i" : "ZPAPsPerCustomerDiscountGroupTable",
      "isChart" : false,
      "isMaximized" : null,
      "minH" : 3,
      "minW" : 3,
      "moved" : false,
      "static" : false,
      "w" : 3,
      "x" : 0,
      "y" : 0
    } ]
  }
}