{
  "auxiliary" : false,
  "baseCcyCode" : "EUR",
  "baseUomCode" : "EA",
  "deployed" : true,
  "fields" : [ "InvoiceYear", "Material", "alerts", "completeResultsAvailable", "formulaDetailedResults", "formulaResult", "isDeleted", "lastUpdateDate", "p1_SalesPricePer100Units", "p2_Units", "p3_MarginAbs", "p4_Revenue", "p5_SalesPricePer100Units", "p6_SalesPricePer100Units", "warnings" ],
  "isPlasma" : false,
  "label" : "TransactionSummaryPerArticleDM",
  "loadableFields" : [ "Material", "InvoiceYear", "isDeleted", "lastUpdateDate", "formulaResult", "formulaDetailedResults", "warnings", "alerts" ],
  "localFields" : [ "Material", "InvoiceYear", "isDeleted", "lastUpdateDate", "formulaResult", "formulaDetailedResults", "warnings", "alerts" ],
  "locked" : false,
  "normalization" : "HIGH",
  "queryable" : true,
  "source" : "DMDS.TransactionSummaryPerArticle",
  "type" : "DATAMART",
  "uniqueName" : "DataTransactionsPerArticleDM",
  "valid" : true,
  "view" : false
}