{
  "folder" : "Price Increase Simulation",
  "hideWarnings" : false,
  "label" : "Sales Price Increase 2",
  "status" : "ACTIVE",
  "type" : "MATRIX",
  "uniqueName" : "SalesPriceIncrease2",
  "validAfter" : "2018-11-01",
  "valueType" : "MATRIX"
}