{
  "aggregation" : false,
  "auxiliary" : false,
  "calculated" : false,
  "deleted" : false,
  "deployed" : true,
  "dimension" : false,
  "expression" : "CountOfCustomers",
  "key" : false,
  "label" : "Count Of Customers",
  "measureType" : "EXTENDED",
  "numeric" : true,
  "owningFC" : "CCRSummaryData",
  "persisted" : true,
  "queryable" : true,
  "source" : "DMDS.CCRSummaryData",
  "system" : false,
  "time" : false,
  "type" : "NUMBER"
}