{
  "aggregation" : false,
  "auxiliary" : false,
  "calculated" : false,
  "deleted" : false,
  "deployed" : true,
  "dimension" : false,
  "expression" : "PurchasePriceChangeLoss",
  "key" : false,
  "label" : "Purchase Price Change Loss",
  "labelTranslations" : { },
  "measureType" : "FIXED",
  "numeric" : true,
  "owningFC" : "Purchase Price Inefficiency Records",
  "partitioningKey" : false,
  "persisted" : true,
  "queryable" : true,
  "source" : "DMDS.PurchasePriceInefficiencyRecords",
  "system" : false,
  "time" : false,
  "type" : "MONEY",
  "visibility" : 1
}