{
  "elements" : [ {
    "allowOverride" : false,
    "combinationType" : "FUNCTION",
    "displayOptions" : 0,
    "elementGroups" : [ ],
    "elementName" : "Constants",
    "elementTimeout" : 0,
    "hideOnNull" : false,
    "hideWarnings" : false,
    "protectedExpression" : false,
    "summarize" : false
  }, {
    "allowOverride" : false,
    "combinationType" : "FUNCTION",
    "displayOptions" : 0,
    "elementGroups" : [ ],
    "elementName" : "Library",
    "elementTimeout" : 0,
    "hideOnNull" : false,
    "hideWarnings" : false,
    "protectedExpression" : false,
    "summarize" : false
  }, {
    "allowOverride" : false,
    "combinationType" : "FUNCTION",
    "displayOptions" : 0,
    "elementName" : "SKU",
    "elementTimeout" : 0,
    "hideOnNull" : false,
    "hideWarnings" : false,
    "protectedExpression" : false,
    "summarize" : false
  }, {
    "allowOverride" : false,
    "combinationType" : "FUNCTION",
    "displayOptions" : 16,
    "elementGroups" : [ ],
    "elementLabel" : "Select Table",
    "elementName" : "PxTable",
    "elementTimeout" : 0,
    "hideOnNull" : false,
    "hideWarnings" : false,
    "protectedExpression" : false,
    "summarize" : false
  }, {
    "allowOverride" : false,
    "combinationType" : "FUNCTION",
    "displayOptions" : 0,
    "elementGroups" : [ ],
    "elementLabel" : "AbortOnSyntacCheck",
    "elementName" : "AbortOnSyntacCheck",
    "elementTimeout" : 0,
    "hideOnNull" : false,
    "hideWarnings" : false,
    "protectedExpression" : false,
    "summarize" : false
  }, {
    "allowOverride" : false,
    "combinationType" : "FUNCTION",
    "displayOptions" : 0,
    "elementGroups" : [ ],
    "elementName" : "PxTableAttributes",
    "elementTimeout" : 0,
    "hideOnNull" : false,
    "hideWarnings" : false,
    "protectedExpression" : false,
    "summarize" : false
  }, {
    "allowOverride" : false,
    "combinationType" : "FUNCTION",
    "displayOptions" : 0,
    "elementLabel" : "ValidFromDate",
    "elementName" : "ValidFromDate",
    "elementTimeout" : 0,
    "hideOnNull" : false,
    "hideWarnings" : false,
    "protectedExpression" : false,
    "summarize" : false
  }, {
    "allowOverride" : false,
    "combinationType" : "FUNCTION",
    "displayOptions" : 0,
    "elementGroups" : [ ],
    "elementLabel" : "Current Price",
    "elementName" : "CurrentPrice",
    "elementTimeout" : 0,
    "hideOnNull" : false,
    "hideWarnings" : false,
    "protectedExpression" : false,
    "summarize" : false
  }, {
    "allowOverride" : false,
    "combinationType" : "FUNCTION",
    "displayOptions" : 16,
    "elementGroups" : [ ],
    "elementLabel" : "Previous Price",
    "elementName" : "PreviousPrice",
    "elementTimeout" : 0,
    "hideOnNull" : false,
    "hideWarnings" : false,
    "protectedExpression" : false,
    "summarize" : false
  }, {
    "allowOverride" : false,
    "combinationType" : "FUNCTION",
    "displayOptions" : 16,
    "elementGroups" : [ ],
    "elementLabel" : "Previous Price Valid From ",
    "elementName" : "PPValidFrom",
    "elementTimeout" : 0,
    "hideOnNull" : false,
    "hideWarnings" : false,
    "protectedExpression" : false,
    "summarize" : false
  }, {
    "allowOverride" : false,
    "combinationType" : "FUNCTION",
    "displayOptions" : 16,
    "elementGroups" : [ ],
    "elementLabel" : "Previous Price Valid To ",
    "elementName" : "PPValidTo",
    "elementTimeout" : 0,
    "hideOnNull" : false,
    "hideWarnings" : false,
    "protectedExpression" : false,
    "summarize" : false
  }, {
    "allowOverride" : false,
    "combinationType" : "FUNCTION",
    "displayOptions" : 16,
    "elementLabel" : "Difference In Price",
    "elementName" : "PriceDiff",
    "elementTimeout" : 0,
    "hideOnNull" : false,
    "hideWarnings" : false,
    "protectedExpression" : false,
    "summarize" : false
  }, {
    "allowOverride" : false,
    "combinationType" : "FUNCTION",
    "displayOptions" : 16,
    "elementGroups" : [ ],
    "elementLabel" : "Validation Type",
    "elementName" : "ValidationType",
    "elementTimeout" : 0,
    "hideOnNull" : false,
    "hideWarnings" : false,
    "protectedExpression" : false,
    "summarize" : false
  } ],
  "inputDescriptors" : [ ],
  "label" : "CFS Update Percentage Increase In Price",
  "status" : "ACTIVE",
  "uniqueName" : "CFS_UpdatePercentageIncreaseInPrice",
  "validAfter" : "2016-01-01"
}