{
  "activated" : true,
  "businessRoles" : [ "PGM" ],
  "email" : "Andrey.Sokolov@haefele.de",
  "firstLogin" : false,
  "firstName" : "Andrey",
  "groups" : [ "PGM" ],
  "lastName" : "Sokolov",
  "loginName" : "andrey.sokolov",
  "noSession" : false,
  "productFilterCriteria" : "{\n    \"operator\":\"and\", \n    \"_constructor\":\"AdvancedCriteria\", \n    \"criteria\":[\n        {\n            \"fieldName\":\"attribute5\", \n            \"operator\":\"iContainsPattern\", \n            \"value\":\"HDE9301\", \n            \"_constructor\":\"AdvancedCriteria\"\n        }\n    ]\n}",
  "receiveAdminEmail" : false,
  "requireTFA" : false,
  "ssoOnly" : false,
  "workflowEmailingActivated" : true
}