{
  "activated" : true,
  "businessRoles" : [ "VBL" ],
  "email" : "gerd.richter@haefele.de",
  "firstLogin" : false,
  "firstName" : "Gerd",
  "groups" : [ "VBL" ],
  "lastName" : "Richter",
  "loginName" : "gerd.richter",
  "noSession" : false,
  "receiveAdminEmail" : false,
  "requireTFA" : false,
  "ssoOnly" : false,
  "workflowEmailingActivated" : true
}