{
  "activated" : true,
  "businessRoles" : [ "PGM" ],
  "email" : "Lukas.Maechtle@haefele.de",
  "firstLogin" : false,
  "firstName" : "Lukas",
  "groups" : [ "PGM" ],
  "lastName" : "Maechtle",
  "loginName" : "lukas.maechtle",
  "noSession" : false,
  "productFilterCriteria" : "{\n    \"operator\":\"and\", \n    \"_constructor\":\"AdvancedCriteria\", \n    \"criteria\":[\n        {\n            \"fieldName\":\"attribute5\", \n            \"operator\":\"iContainsPattern\", \n            \"value\":\"HDE9440\", \n            \"_constructor\":\"AdvancedCriteria\"\n        }\n    ]\n}",
  "receiveAdminEmail" : false,
  "requireTFA" : false,
  "ssoOnly" : false,
  "workflowEmailingActivated" : true
}