{
  "aggregation" : false,
  "auxiliary" : false,
  "calculated" : false,
  "deleted" : false,
  "deployed" : true,
  "dimension" : false,
  "expression" : "VTWEG",
  "key" : false,
  "label" : "VTWEG",
  "labelTranslations" : { },
  "numeric" : false,
  "owningFC" : "Einkaufspreis (ZNRV) New",
  "partitioningKey" : false,
  "persisted" : true,
  "queryable" : true,
  "source" : "DMDS.S_ZNRV",
  "sourceField" : "VTWEG",
  "system" : false,
  "time" : false,
  "type" : "TEXT",
  "visibility" : 1
}