{
  "areDefault" : true,
  "areGlobal" : true,
  "preferenceName" : "DBUE",
  "viewState" : {
    "field" : [ {
      "frozen" : false,
      "name" : "Monat",
      "visible" : true
    }, {
      "frozen" : false,
      "name" : "2013",
      "visible" : true
    }, {
      "frozen" : false,
      "name" : "2014",
      "visible" : true
    }, {
      "frozen" : false,
      "name" : "2015",
      "visible" : true
    }, {
      "frozen" : false,
      "name" : "2016",
      "visible" : true
    }, {
      "frozen" : false,
      "name" : "2017",
      "visible" : true
    }, {
      "frozen" : false,
      "name" : "2018",
      "visible" : true
    }, {
      "frozen" : false,
      "name" : "CAGR",
      "visible" : true
    }, {
      "frozen" : false,
      "name" : "2019_Hochgerechnet",
      "visible" : true
    }, {
      "frozen" : false,
      "name" : "Ist",
      "visible" : true
    }, {
      "frozen" : false,
      "name" : "Ist_vs_Soll_(_)",
      "visible" : true
    }, {
      "frozen" : false,
      "name" : "Trend_Ist_vs_Soll",
      "visible" : true
    }, {
      "frozen" : false,
      "name" : "Plan",
      "visible" : true
    }, {
      "frozen" : false,
      "name" : "Ist_vs_Plan_(_)",
      "visible" : true
    }, {
      "frozen" : false,
      "name" : "Trend_Ist_vs_Plan",
      "visible" : true
    } ],
    "group" : [ ],
    "sort" : { }
  }
}