{
  "actionUUID" : "TruncateTask-FmaaH",
  "calculationConfig" : {
    "feederInputParams" : [ ],
    "inputParams" : [ ],
    "mappingParams" : [ ],
    "outputElements" : [ ]
  },
  "continuous" : false,
  "distributed" : false,
  "dtoFilter" : {
    "_constructor" : "AdvancedCriteria",
    "criteria" : [ {
      "fieldName" : "formulaResult",
      "operator" : "equals",
      "value" : "OK"
    } ],
    "operator" : "and"
  },
  "incLoadDate" : "2021-05-21T00:03:13",
  "incremental" : true,
  "isDefault" : true,
  "isPlasma" : false,
  "label" : "Product",
  "targetName" : "DMF.Product",
  "type" : "TRUNCATE",
  "valid" : true,
  "withTargetSnapshot" : false
}