{
  "fieldName" : "attribute1",
  "fieldType" : 2,
  "fieldValueOptions" : "[\"DataMart\",\"DataSource\",\"Product Extension\",\"Customer Extension\",\"Price Parameter\"]",
  "label" : "TableType",
  "labelTranslations" : {
    "" : "Table Type"
  },
  "readOnly" : false,
  "requiredField" : false
}