{
  "configuration" : {
    "MPLUniqueName" : null,
    "extensionName" : "ClearingRebate",
    "formulaName" : "CFS_ZPAPsEmulatingClearingRebates",
    "inputs" : [ {
      "addUnknownValues" : null,
      "alwaysEditable" : null,
      "filter" : null,
      "formattingOptions" : { },
      "label" : "ProductSKU",
      "labelTranslations" : null,
      "lookupTableId" : null,
      "name" : "ProductSKU",
      "parameterConfig" : {
        "dataType" : "product"
      },
      "parameterGroup" : null,
      "readOnly" : null,
      "required" : null,
      "type" : "PRODUCT",
      "typedId" : null,
      "url" : null,
      "value" : null,
      "valueHint" : null,
      "valueOptions" : null
    } ],
    "lookupTableUniqueName" : null,
    "lookupTableValueType" : null,
    "mappings" : [ {
      "fromEntry" : "EmulatesClearingRebate",
      "toEntry" : "attribute16"
    }, {
      "fromEntry" : "ClearingRebateDiscount",
      "toEntry" : "attribute14"
    }, {
      "fromEntry" : "ClearingPrice",
      "toEntry" : "attribute15"
    }, {
      "fromEntry" : "CustomerSalesPrice",
      "toEntry" : "attribute6"
    } ],
    "preserveLastUpdate" : true,
    "sortKeys" : "sku",
    "sourceFilterCriteria" : {
      "_constructor" : "AdvancedCriteria",
      "criteria" : [ ],
      "operator" : "and"
    },
    "sourceTypeCode" : "PX"
  },
  "keepManualOverrides" : false,
  "label" : "ZPAPs emulating Clearing Rebates",
  "writeOnlyChangedItems" : false
}