[ {
  "addUnknownValues" : null,
  "filter" : null,
  "label" : "Context",
  "labelTranslations" : null,
  "lookupTableId" : null,
  "name" : "PFX_STUDIO_TYPECODE",
  "parameterConfig" : null,
  "parameterGroup" : null,
  "readOnly" : null,
  "required" : null,
  "type" : "OPTION",
  "url" : null,
  "value" : "PRODUCTEXTENSION",
  "valueHint" : null,
  "valueOptions" : [ "PRODUCT", "PRODUCTEXTENSION", "PRICEGRIDITEM", "PRICELISTITEM", "MATRIXPRICEGRIDITEM", "MATRIXPRICELISTITEM", "CUSTOMER", "CUSTOMEREXTENSION", "PRICERECORD", "MANUALPRICELISTITEM" ]
}, {
  "addUnknownValues" : null,
  "filter" : null,
  "label" : "ProductSKU",
  "labelTranslations" : null,
  "lookupTableId" : null,
  "name" : "ProductSKU",
  "parameterConfig" : null,
  "parameterGroup" : null,
  "readOnly" : null,
  "required" : null,
  "type" : "STRINGUSERENTRY",
  "url" : null,
  "value" : "000.07.115",
  "valueHint" : null,
  "valueOptions" : [ ]
}, {
  "addUnknownValues" : null,
  "filter" : null,
  "label" : "PX name",
  "labelTranslations" : null,
  "lookupTableId" : null,
  "name" : "PFX_STUDIO_OX_NAME",
  "parameterConfig" : null,
  "parameterGroup" : null,
  "readOnly" : null,
  "required" : null,
  "type" : "OPTION",
  "url" : null,
  "value" : "CustomerSalesPrice",
  "valueHint" : null,
  "valueOptions" : [ "ManualDiscount", "BaseCost", "SalesPrice", "SalesHistory", "CustomerSalesPrice", "ClearingRebate", "Competition", "BreakEvenPointPriceRecommendation", "FutureBaseCost", "CustomerSalesPrice2", "CRMProject", "Elasticity", "NetPrice", "CompoundPrice", "FocusGroup", "OccasionPrice", "PromotionalSpecialPrice", "FixedPrice", "ProductH2", "RecommendedPrice", "RecommendedPrice2", "SalesPersonDiscountHN", "SurchargeCostPrice" ]
}, {
  "addUnknownValues" : null,
  "filter" : null,
  "label" : "Source Id",
  "labelTranslations" : null,
  "lookupTableId" : null,
  "name" : "PFX_STUDIO_KEY_0_attribute13",
  "parameterConfig" : null,
  "parameterGroup" : null,
  "readOnly" : null,
  "required" : null,
  "type" : "STRINGUSERENTRY",
  "url" : null,
  "value" : "A005",
  "valueHint" : null,
  "valueOptions" : [ ]
}, {
  "addUnknownValues" : null,
  "filter" : null,
  "label" : "Gültig von",
  "labelTranslations" : null,
  "lookupTableId" : null,
  "name" : "PFX_STUDIO_KEY_0_attribute2",
  "parameterConfig" : null,
  "parameterGroup" : null,
  "readOnly" : null,
  "required" : null,
  "type" : "STRINGUSERENTRY",
  "url" : null,
  "value" : "2019-02-01",
  "valueHint" : null,
  "valueOptions" : [ ]
}, {
  "addUnknownValues" : null,
  "filter" : null,
  "label" : "Customer ID",
  "labelTranslations" : null,
  "lookupTableId" : null,
  "name" : "PFX_STUDIO_KEY_0_attribute1",
  "parameterConfig" : null,
  "parameterGroup" : null,
  "readOnly" : null,
  "required" : null,
  "type" : "STRINGUSERENTRY",
  "url" : null,
  "value" : "0001026062",
  "valueHint" : null,
  "valueOptions" : [ ]
}, {
  "addUnknownValues" : null,
  "filter" : null,
  "label" : "targetDate",
  "labelTranslations" : null,
  "lookupTableId" : null,
  "name" : "targetDate",
  "parameterConfig" : null,
  "parameterGroup" : null,
  "readOnly" : null,
  "required" : null,
  "type" : "DATEUSERENTRY",
  "url" : null,
  "value" : "2020-04-20",
  "valueHint" : null,
  "valueOptions" : [ ]
} ]