{
  "aggregation" : false,
  "auxiliary" : false,
  "calculated" : false,
  "deleted" : false,
  "deployed" : true,
  "dimension" : false,
  "expression" : "Pctdifference",
  "key" : false,
  "label" : "%difference",
  "labelTranslations" : { },
  "measureType" : "FIXED",
  "numeric" : true,
  "owningFC" : "ZPAP",
  "partitioningKey" : false,
  "persisted" : true,
  "queryable" : true,
  "source" : "DMDS.S_ZPAP",
  "sourceField" : "attribute32",
  "system" : false,
  "time" : false,
  "type" : "NUMBER",
  "visibility" : 1
}